<svg width="1510" height="1024" viewBox="0 0 1510 1024" fill="none" xmlns="http://www.w3.org/2000/svg">
<rect width="1510" height="938" fill="#F3F4F6"/>
<path d="M1494.93 356.157C1500.02 319.6 1490.22 278.897 1461.78 255.531C1433.14 232.165 1384.54 233.484 1363.63 264.011C1352.9 279.463 1350.63 299.249 1343.48 316.585C1336.32 333.921 1319.74 350.881 1301.28 347.112C1288.47 344.474 1279.81 333.167 1270.01 324.499C1260.21 315.831 1244.58 309.801 1234.78 318.469C1230.83 321.861 1228.76 326.949 1225.93 331.283C1217.27 344.097 1199.37 349.75 1184.86 344.285C1173.19 339.763 1161.69 329.022 1150.02 333.544C1142.48 336.559 1138.71 345.227 1131.74 349.561C1122.89 355.215 1111.4 352.2 1101.04 350.881C1082.2 348.431 1063.17 351.257 1044.53 354.084C983.869 363.317 923.212 372.739 862.555 381.973C920.763 394.41 981.608 378.392 1040.57 386.684C1071.84 391.018 1102.36 402.324 1134 402.889C1156.42 403.266 1179.03 398.178 1201.07 402.701C1233.65 409.485 1263.04 436.997 1295.63 430.025C1321.25 424.56 1341.4 398.178 1367.59 400.628C1374.94 401.382 1381.91 404.397 1388.87 407.223C1412.05 417.022 1437.66 426.067 1462.15 420.037C1486.64 414.007 1507.17 386.495 1496.81 363.506" fill="url(#paint0_linear)"/>
<path opacity="0.15" d="M755.594 609.221C923.713 609.221 1060 472.888 1060 304.713C1060 136.538 923.713 0.205322 755.594 0.205322C587.475 0.205322 451.188 136.538 451.188 304.713C451.188 472.888 587.475 609.221 755.594 609.221Z" fill="white"/>
<path d="M755.594 487.45C856.483 487.45 938.27 405.636 938.27 304.713C938.27 203.79 856.483 121.976 755.594 121.976C654.705 121.976 572.918 203.79 572.918 304.713C572.918 405.636 654.705 487.45 755.594 487.45Z" fill="url(#paint1_linear)"/>
<path d="M1163.77 551.248L1302.79 446.853L1376.44 499.051L1510 401.628V680.705H1149.26L1163.77 551.248Z" fill="#F5F7FC"/>
<path d="M1302.79 446.853L1353.46 515.822L1376.44 499.051L1302.79 446.853Z" fill="white"/>
<path d="M222.268 356.403L657.415 708.594H3V536.55L222.268 356.403Z" fill="#F0F2F7"/>
<path d="M222.269 356.403L262.392 446.853H232.064L309.298 521.098L379.75 483.787L222.269 356.403Z" fill="white"/>
<path d="M3 622.263C3 622.263 131.66 607.188 445.681 427.042H502.194L521.031 400.66L788.524 268.188L1510 607.942V866.102H3V622.263Z" fill="#F0F2F7"/>
<path d="M788.524 268L997.997 441.928L940.5 427.5L1147 595.882L1510 607.754L788.524 268Z" fill="white"/>
<path d="M1147 595.882L954.105 750.401L1211.05 595.882H1147Z" fill="white"/>
<path d="M502.194 426.853L431.93 495.822L475.821 426.853H502.194Z" fill="white"/>
<path d="M1494.72 654.83C1494.72 652.176 1493.21 649.712 1491.69 647.627C1489.99 645.353 1488.85 642.889 1487.33 640.425C1485.63 637.582 1483.73 635.307 1483.35 631.896C1486.39 629.053 1489.42 638.34 1493.4 637.013C1496.24 636.066 1494.91 631.896 1493.21 629.432C1489.42 623.746 1486.95 617.491 1485.44 610.857C1484.68 607.635 1484.11 604.224 1483.73 600.812C1483.54 599.485 1483.73 592.283 1480.7 594.178C1479.75 594.747 1479.56 595.884 1479.18 597.021C1477.86 602.518 1476.72 608.204 1475.2 613.701C1474.07 618.06 1473.5 624.125 1470.66 627.726C1469.14 629.811 1467.25 631.327 1467.44 634.17C1467.44 634.36 1467.44 634.549 1467.62 634.739C1467.81 635.118 1468.19 635.118 1468.38 635.307C1471.6 636.445 1473.88 633.981 1475.96 631.896C1476.15 631.706 1476.53 631.327 1476.91 631.138C1477.29 630.948 1477.67 630.948 1478.05 631.327C1478.81 632.085 1478.05 634.17 1478.05 635.118C1477.67 637.961 1476.34 640.614 1474.64 642.889C1471.98 646.68 1468.38 649.712 1466.11 653.882C1465.92 654.071 1465.92 654.45 1465.73 654.83H1449.43L1339.52 764.76C1337.63 760.78 1334.22 757.747 1331.56 754.335C1330.05 752.25 1328.53 750.166 1327.96 747.702C1327.77 747.133 1327.02 744.859 1327.4 744.29C1328.34 742.963 1329.67 744.669 1330.05 745.427C1330.81 746.564 1331.56 747.891 1332.32 749.028C1332.89 749.976 1333.65 750.734 1334.6 751.303C1335.54 751.871 1336.68 752.061 1337.63 751.682C1338.95 751.113 1339.52 749.597 1339.71 748.081C1339.9 745.806 1338.95 743.721 1337.63 741.826C1336.3 739.931 1334.79 738.414 1333.27 736.709C1332.13 735.571 1331 734.245 1330.05 732.918C1328.91 731.591 1324.36 722.873 1327.77 721.735C1328.53 721.546 1329.48 721.925 1330.24 722.493C1330.81 723.062 1331.37 723.82 1331.94 724.578C1333.27 726.095 1335.35 727.042 1337.44 726.853C1338.01 726.853 1338.58 726.663 1338.95 726.474C1339.71 725.905 1339.9 725.147 1339.9 724.199C1339.9 721.546 1338.39 719.271 1336.87 716.997C1335.16 714.723 1334.03 712.259 1332.51 709.795C1330.81 706.952 1328.91 704.677 1328.53 701.266C1331.56 698.423 1334.6 707.71 1338.58 706.383C1341.42 705.435 1340.09 701.266 1338.39 698.802C1334.6 693.116 1332.13 686.861 1330.62 680.227C1329.86 677.005 1329.29 673.593 1328.91 670.182C1328.72 668.855 1328.91 661.653 1325.88 663.548C1324.93 664.117 1324.74 665.254 1324.36 666.391C1323.04 671.888 1321.9 677.574 1320.38 683.07C1319.25 687.43 1318.68 693.495 1315.84 697.096C1314.32 699.181 1312.42 700.697 1312.61 703.54C1312.61 703.73 1312.61 703.919 1312.8 704.109C1312.99 704.488 1313.37 704.488 1313.56 704.677C1316.78 705.814 1319.06 703.35 1321.14 701.266C1321.33 701.076 1321.71 700.697 1322.09 700.507C1322.47 700.318 1322.85 700.318 1323.23 700.697C1323.98 701.455 1323.23 703.54 1323.23 704.488C1322.85 707.331 1321.52 709.984 1319.81 712.259C1317.16 716.049 1313.56 719.082 1311.29 723.252C1310.91 724.01 1310.53 724.957 1310.53 725.905C1310.72 727.8 1312.42 728.748 1314.13 728.748C1316.4 728.938 1317.54 727.232 1318.49 725.336C1319.06 724.01 1319.63 722.683 1320.76 722.114C1321.14 721.925 1321.52 721.925 1321.71 722.114C1321.71 722.304 1321.71 722.304 1321.9 722.493C1322.09 725.147 1321.52 727.8 1320.38 730.264C1319.25 732.728 1317.35 734.434 1315.27 736.33C1314.13 737.277 1313.18 738.414 1312.42 739.741C1311.86 740.689 1311.48 741.826 1311.67 742.774C1311.86 743.911 1312.42 744.859 1313.37 745.238C1314.7 745.806 1316.4 745.048 1317.35 743.911C1317.92 743.342 1320.76 738.604 1321.9 740.499C1322.28 741.068 1321.52 743.721 1321.33 744.479C1320.76 746.943 1320 749.407 1319.06 751.871C1318.87 752.061 1318.87 752.44 1318.68 752.629L1312.8 746.754H1248.56C1248.75 743.153 1246.48 739.362 1244.39 736.898C1240.98 732.918 1236.81 728.369 1237.76 723.062C1241.36 723.441 1242.31 729.506 1245.91 729.317C1248.56 729.317 1249.51 725.716 1248.94 723.252C1247.8 717.755 1243.26 713.964 1239.85 709.795C1238.33 707.71 1236.81 705.625 1236.25 703.161C1236.06 702.592 1235.3 700.318 1235.68 699.749C1236.62 698.423 1237.95 700.128 1238.33 700.887C1239.09 702.024 1239.85 703.35 1240.6 704.488C1241.17 705.435 1241.93 706.193 1242.88 706.762C1243.83 707.331 1244.96 707.52 1245.91 707.141C1247.24 706.573 1247.8 705.056 1247.99 703.54C1248.18 701.266 1247.24 699.181 1245.91 697.285C1244.58 695.39 1243.07 693.874 1241.55 692.168C1240.41 691.031 1239.28 689.704 1238.33 688.377C1237.19 687.05 1232.64 678.332 1236.06 677.195C1236.81 677.005 1237.76 677.384 1238.52 677.953C1239.09 678.521 1239.66 679.28 1240.22 680.038C1241.55 681.554 1243.64 682.502 1245.72 682.312C1246.29 682.312 1246.86 682.123 1247.24 681.933C1247.99 681.364 1248.18 680.606 1248.18 679.659C1248.18 677.005 1246.67 674.731 1245.15 672.456C1243.45 670.182 1242.31 667.718 1240.79 665.254C1239.09 662.411 1237.19 660.137 1236.81 656.725C1239.85 653.882 1242.88 663.169 1246.86 661.842C1249.7 660.895 1248.37 656.725 1246.67 654.261C1242.88 648.575 1240.41 642.32 1238.9 635.687C1238.14 632.464 1237.57 629.053 1237.19 625.641C1237 624.314 1237.19 617.112 1234.16 619.007C1233.21 619.576 1233.02 620.713 1232.65 621.85C1231.32 627.347 1230.18 633.033 1228.67 638.53C1227.53 642.889 1226.96 648.954 1224.12 652.555C1222.6 654.64 1220.71 656.156 1220.9 658.999C1220.9 659.189 1220.9 659.378 1221.09 659.568C1221.28 659.947 1221.65 659.947 1221.84 660.137C1225.07 661.274 1227.34 658.81 1229.42 656.725C1229.61 656.535 1229.99 656.156 1230.37 655.967C1230.75 655.777 1231.13 655.777 1231.51 656.156C1232.27 656.914 1231.51 658.999 1231.51 659.947C1231.13 662.79 1229.8 665.443 1228.1 667.718C1225.44 671.509 1221.84 674.541 1219.57 678.711C1219.19 679.469 1218.81 680.417 1218.81 681.364C1219 683.26 1220.71 684.207 1222.41 684.207C1224.69 684.397 1225.82 682.691 1226.77 680.796C1227.34 679.469 1227.91 678.142 1229.04 677.574C1229.42 677.384 1229.8 677.384 1229.99 677.574C1229.99 677.763 1229.99 677.763 1230.18 677.953C1230.37 680.606 1229.8 683.26 1228.67 685.724C1227.53 688.188 1225.63 689.893 1223.55 691.789C1222.41 692.737 1221.46 693.874 1220.71 695.2C1220.14 696.148 1219.76 697.285 1219.95 698.233C1220.14 699.37 1220.71 700.318 1221.65 700.697C1222.98 701.266 1224.69 700.507 1225.63 699.37C1226.2 698.802 1229.04 694.063 1230.18 695.959C1230.56 696.527 1229.8 699.181 1229.61 699.939C1229.04 702.403 1228.29 704.867 1227.34 707.331C1225.44 712.259 1222.41 716.618 1218.81 720.409C1217.3 721.925 1215.4 723.82 1215.59 726.095C1215.78 729.127 1219.57 730.454 1222.03 729.696C1225.63 728.748 1225.44 724.957 1228.1 723.062C1228.29 722.873 1228.48 722.873 1228.67 722.873C1229.23 722.873 1229.23 723.631 1229.23 724.199C1228.48 729.317 1226.39 734.055 1223.55 738.225C1222.03 740.31 1220.33 742.395 1219 744.669C1218.62 745.238 1218.43 745.996 1218.24 746.564H1200.05C1199.29 745.238 1198.54 743.911 1197.4 742.963C1196.26 741.637 1194.74 740.689 1193.61 739.362C1192.85 738.604 1189.63 732.918 1192.85 733.107C1193.23 733.107 1193.61 733.297 1193.99 733.676C1194.74 734.434 1195.31 735.382 1196.07 736.14C1196.83 736.898 1197.97 737.467 1198.91 737.088C1200.24 736.519 1200.24 734.434 1199.67 733.107C1198.72 730.075 1197.02 727.232 1194.93 724.768C1193.04 722.493 1189.82 720.219 1190.95 716.997C1191.14 716.618 1191.33 716.239 1191.71 715.86C1192.28 715.481 1193.23 715.481 1193.8 715.86C1194.37 716.239 1194.93 716.807 1195.31 717.376C1196.07 718.134 1198.91 723.062 1200.24 720.409C1200.43 720.03 1200.43 719.65 1200.43 719.271C1200.24 715.481 1198.91 711.88 1196.83 708.657C1194.93 705.814 1192.28 703.35 1190.95 700.318C1190.2 698.423 1190.01 695.011 1192.66 695.011C1194.93 695.011 1196.45 697.664 1198.16 698.612C1199.48 699.37 1201.76 699.181 1202.14 697.664C1202.32 697.096 1202.14 696.338 1201.95 695.769C1200.81 692.357 1199.1 688.946 1196.45 686.482C1193.99 684.018 1191.9 682.691 1190.58 679.28C1190.01 677.953 1189.82 676.247 1190.95 675.489C1191.9 674.92 1193.04 675.299 1193.99 676.057C1194.74 676.816 1195.31 677.763 1196.07 678.521C1196.83 679.28 1198.16 679.659 1198.91 679.09C1199.67 678.711 1199.86 677.574 1199.67 676.816C1199.48 676.057 1199.1 675.299 1198.54 674.541C1197.02 672.077 1195.5 669.803 1193.99 667.528C1192.85 665.633 1190.95 663.359 1190.58 661.274C1190.39 660.516 1190.58 659.568 1191.33 659.189C1191.9 658.999 1192.47 659.189 1192.85 659.378C1193.23 659.757 1193.61 660.137 1193.99 660.516C1194.74 661.274 1195.88 661.842 1196.83 662.032C1197.59 662.221 1198.35 662.032 1198.91 661.463C1199.29 661.084 1199.48 660.326 1199.29 659.757C1199.1 657.293 1197.02 655.398 1195.31 653.692C1194.18 652.555 1188.49 645.542 1191.14 644.026C1193.23 642.889 1195.88 649.333 1198.16 646.68C1198.72 645.921 1198.72 644.784 1198.35 644.026C1197.97 643.078 1197.4 642.131 1196.64 641.562C1195.69 640.804 1194.37 640.235 1193.23 639.667C1191.71 638.909 1188.3 633.981 1190.95 632.844C1192.85 631.896 1194.37 634.928 1195.69 635.687C1196.26 635.876 1196.83 636.066 1197.21 635.687C1197.4 635.497 1197.4 635.307 1197.4 635.118C1197.59 632.085 1196.07 629.053 1194.37 626.589C1192.66 623.935 1190.77 621.471 1190.39 618.249C1190.39 617.681 1190.2 617.112 1190.39 616.733C1190.58 616.164 1191.14 615.975 1191.71 615.975C1192.47 616.164 1192.09 617.681 1192.85 618.249C1193.61 618.818 1194.74 618.628 1195.5 618.249C1196.64 617.491 1196.83 615.785 1196.45 614.459C1196.07 613.132 1195.12 611.995 1194.37 610.857C1191.9 607.256 1190.2 603.276 1189.25 598.917C1188.49 594.747 1189.06 590.767 1189.06 586.597C1189.06 585.46 1189.25 579.963 1187.35 579.963C1185.65 580.153 1185.46 584.891 1185.46 586.028C1184.89 595.316 1184.13 605.361 1178.07 612.563C1177.31 613.511 1176.36 614.459 1176.17 615.596C1175.98 616.733 1176.74 618.06 1177.69 618.439C1178.83 619.007 1180.15 618.818 1180.91 617.87C1181.48 617.302 1182.24 615.785 1183.19 616.733C1183.56 617.112 1183.75 617.681 1183.75 618.249C1183.94 622.04 1182.24 625.831 1180.15 629.053C1178.07 632.275 1175.8 635.497 1174.47 639.098C1174.09 640.235 1173.9 641.562 1174.09 642.699C1174.47 643.837 1175.42 644.974 1176.55 644.974C1178.64 645.163 1178.83 643.268 1180.34 642.51C1181.1 642.131 1182.05 642.131 1182.62 642.699C1183 643.078 1183.19 643.647 1183 644.216C1182.81 647.059 1180.34 649.143 1178.26 651.228C1175.79 653.503 1174.09 656.535 1172.76 659.568C1172.38 660.516 1172.19 661.463 1172.19 662.411C1172.19 663.359 1172.57 664.496 1173.52 664.875C1174.85 665.633 1176.55 665.254 1177.69 664.117C1178.83 663.169 1179.4 661.653 1180.15 660.326C1180.53 659.568 1181.1 658.81 1182.05 658.62C1185.46 657.862 1183 663.548 1182.24 664.496C1178.26 669.803 1172.57 674.92 1172.95 681.554C1172.95 682.691 1173.33 683.828 1174.28 684.207C1175.61 684.776 1177.12 683.449 1178.07 682.123C1178.64 681.364 1182.43 673.404 1183 677.574C1183.56 681.554 1180.53 683.26 1178.45 685.913C1175.98 688.946 1174.09 692.357 1173.14 695.959C1172.76 697.475 1172.57 699.749 1174.09 700.318C1176.36 701.266 1177.31 698.043 1178.64 697.096C1180.15 695.959 1182.24 696.527 1182.62 698.423C1182.81 699.56 1182.43 700.887 1181.86 701.834C1179.4 706.193 1174.28 708.847 1172.57 713.585C1172.19 714.912 1172.01 716.618 1173.14 717.376C1175.04 718.703 1176.74 716.428 1177.88 715.291C1178.26 714.912 1178.83 714.533 1179.21 714.533C1179.77 714.533 1180.34 715.102 1180.34 715.67C1180.53 716.239 1180.34 716.807 1180.15 717.376C1178.64 722.304 1174.47 724.389 1171.44 728.18C1170.11 729.885 1169.35 731.781 1168.97 733.866C1168.78 734.813 1168.78 735.95 1169.16 736.898C1169.54 737.846 1170.49 738.604 1171.44 738.604C1172.76 738.604 1173.71 737.277 1174.09 736.14C1174.66 735.003 1174.85 733.486 1175.8 732.539C1176.93 731.402 1179.4 731.591 1179.58 733.487C1179.77 735.003 1177.31 736.898 1176.55 738.035C1174.85 740.689 1173.33 743.342 1171.63 745.996H1151.92L1101.13 796.791C1100.18 795.654 1099.24 794.517 1098.29 793.569C1094.88 790.157 1092.42 785.798 1091.28 781.249C1092.79 783.145 1094.69 785.04 1096.58 786.367C1098.1 787.504 1099.62 787.314 1100.18 785.419C1100.37 784.661 1100.37 783.713 1100.37 782.955C1100.18 781.249 1099.81 779.354 1099.24 777.648C1097.91 774.805 1095.64 772.72 1093.55 770.446C1091.47 768.171 1089.95 764.949 1090.52 762.106C1090.71 761.538 1090.9 761.159 1091.28 760.969C1092.04 760.59 1092.79 761.159 1093.17 761.917C1094.12 763.433 1094.12 764.381 1096.02 763.812C1097.34 763.433 1098.29 761.727 1098.1 760.4C1098.1 759.263 1097.53 758.315 1096.96 757.368C1094.12 752.44 1088.25 747.891 1089.19 741.447C1089.19 741.068 1089.38 740.499 1089.76 740.12C1090.71 739.362 1091.85 740.31 1092.6 741.257C1093.17 742.205 1094.12 743.342 1095.26 742.963C1096.2 742.584 1096.2 741.068 1096.02 740.12C1094.88 735.192 1091.66 731.212 1089.76 726.474C1089.19 725.336 1088.81 724.01 1089 722.683C1089 722.493 1089 722.114 1089.19 721.925C1089.57 721.546 1090.33 721.546 1090.71 721.925C1091.66 722.873 1091.85 724.578 1093.55 724.768C1095.07 724.957 1096.39 723.062 1096.2 721.546C1096.02 720.03 1095.07 718.513 1094.12 717.186C1087.87 707.141 1087.87 694.063 1084.08 683.07C1083.89 682.691 1083.7 682.123 1083.32 681.933C1082.56 681.364 1081.42 681.933 1081.05 682.691C1080.67 683.449 1080.86 684.397 1080.86 685.345C1081.8 692.926 1080.29 700.507 1078.96 707.899C1078.39 710.742 1077.82 713.585 1076.88 716.239C1075.55 719.65 1073.65 722.873 1072.33 726.474C1071.57 728.18 1071.38 730.833 1073.28 731.402C1075.55 732.16 1077.07 728.559 1079.34 728.559C1083.13 728.748 1080.1 733.866 1079.34 735.382C1077.63 738.793 1074.79 742.016 1074.79 745.996C1074.79 746.564 1074.79 747.133 1075.17 747.512C1077.26 750.734 1080.1 745.617 1081.05 744.29C1081.42 743.721 1082.37 743.342 1082.94 743.721C1083.51 744.1 1083.51 744.859 1083.51 745.617C1082.75 753.577 1074.41 758.505 1072.33 766.086C1072.14 767.034 1071.95 768.171 1072.33 768.929C1073.28 771.014 1076.5 770.446 1078.2 768.929C1079.34 767.792 1080.1 766.276 1081.23 765.139C1082.37 764.002 1084.65 763.433 1084.08 766.086C1083.89 767.034 1083.32 767.792 1082.56 768.361C1080.86 770.256 1078.96 772.341 1077.07 774.047C1076.12 774.995 1074.98 775.942 1074.22 776.89C1073.28 778.217 1072.71 779.923 1072.14 781.439C1071.76 782.766 1071.38 784.661 1072.52 785.609C1073.28 786.177 1074.22 786.177 1075.17 785.798C1075.93 785.419 1076.69 784.661 1077.26 784.092C1078.2 782.955 1079.15 781.628 1079.91 780.302C1080.29 779.922 1081.05 780.302 1081.23 780.87C1081.42 781.439 1081.42 782.007 1081.42 782.386C1080.67 786.746 1078.58 788.831 1075.55 791.674C1072.14 794.706 1068.16 797.928 1067.78 802.477C1067.78 803.235 1067.78 804.183 1068.16 804.941H949.532C949.532 804.752 949.532 804.562 949.532 804.372C949.532 801.719 948.016 799.445 946.5 797.17C944.794 794.896 943.658 792.432 942.142 789.968C940.436 787.125 938.541 784.85 938.162 781.439C941.194 778.596 944.226 787.883 948.206 786.556C951.048 785.609 949.721 781.439 948.016 778.975C944.226 773.289 941.763 767.034 940.247 760.4C939.489 757.178 938.92 753.767 938.541 750.355C938.351 749.028 938.541 741.826 935.509 743.721C934.562 744.29 934.372 745.427 933.993 746.564C932.667 752.061 931.529 757.747 930.013 763.243C928.876 767.603 928.308 773.668 925.465 777.269C923.949 779.354 922.055 780.87 922.244 783.713C922.244 783.903 922.244 784.092 922.433 784.282C922.623 784.661 923.002 784.661 923.192 784.85C926.413 785.988 928.687 783.524 930.771 781.439C930.961 781.249 931.34 780.87 931.719 780.681C932.098 780.491 932.477 780.491 932.856 780.87C933.614 781.628 932.856 783.713 932.856 784.661C932.477 787.504 931.151 790.157 929.445 792.432C926.792 796.222 923.191 799.255 920.917 803.425C920.538 804.183 920.159 805.131 920.159 806.078C920.349 807.974 922.055 808.921 923.76 808.921C926.034 809.111 927.171 807.405 928.118 805.51C928.687 804.183 929.255 802.856 930.393 802.288C930.772 802.098 931.15 802.098 931.34 802.288C931.34 802.477 931.34 802.477 931.529 802.667C931.719 804.941 931.34 807.215 930.393 809.49L910.495 816.503C909.358 811.006 904.81 807.215 901.399 803.046C899.883 800.961 898.367 798.876 897.798 796.412C897.609 795.843 896.851 793.569 897.23 793C898.177 791.674 899.504 793.379 899.883 794.138C900.641 795.275 901.399 796.602 902.157 797.739C902.725 798.686 903.483 799.445 904.431 800.013C905.378 800.582 906.515 800.771 907.463 800.392C908.789 799.824 909.358 798.307 909.547 796.791C909.737 794.517 908.789 792.432 907.463 790.536C906.136 788.641 904.62 787.125 903.104 785.419C901.967 784.282 900.831 782.955 899.883 781.628C898.746 780.302 894.198 771.583 897.609 770.446C898.367 770.256 899.315 770.635 900.073 771.204C900.641 771.773 901.209 772.531 901.778 773.289C903.104 774.805 905.189 775.753 907.273 775.563C907.842 775.563 908.41 775.374 908.789 775.184C909.547 774.616 909.737 773.857 909.737 772.91C909.737 770.256 908.221 767.982 906.705 765.707C905 763.433 903.862 760.969 902.346 758.505C900.641 755.662 898.746 753.388 898.367 749.976C901.399 747.133 904.431 756.42 908.41 755.093C911.253 754.146 909.926 749.976 908.221 747.512C904.431 741.826 901.968 735.571 900.452 728.938C899.694 725.716 899.125 722.304 898.746 718.892C898.556 717.566 898.746 710.363 895.714 712.259C894.766 712.827 894.577 713.964 894.198 715.102C892.872 720.598 891.734 726.284 890.218 731.781C889.081 736.14 888.513 742.205 885.67 745.806C884.154 747.891 882.26 749.407 882.449 752.25C882.449 752.44 882.449 752.629 882.638 752.819C882.828 753.198 883.207 753.198 883.396 753.388C886.618 754.525 888.892 752.061 890.977 749.976C891.166 749.786 891.545 749.407 891.924 749.218C892.303 749.028 892.682 749.028 893.061 749.407C893.819 750.166 893.061 752.25 893.061 753.198C892.682 756.041 891.355 758.695 889.65 760.969C886.997 764.76 883.396 767.792 881.122 771.962C880.743 772.72 880.365 773.668 880.365 774.616C880.554 776.511 882.259 777.459 883.965 777.459C886.239 777.648 887.376 775.942 888.323 774.047C888.892 772.72 889.46 771.393 890.597 770.825C890.977 770.635 891.355 770.635 891.545 770.825C891.545 771.014 891.545 771.014 891.734 771.204C891.924 773.857 891.355 776.511 890.218 778.975C889.081 781.439 887.186 783.145 885.102 785.04C883.965 785.988 883.018 787.125 882.26 788.452C881.691 789.399 881.312 790.536 881.502 791.484C881.691 792.621 882.26 793.569 883.207 793.948C884.534 794.517 886.239 793.759 887.187 792.621C887.755 792.053 890.597 787.314 891.734 789.21C892.114 789.778 891.355 792.432 891.166 793.19C890.597 795.654 889.84 798.118 888.892 800.582C886.997 805.51 883.965 809.869 880.365 813.66C878.849 815.176 876.953 817.071 877.143 819.346C877.333 822.378 881.122 823.705 883.586 822.947C887.186 821.999 886.997 818.209 889.65 816.313C889.839 816.124 890.029 816.124 890.218 816.124C890.787 816.124 890.787 816.882 890.787 817.45C890.408 819.725 889.65 822.189 888.892 824.274L856.677 835.835C855.919 835.077 855.161 834.129 854.592 833.371C853.455 832.045 848.907 823.326 852.318 822.189C853.076 821.999 854.024 822.378 854.782 822.947C855.35 823.515 855.919 824.274 856.487 825.032C857.814 826.548 859.898 827.496 861.983 827.306C862.551 827.306 863.12 827.117 863.499 826.927C864.257 826.359 864.447 825.6 864.447 824.653C864.447 821.999 862.93 819.725 861.414 817.45C859.709 815.176 858.572 812.712 857.056 810.248C855.35 807.405 853.456 805.131 853.077 801.719C856.109 798.876 859.141 808.163 863.12 806.836C865.963 805.889 864.636 801.719 862.93 799.255C859.141 793.569 856.677 787.314 855.161 780.681C854.403 777.459 853.835 774.047 853.456 770.635C853.266 769.309 853.455 762.106 850.423 764.002C849.476 764.57 849.286 765.707 848.907 766.845C847.581 772.341 846.444 778.027 844.928 783.524C843.791 787.883 843.223 793.948 840.38 797.549C838.864 799.634 836.969 801.15 837.158 803.993C837.158 804.183 837.158 804.372 837.348 804.562C837.537 804.941 837.916 804.941 838.106 805.131C841.327 806.268 843.602 803.804 845.686 801.719C845.875 801.529 846.254 801.15 846.633 800.961C847.013 800.771 847.391 800.771 847.771 801.15C848.529 801.909 847.771 803.993 847.771 804.941C847.391 807.784 846.065 810.438 844.359 812.712C841.706 816.503 838.106 819.535 835.832 823.705C835.453 824.463 835.074 825.411 835.074 826.359C835.264 828.254 836.969 829.202 838.674 829.202C840.948 829.391 842.085 827.685 843.033 825.79C843.601 824.463 844.17 823.136 845.307 822.568C845.686 822.378 846.065 822.378 846.255 822.568C846.255 822.757 846.255 822.757 846.444 822.947C846.634 825.6 846.065 828.254 844.928 830.718C843.791 833.182 841.896 834.888 839.812 836.783C838.674 837.731 837.727 838.868 836.969 840.195C836.401 841.142 836.021 842.279 836.211 843.227L815.935 850.429H742.219L706.214 833.75C704.888 832.045 703.371 830.339 702.045 828.822C700.908 827.685 699.771 826.359 698.823 825.032C697.686 823.705 693.138 814.986 696.549 813.849C697.307 813.66 698.255 814.039 699.013 814.607C699.581 815.176 700.15 815.934 700.718 816.692C702.045 818.209 704.13 819.156 706.214 818.967C706.782 818.967 707.351 818.777 707.73 818.588C708.488 818.019 708.677 817.261 708.677 816.313C708.677 813.66 707.161 811.385 705.646 809.111C703.94 806.836 702.803 804.372 701.287 801.909C699.581 799.065 697.687 796.791 697.307 793.379C700.339 790.536 703.371 799.824 707.351 798.497C710.193 797.549 708.867 793.379 707.161 790.916C703.372 785.229 700.908 778.975 699.392 772.341C698.634 769.119 698.066 765.707 697.687 762.296C697.497 760.969 697.686 753.767 694.654 755.662C693.707 756.231 693.518 757.368 693.138 758.505C691.812 764.002 690.675 769.688 689.159 775.184C688.022 779.543 687.453 785.609 684.611 789.21C683.095 791.295 681.2 792.811 681.39 795.654C681.39 795.843 681.39 796.033 681.579 796.222C681.769 796.602 682.147 796.602 682.337 796.791C685.558 797.928 687.833 795.464 689.917 793.379C690.107 793.19 690.485 792.811 690.865 792.621C691.244 792.432 691.622 792.432 692.002 792.811C692.76 793.569 692.002 795.654 692.002 796.602C691.622 799.445 690.296 802.098 688.59 804.372C685.937 808.163 682.337 811.196 680.063 815.365C679.684 816.124 679.305 817.071 679.305 818.019C679.495 819.914 681.2 820.862 682.905 820.862C685.179 821.052 686.317 819.346 687.264 817.45C687.833 816.124 688.211 814.797 689.538 814.228C689.917 814.039 690.296 814.039 690.485 814.228C690.485 814.418 690.485 814.418 690.675 814.607C690.865 817.261 690.296 819.914 689.159 822.378C688.78 823.326 688.211 823.895 687.643 824.653L675.894 819.156C675.894 817.071 675.136 814.986 673.81 813.281C672.483 811.385 670.967 809.869 669.451 808.163C668.314 807.026 667.177 805.699 666.229 804.372C665.092 803.046 660.544 794.327 663.956 793.19C664.714 793 665.661 793.379 666.419 793.948C666.987 794.517 667.556 795.275 668.125 796.033C669.451 797.549 671.536 798.497 673.62 798.307C674.188 798.307 674.757 798.118 675.136 797.928C675.894 797.36 676.083 796.602 676.083 795.654C676.083 793 674.568 790.726 673.052 788.452C671.346 786.177 670.209 783.713 668.693 781.249C666.987 778.406 665.092 776.132 664.713 772.72C667.745 769.877 670.778 779.164 674.757 777.838C677.6 776.89 676.273 772.72 674.568 770.256C670.778 764.57 668.314 758.316 666.798 751.682C666.04 748.46 665.471 745.048 665.092 741.636C664.903 740.31 665.092 733.107 662.06 735.003C661.113 735.571 660.924 736.709 660.544 737.846C659.218 743.342 658.081 749.028 656.565 754.525C655.428 758.884 654.86 764.949 652.017 768.55C650.501 770.635 648.606 772.152 648.795 774.995C648.795 775.184 648.795 775.374 648.985 775.563C649.174 775.942 649.553 775.942 649.743 776.132C652.964 777.269 655.239 774.805 657.323 772.72C657.513 772.531 657.891 772.152 658.271 771.962C658.65 771.772 659.028 771.773 659.407 772.152C660.165 772.91 659.407 774.995 659.407 775.942C659.028 778.785 657.702 781.439 655.997 783.713C653.344 787.504 649.743 790.536 647.469 794.706C647.09 795.464 646.711 796.412 646.711 797.36C646.901 799.255 648.606 800.203 650.312 800.203C652.586 800.392 653.722 798.686 654.67 796.791C655.238 795.464 655.807 794.138 656.944 793.569C657.323 793.379 657.702 793.379 657.892 793.569C657.892 793.759 657.891 793.759 658.081 793.948C658.271 796.602 657.702 799.255 656.565 801.719C655.428 804.183 653.722 805.699 651.638 807.595L630.035 801.34C629.466 798.497 627.761 795.843 626.055 793.759C622.644 789.778 618.475 785.229 619.423 779.923C623.023 780.302 623.971 786.367 627.572 786.177C630.225 786.177 631.172 782.576 630.603 780.112C629.466 774.615 624.919 770.825 621.508 766.655C619.992 764.57 618.475 762.485 617.907 760.021C617.717 759.453 616.959 757.178 617.339 756.61C618.286 755.283 619.612 756.989 619.992 757.747C620.75 758.884 621.508 760.211 622.266 761.348C622.834 762.296 623.592 763.054 624.539 763.623C625.487 764.191 626.624 764.381 627.572 764.002C628.898 763.433 629.466 761.917 629.656 760.4C629.845 758.126 628.898 756.041 627.572 754.146C626.245 752.25 624.729 750.734 623.213 749.028C622.076 747.891 620.939 746.564 619.992 745.238C618.854 743.911 614.306 735.192 617.717 734.055C618.475 733.866 619.423 734.245 620.181 734.813C620.749 735.382 621.318 736.14 621.887 736.898C623.213 738.414 625.298 739.362 627.382 739.173C627.951 739.173 628.519 738.983 628.898 738.793C629.656 738.225 629.845 737.467 629.845 736.519C629.845 733.866 628.329 731.591 626.813 729.317C625.108 727.042 623.971 724.578 622.455 722.114C620.75 719.271 618.854 716.997 618.475 713.585C621.507 710.742 624.54 720.03 628.519 718.703C631.362 717.755 630.035 713.585 628.33 711.121C624.54 705.435 622.076 699.181 620.56 692.547C619.802 689.325 619.234 685.913 618.854 682.502C618.665 681.175 618.854 673.973 615.823 675.868C614.875 676.436 614.686 677.574 614.307 678.711C612.98 684.207 611.843 689.893 610.327 695.39C609.19 699.749 608.622 705.814 605.779 709.416C604.263 711.5 602.368 713.017 602.557 715.86C602.557 716.049 602.557 716.239 602.747 716.428C602.937 716.807 603.315 716.807 603.505 716.997C606.727 718.134 609.001 715.67 611.085 713.585C611.275 713.396 611.653 713.017 612.032 712.827C612.411 712.638 612.79 712.638 613.169 713.017C613.927 713.775 613.169 715.86 613.169 716.807C612.79 719.65 611.464 722.304 609.758 724.578C607.105 728.369 603.505 731.402 601.231 735.571C600.852 736.329 600.473 737.277 600.473 738.225C600.662 740.12 602.368 741.068 604.073 741.068C606.347 741.257 607.484 739.552 608.432 737.656C609 736.329 609.569 735.003 610.706 734.434C611.085 734.245 611.464 734.245 611.653 734.434C611.653 734.624 611.653 734.624 611.843 734.813C612.032 737.467 611.464 740.12 610.327 742.584C609.19 745.048 607.295 746.754 605.211 748.649C604.073 749.597 603.126 750.734 602.368 752.061C601.799 753.009 601.42 754.146 601.61 755.093C601.799 756.231 602.368 757.178 603.315 757.557C604.642 758.126 606.347 757.368 607.295 756.231C607.863 755.662 610.706 750.924 611.843 752.819C612.222 753.388 611.464 756.041 611.274 756.799C610.706 759.263 609.948 761.727 609 764.191C607.105 769.119 604.073 773.478 600.473 777.269C598.957 778.785 597.062 780.681 597.252 782.955C597.441 785.988 601.231 787.314 603.695 786.556C607.295 785.609 607.105 781.818 609.758 779.923C609.948 779.733 610.138 779.733 610.327 779.733C610.896 779.733 610.896 780.491 610.896 781.06C610.327 784.282 609.19 787.504 607.863 790.536L576.596 776.132C577.733 775.374 578.112 774.047 578.302 772.72C578.491 770.446 577.543 768.361 576.217 766.466C574.891 764.57 573.374 763.054 571.858 761.348C570.721 760.211 569.585 758.884 568.637 757.557C567.5 756.231 562.952 747.512 566.363 746.375C567.121 746.185 568.069 746.564 568.827 747.133C569.395 747.702 569.964 748.46 570.532 749.218C571.858 750.734 573.943 751.682 576.027 751.492C576.596 751.492 577.164 751.303 577.543 751.113C578.301 750.545 578.491 749.786 578.491 748.839C578.491 746.185 576.975 743.911 575.459 741.636C573.754 739.362 572.616 736.898 571.1 734.434C569.395 731.591 567.5 729.317 567.121 725.905C570.153 723.062 573.185 732.349 577.164 731.023C580.007 730.075 578.68 725.905 576.975 723.441C573.185 717.755 570.721 711.5 569.206 704.867C568.448 701.645 567.879 698.233 567.5 694.821C567.31 693.495 567.5 686.292 564.468 688.188C563.52 688.756 563.331 689.893 562.952 691.031C561.626 696.527 560.488 702.213 558.972 707.71C557.835 712.069 557.267 718.134 554.424 721.735C552.909 723.82 551.013 725.336 551.203 728.18C551.203 728.369 551.203 728.559 551.393 728.748C551.582 729.127 551.961 729.127 552.151 729.317C555.372 730.454 557.646 727.99 559.73 725.905C559.92 725.716 560.299 725.336 560.678 725.147C561.057 724.957 561.436 724.957 561.815 725.336C562.573 726.095 561.815 728.18 561.815 729.127C561.436 731.97 560.109 734.624 558.404 736.898C555.751 740.689 552.151 743.721 549.877 747.891C549.497 748.649 549.118 749.597 549.118 750.545C549.308 752.44 551.013 753.388 552.719 753.388C554.993 753.577 556.13 751.871 557.078 749.976C557.646 748.649 558.214 747.323 559.352 746.754C559.731 746.564 560.109 746.564 560.299 746.754C560.299 746.943 560.299 746.943 560.488 747.133C560.678 749.786 560.109 752.44 558.972 754.904C557.835 757.368 555.94 759.074 553.856 760.969C552.908 761.917 551.961 762.864 551.203 764.002L521.073 750.166C520.693 749.597 520.125 749.218 519.746 748.649C518.609 747.512 517.472 746.185 516.525 744.859C515.388 743.532 510.839 734.813 514.25 733.676C515.008 733.486 515.956 733.866 516.714 734.434C517.282 735.003 517.851 735.761 518.419 736.519C519.746 738.035 521.831 738.983 523.915 738.793C524.483 738.793 525.052 738.604 525.431 738.414C526.189 737.846 526.378 737.088 526.378 736.14C526.378 733.487 524.862 731.212 523.346 728.938C521.641 726.663 520.504 724.199 518.988 721.735C517.282 718.892 515.388 716.618 515.008 713.206C518.04 710.363 521.073 719.65 525.052 718.324C527.895 717.376 526.568 713.206 524.862 710.742C521.073 705.056 518.609 698.802 517.093 692.168C516.335 688.946 515.767 685.534 515.388 682.123C515.198 680.796 515.387 673.594 512.355 675.489C511.408 676.057 511.219 677.195 510.839 678.332C509.513 683.828 508.376 689.514 506.86 695.011C505.723 699.37 505.155 705.435 502.312 709.036C500.796 711.121 498.901 712.638 499.09 715.481C499.09 715.67 499.09 715.86 499.28 716.049C499.47 716.428 499.848 716.428 500.038 716.618C503.259 717.755 505.534 715.291 507.618 713.206C507.807 713.017 508.186 712.638 508.565 712.448C508.945 712.259 509.323 712.259 509.703 712.638C510.461 713.396 509.703 715.481 509.703 716.428C509.323 719.271 507.997 721.925 506.292 724.199C503.638 727.99 500.038 731.023 497.764 735.192C497.385 735.95 497.006 736.898 497.006 737.846C497.006 738.225 497.195 738.604 497.385 738.793L489.805 735.382C488.668 733.676 487.152 732.16 485.636 730.643C484.499 729.506 483.362 728.18 482.415 726.853C481.278 725.526 476.729 716.807 480.14 715.67C480.898 715.481 481.846 715.86 482.604 716.428C483.173 716.997 483.741 717.755 484.31 718.513C485.636 720.029 487.72 720.977 489.805 720.788C490.374 720.788 490.942 720.598 491.321 720.409C492.079 719.84 492.268 719.082 492.268 718.134C492.268 715.481 490.753 713.206 489.237 710.932C487.531 708.657 486.394 706.193 484.878 703.73C483.172 700.887 481.277 698.612 480.898 695.2C483.931 692.357 486.963 701.645 490.942 700.318C493.785 699.37 492.458 695.201 490.753 692.737C486.962 687.051 484.499 680.796 482.983 674.162C482.225 670.94 481.656 667.528 481.277 664.117C481.088 662.79 481.277 655.588 478.245 657.483C477.298 658.052 477.108 659.189 476.729 660.326C475.403 665.823 474.266 671.509 472.75 677.005C471.613 681.364 471.044 687.43 468.202 691.031C466.686 693.116 464.791 694.632 464.98 697.475C464.98 697.664 464.98 697.854 465.17 698.043C465.359 698.423 465.738 698.423 465.928 698.612C469.149 699.749 471.423 697.285 473.508 695.2C473.698 695.011 474.076 694.632 474.455 694.442C474.834 694.253 475.214 694.253 475.592 694.632C476.35 695.39 475.592 697.475 475.592 698.423C475.214 701.266 473.887 703.919 472.181 706.193C469.529 709.984 465.928 713.017 463.654 717.186C463.275 717.945 462.896 718.892 462.896 719.84C463.086 721.735 464.791 722.683 466.496 722.683C468.77 722.873 469.907 721.167 470.855 719.271C471.423 717.945 471.992 716.618 473.129 716.049C473.508 715.86 473.887 715.86 474.076 716.049C474.076 716.239 474.076 716.239 474.266 716.428C474.456 719.082 473.887 721.735 472.75 724.199C472.371 724.957 471.802 725.716 471.423 726.474L435.797 709.984C434.281 708.278 432.766 706.573 431.439 704.867C429.923 702.782 428.407 700.697 427.839 698.233C427.649 697.664 426.891 695.39 427.27 694.821C428.217 693.495 429.544 695.2 429.923 695.959C430.681 697.096 431.439 698.423 432.197 699.56C432.766 700.507 433.523 701.266 434.471 701.834C435.419 702.403 436.555 702.592 437.503 702.213C438.829 701.645 439.398 700.128 439.587 698.612C439.777 696.338 438.829 694.253 437.503 692.357C436.176 690.462 434.66 688.946 433.145 687.24C432.008 686.103 430.87 684.776 429.923 683.449C428.786 682.123 424.238 673.404 427.649 672.267C428.407 672.077 429.354 672.456 430.112 673.025C430.681 673.593 431.249 674.352 431.818 675.11C433.145 676.626 435.229 677.574 437.314 677.384C437.882 677.384 438.451 677.195 438.829 677.005C439.587 676.437 439.777 675.678 439.777 674.731C439.777 672.077 438.261 669.803 436.745 667.528C435.039 665.254 433.902 662.79 432.386 660.326C430.681 657.483 428.786 655.209 428.407 651.797C431.439 648.954 434.471 658.241 438.45 656.914C441.293 655.967 439.966 651.797 438.261 649.333C434.471 643.647 432.007 637.392 430.491 630.759C429.733 627.537 429.165 624.125 428.786 620.713C428.596 619.387 428.786 612.184 425.754 614.08C424.806 614.648 424.617 615.785 424.238 616.923C422.911 622.419 421.775 628.105 420.259 633.602C419.122 637.961 418.553 644.026 415.71 647.627C414.194 649.712 412.299 651.228 412.489 654.071C412.489 654.261 412.489 654.45 412.678 654.64C412.868 655.019 413.247 655.019 413.436 655.209C416.658 656.346 418.932 653.882 421.016 651.797C421.206 651.607 421.585 651.228 421.964 651.039C422.343 650.849 422.722 650.849 423.101 651.228C423.859 651.986 423.101 654.071 423.101 655.019C422.722 657.862 421.396 660.516 419.69 662.79C417.037 666.581 413.436 669.613 411.163 673.783C410.784 674.541 410.405 675.489 410.405 676.437C410.594 678.332 412.299 679.28 414.005 679.28C416.279 679.469 417.416 677.763 418.363 675.868C418.932 674.541 419.5 673.214 420.637 672.646C421.016 672.456 421.395 672.456 421.585 672.646C421.585 672.835 421.585 672.835 421.775 673.025C421.964 675.678 421.396 678.332 420.259 680.796C419.122 683.26 417.227 684.966 415.142 686.861C414.005 687.809 413.057 688.946 412.299 690.273C411.731 691.22 411.352 692.357 411.542 693.305C411.731 694.442 412.299 695.39 413.247 695.769C414.574 696.338 416.279 695.58 417.227 694.442C417.795 693.874 420.638 689.135 421.775 691.031C422.154 691.599 421.396 694.253 421.206 695.011C420.637 697.285 420.069 699.749 419.121 701.834L386.338 686.671C386.338 684.018 384.822 681.744 383.306 679.469C381.6 677.195 380.464 674.731 378.948 672.267C377.242 669.424 375.347 667.149 374.968 663.738C378 660.895 381.032 670.182 385.012 668.855C387.854 667.907 386.528 663.738 384.822 661.274C381.032 655.588 378.568 649.333 377.052 642.699C376.294 639.477 375.726 636.066 375.347 632.654C375.158 631.327 375.347 624.125 372.315 626.02C371.367 626.589 371.178 627.726 370.799 628.863C369.472 634.36 368.336 640.046 366.82 645.542C365.683 649.902 365.114 655.967 362.271 659.568C360.755 661.653 358.86 663.169 359.05 666.012C359.05 666.202 359.05 666.391 359.24 666.581C359.429 666.96 359.808 666.96 359.997 667.149C363.219 668.287 365.493 665.823 367.577 663.738C367.767 663.548 368.146 663.169 368.525 662.98C368.904 662.79 369.283 662.79 369.662 663.169C370.42 663.927 369.662 666.012 369.662 666.96C369.283 669.803 367.957 672.456 366.251 674.731C365.872 675.299 365.303 675.868 364.924 676.437L348.817 669.045C348.059 668.097 347.112 667.149 346.164 666.202C345.027 665.064 343.89 663.738 342.943 662.411C341.806 661.084 337.257 652.366 340.668 651.228C341.426 651.039 342.374 651.418 343.132 651.987C343.701 652.555 344.269 653.313 344.837 654.071C346.164 655.588 348.248 656.535 350.333 656.346C350.901 656.346 351.47 656.156 351.849 655.967C352.607 655.398 352.796 654.64 352.796 653.692C352.796 651.039 351.28 648.764 349.764 646.49C348.059 644.216 346.922 641.752 345.406 639.288C343.701 636.445 341.805 634.17 341.426 630.759C344.458 627.916 347.491 637.203 351.47 635.876C354.312 634.928 352.986 630.759 351.28 628.295C347.49 622.609 345.027 616.354 343.511 609.72C342.753 606.498 342.184 603.087 341.805 599.675C341.616 598.348 341.806 591.146 338.773 593.041C337.826 593.61 337.637 594.747 337.258 595.884C335.931 601.381 334.794 607.067 333.278 612.563C332.141 616.923 331.573 622.988 328.73 626.589C327.214 628.674 325.319 630.19 325.509 633.033C325.509 633.223 325.508 633.412 325.698 633.602C325.888 633.981 326.266 633.981 326.456 634.17C329.677 635.307 331.952 632.844 334.036 630.759C334.226 630.569 334.604 630.19 334.983 630.001C335.362 629.811 335.741 629.811 336.12 630.19C336.878 630.948 336.12 633.033 336.12 633.981C335.741 636.824 334.415 639.477 332.71 641.752C330.057 645.542 326.456 648.575 324.182 652.745C323.803 653.503 323.424 654.45 323.424 655.398C323.613 657.293 325.319 658.241 327.025 658.241C329.298 658.431 330.435 656.725 331.383 654.83C331.952 653.503 332.52 652.176 333.657 651.607C334.036 651.418 334.415 651.418 334.605 651.607C334.605 651.797 334.604 651.797 334.794 651.987C334.983 654.64 334.415 657.293 333.278 659.757C333.088 660.326 332.71 660.705 332.52 661.084L309.97 650.66C309.78 647.248 307.695 643.837 305.611 641.373C302.2 637.392 298.031 632.843 298.979 627.537C302.579 627.916 303.527 633.981 307.127 633.791C309.78 633.791 310.728 630.19 310.159 627.726C309.022 622.23 304.474 618.439 301.063 614.269C299.547 612.184 298.031 610.099 297.462 607.635C297.273 607.067 296.515 604.792 296.894 604.224C297.841 602.897 299.168 604.603 299.547 605.361C300.305 606.498 301.063 607.825 301.821 608.962C302.39 609.91 303.147 610.668 304.095 611.237C305.043 611.805 306.18 611.995 307.127 611.616C308.454 611.047 309.022 609.531 309.211 608.014C309.401 605.74 308.454 603.655 307.127 601.76C305.801 599.864 304.284 598.348 302.768 596.642C301.632 595.505 300.495 594.178 299.547 592.852C298.41 591.525 293.862 582.806 297.273 581.669C298.031 581.48 298.978 581.859 299.736 582.427C300.305 582.996 300.874 583.754 301.442 584.512C302.769 586.028 304.853 586.976 306.938 586.787C307.506 586.787 308.074 586.597 308.453 586.408C309.211 585.839 309.401 585.081 309.401 584.133C309.401 581.48 307.885 579.205 306.369 576.931C304.663 574.656 303.526 572.192 302.01 569.728C300.305 566.885 298.41 564.611 298.031 561.199C301.063 558.356 304.095 567.644 308.074 566.317C310.917 565.369 309.591 561.199 307.885 558.735C304.095 553.049 301.631 546.795 300.115 540.161C299.357 536.939 298.789 533.527 298.41 530.116C298.22 528.789 298.41 521.587 295.378 523.482C294.43 524.051 294.241 525.188 293.862 526.325C292.535 531.821 291.398 537.508 289.883 543.004C288.746 547.363 288.177 553.428 285.335 557.03C283.819 559.115 281.923 560.631 282.113 563.474C282.113 563.663 282.113 563.853 282.302 564.042C282.492 564.421 282.871 564.421 283.06 564.611C286.282 565.748 288.556 563.284 290.64 561.199C290.83 561.01 291.209 560.631 291.588 560.441C291.967 560.252 292.346 560.252 292.725 560.631C293.483 561.389 292.725 563.474 292.725 564.421C292.346 567.264 291.02 569.918 289.314 572.192C286.661 575.983 283.06 579.016 280.786 583.185C280.408 583.944 280.029 584.891 280.029 585.839C280.218 587.734 281.923 588.682 283.629 588.682C285.903 588.871 287.04 587.166 287.987 585.27C288.556 583.944 289.125 582.617 290.262 582.048C290.641 581.859 291.019 581.859 291.209 582.048C291.209 582.238 291.209 582.238 291.398 582.427C291.588 585.081 291.02 587.734 289.883 590.198C288.746 592.662 286.85 594.368 284.766 596.263C283.629 597.211 282.681 598.348 281.923 599.675C281.355 600.623 280.976 601.76 281.165 602.708C281.355 603.845 281.923 604.792 282.871 605.171C284.198 605.74 285.903 604.982 286.85 603.845C287.419 603.276 290.262 598.538 291.398 600.433C291.777 601.002 291.02 603.655 290.83 604.413C290.261 606.877 289.504 609.341 288.556 611.805C286.661 616.733 283.629 621.092 280.029 624.883C278.513 626.399 276.617 628.295 276.807 630.569C276.997 633.602 280.786 634.928 283.25 634.17C286.85 633.223 286.661 629.432 289.314 627.537C289.504 627.347 289.693 627.347 289.883 627.347C290.451 627.347 290.451 628.105 290.451 628.674C289.882 632.464 288.556 636.066 286.661 639.477L262.595 628.295C261.647 627.157 260.51 626.02 259.373 624.693C258.236 623.556 257.099 622.23 256.151 620.903C255.014 619.576 250.466 610.857 253.878 609.72C254.635 609.531 255.583 609.91 256.341 610.478C256.91 611.047 257.478 611.805 258.046 612.563C259.373 614.08 261.458 615.027 263.542 614.838C264.111 614.838 264.679 614.648 265.058 614.459C265.816 613.89 266.005 613.132 266.005 612.184C266.005 609.531 264.49 607.256 262.974 604.982C261.268 602.707 260.131 600.244 258.615 597.78C256.909 594.937 255.014 592.662 254.635 589.251C257.668 586.408 260.699 595.695 264.679 594.368C267.521 593.42 266.195 589.251 264.49 586.787C260.699 581.1 258.236 574.846 256.72 568.212C255.962 564.99 255.393 561.578 255.014 558.167C254.825 556.84 255.014 549.638 251.982 551.533C251.035 552.102 250.845 553.239 250.466 554.376C249.14 559.873 248.003 565.559 246.487 571.055C245.35 575.414 244.781 581.48 241.939 585.081C240.423 587.166 238.528 588.682 238.717 591.525C238.717 591.714 238.717 591.904 238.907 592.094C239.096 592.473 239.475 592.473 239.665 592.662C242.886 593.799 245.16 591.335 247.245 589.251C247.434 589.061 247.814 588.682 248.193 588.492C248.572 588.303 248.951 588.303 249.33 588.682C250.088 589.44 249.33 591.525 249.33 592.473C248.951 595.316 247.624 597.969 245.919 600.244C243.266 604.034 239.665 607.067 237.391 611.237C237.012 611.995 236.633 612.942 236.633 613.89C236.822 615.785 238.528 616.733 240.234 616.733C242.508 616.923 243.645 615.217 244.592 613.321C245.161 611.995 245.729 610.668 246.866 610.099C247.245 609.91 247.624 609.91 247.814 610.099C247.814 610.289 247.813 610.289 248.003 610.478C248.192 613.132 247.624 615.785 246.487 618.249C246.298 618.818 245.919 619.387 245.54 619.955L217.872 607.256C216.736 605.93 215.409 604.603 214.461 603.087C212.945 601.002 211.43 598.917 210.861 596.453C210.672 595.884 209.913 593.61 210.292 593.041C211.24 591.714 212.566 593.42 212.945 594.178C213.703 595.316 214.462 596.642 215.219 597.78C215.788 598.727 216.546 599.485 217.493 600.054C218.441 600.623 219.578 600.812 220.525 600.433C221.852 599.864 222.421 598.348 222.61 596.832C222.799 594.558 221.852 592.473 220.525 590.577C219.199 588.682 217.683 587.166 216.167 585.46C215.03 584.323 213.893 582.996 212.945 581.669C211.809 580.342 207.26 571.624 210.671 570.487C211.429 570.297 212.377 570.676 213.135 571.245C213.703 571.813 214.272 572.571 214.84 573.33C216.167 574.846 218.251 575.794 220.336 575.604C220.904 575.604 221.473 575.414 221.852 575.225C222.61 574.656 222.799 573.898 222.799 572.951C222.799 570.297 221.284 568.023 219.768 565.748C218.062 563.474 216.925 561.01 215.409 558.546C213.703 555.703 211.808 553.428 211.429 550.017C214.461 547.174 217.493 556.461 221.473 555.134C224.316 554.187 222.989 550.017 221.284 547.553C217.494 541.867 215.03 535.612 213.514 528.978C212.756 525.756 212.188 522.345 211.809 518.933C211.619 517.606 211.808 510.404 208.776 512.299C207.829 512.868 207.639 514.005 207.26 515.142C205.934 520.639 204.797 526.325 203.281 531.821C202.144 536.181 201.576 542.246 198.733 545.847C197.217 547.932 195.322 549.448 195.511 552.291C195.511 552.481 195.512 552.67 195.701 552.86C195.891 553.239 196.27 553.239 196.459 553.428C199.68 554.566 201.954 552.102 204.039 550.017C204.228 549.827 204.607 549.448 204.986 549.259C205.365 549.069 205.745 549.069 206.124 549.448C206.882 550.206 206.124 552.291 206.124 553.239C205.745 556.082 204.418 558.735 202.712 561.01C200.059 564.801 196.459 567.833 194.185 572.003C193.806 572.761 193.427 573.709 193.427 574.656C193.617 576.552 195.322 577.499 197.027 577.499C199.301 577.689 200.439 575.983 201.386 574.088C201.954 572.761 202.333 571.434 203.66 570.866C204.039 570.676 204.418 570.676 204.607 570.866C204.607 571.055 204.607 571.055 204.797 571.245C204.986 573.898 204.418 576.552 203.281 579.016C202.144 581.48 200.249 583.185 198.164 585.081C197.027 586.028 196.08 587.166 195.322 588.492C194.753 589.44 194.374 590.577 194.564 591.525C194.753 592.662 195.322 593.61 196.27 593.989C197.596 594.557 199.301 593.799 200.249 592.662C200.817 592.094 203.66 587.355 204.797 589.251C205.176 589.819 204.418 592.473 204.229 593.231C203.85 595.316 203.092 597.59 202.334 599.485L176.561 587.545C175.424 586.028 174.098 584.702 172.961 583.375C171.824 582.238 170.687 580.911 169.74 579.584C168.603 578.258 164.055 569.539 167.465 568.402C168.223 568.212 169.171 568.591 169.929 569.16C170.497 569.728 171.066 570.487 171.634 571.245C172.961 572.761 175.046 573.709 177.13 573.519C177.699 573.519 178.267 573.33 178.646 573.14C179.404 572.571 179.594 571.813 179.594 570.866C179.594 568.212 178.077 565.938 176.561 563.663C174.856 561.389 173.719 558.925 172.203 556.461C170.497 553.618 168.603 551.344 168.224 547.932C171.256 545.089 174.288 554.376 178.267 553.049C181.109 552.102 179.783 547.932 178.077 545.468C174.288 539.782 171.824 533.527 170.308 526.894C169.55 523.672 168.981 520.26 168.602 516.848C168.413 515.521 168.602 508.319 165.57 510.215C164.623 510.783 164.433 511.92 164.054 513.058C162.728 518.554 161.591 524.24 160.075 529.737C158.938 534.096 158.369 540.161 155.527 543.762C154.011 545.847 152.116 547.363 152.305 550.206C152.305 550.396 152.305 550.585 152.495 550.775C152.684 551.154 153.064 551.154 153.253 551.344C156.475 552.481 158.749 550.017 160.833 547.932C161.023 547.742 161.402 547.363 161.781 547.174C162.16 546.984 162.538 546.984 162.917 547.363C163.675 548.121 162.917 550.206 162.917 551.154C162.538 553.997 161.212 556.651 159.506 558.925C156.853 562.716 153.253 565.748 150.979 569.918C150.6 570.676 150.221 571.624 150.221 572.571C150.411 574.467 152.116 575.414 153.821 575.414C156.095 575.604 157.232 573.898 158.18 572.003C158.748 570.676 159.317 569.349 160.454 568.781C160.833 568.591 161.212 568.591 161.401 568.781C161.401 568.97 161.402 568.97 161.591 569.16C161.781 571.813 161.212 574.467 160.075 576.931C159.696 577.689 159.317 578.258 158.938 578.826L129.186 564.99C128.997 564.801 128.807 564.421 128.807 564.232C127.102 561.389 125.207 559.114 124.828 555.703C127.86 552.86 130.892 562.147 134.871 560.82C137.714 559.873 136.387 555.703 134.682 553.239C130.892 547.553 128.429 541.298 126.913 534.664C126.155 531.442 125.586 528.031 125.207 524.619C125.018 523.292 125.207 516.09 122.175 517.985C121.227 518.554 121.038 519.691 120.659 520.828C119.332 526.325 118.195 532.011 116.679 537.508C115.542 541.867 114.974 547.932 112.132 551.533C111.184 552.86 109.857 553.997 109.289 555.513L84.0855 543.762C82.759 541.488 81.8115 539.024 82.38 536.37C85.9805 536.749 86.928 542.815 90.5285 542.625C93.1815 542.625 94.129 539.024 93.5605 536.56C92.4235 531.063 87.8755 527.273 84.4645 523.103C82.9485 521.018 81.4325 518.933 80.864 516.469C80.6745 515.901 79.9165 513.626 80.2955 513.058C81.243 511.731 82.5695 513.437 82.9485 514.195C83.7065 515.332 84.4645 516.659 85.2225 517.796C85.791 518.744 86.549 519.502 87.4965 520.07C88.444 520.639 89.581 520.828 90.5285 520.449C91.855 519.881 92.4235 518.365 92.613 516.848C92.8025 514.574 91.855 512.489 90.5285 510.594C89.202 508.698 87.686 507.182 86.17 505.476C85.033 504.339 83.896 503.012 82.9485 501.685C81.8115 500.359 77.2635 491.64 80.6745 490.503C81.4325 490.313 82.38 490.692 83.138 491.261C83.7065 491.83 84.275 492.588 84.8435 493.346C86.17 494.862 88.2545 495.81 90.339 495.62C90.9075 495.62 91.476 495.431 91.855 495.241C92.613 494.673 92.8025 493.915 92.8025 492.967C92.8025 490.313 91.2865 488.039 89.7705 485.765C88.065 483.49 86.928 481.026 85.412 478.562C83.7065 475.719 81.8115 473.445 81.4325 470.033C84.4645 467.19 87.4965 476.477 91.476 475.151C94.3185 474.203 92.992 470.033 91.2865 467.569C87.4965 461.883 85.033 455.629 83.517 448.995C82.759 445.773 82.1905 442.361 81.8115 438.949C81.622 437.623 81.8115 430.42 78.7795 432.316C77.832 432.884 77.6425 434.022 77.2635 435.159C75.937 440.655 74.8 446.341 73.284 451.838C72.147 456.197 71.5785 462.262 68.736 465.863C67.22 467.948 65.325 469.465 65.5145 472.308C65.5145 472.497 65.5145 472.687 65.704 472.876C65.8935 473.255 66.2725 473.255 66.462 473.445C69.6835 474.582 71.9575 472.118 74.042 470.033C74.2315 469.844 74.6105 469.465 74.9895 469.275C75.3685 469.085 75.7475 469.085 76.1265 469.465C76.8845 470.223 76.1265 472.308 76.1265 473.255C75.7475 476.098 74.421 478.752 72.7155 481.026C70.0625 484.817 66.462 487.849 64.188 492.019C63.809 492.777 63.43 493.725 63.43 494.673C63.6195 496.568 65.325 497.516 67.0305 497.516C69.3045 497.705 70.4415 495.999 71.389 494.104C71.9575 492.777 72.3365 491.451 73.663 490.882C74.042 490.692 74.421 490.692 74.6105 490.882C74.6105 491.072 74.6105 491.072 74.8 491.261C74.9895 493.915 74.421 496.568 73.284 499.032C72.147 501.496 70.252 503.202 68.1675 505.097C67.0305 506.045 66.083 507.182 65.325 508.509C64.7565 509.456 64.3775 510.594 64.567 511.541C64.7565 512.678 65.325 513.626 66.2725 514.005C67.599 514.574 69.3045 513.816 70.252 512.679C70.8205 512.11 73.663 507.371 74.8 509.267C75.179 509.835 74.421 512.489 74.2315 513.247C73.663 515.711 72.905 518.175 71.9575 520.639C70.0625 525.567 67.0305 529.926 63.43 533.717C63.43 533.717 63.43 533.717 63.2405 533.906L47.133 526.515C45.8065 524.619 44.2905 523.103 42.7745 521.397C41.6375 520.26 40.5005 518.933 39.553 517.606C38.416 516.28 33.868 507.561 37.279 506.424C38.037 506.234 38.9845 506.613 39.7425 507.182C40.311 507.751 40.8795 508.509 41.448 509.267C42.7745 510.783 44.859 511.731 46.9435 511.541C47.512 511.541 48.0805 511.352 48.4595 511.162C49.2175 510.594 49.407 509.835 49.407 508.888C49.407 506.234 47.891 503.96 46.375 501.685C44.6695 499.411 43.5325 496.947 42.0165 494.483C40.311 491.64 38.416 489.366 38.037 485.954C41.069 483.111 44.101 492.398 48.0805 491.071C50.923 490.124 49.5965 485.954 47.891 483.49C44.101 477.804 41.6375 471.549 40.1215 464.916C39.3635 461.694 38.795 458.282 38.416 454.87C38.2265 453.544 38.416 446.341 35.384 448.237C34.4365 448.805 34.247 449.942 33.868 451.08C32.5415 456.576 31.4045 462.262 29.8885 467.759C28.7515 472.118 28.183 478.183 25.3405 481.784C23.8245 483.869 21.9295 485.385 22.119 488.228C22.119 488.418 22.119 488.608 22.3085 488.797C22.498 489.176 22.877 489.176 23.0665 489.366C26.288 490.503 28.562 488.039 30.6465 485.954C30.836 485.765 31.215 485.385 31.594 485.196C31.973 485.006 32.352 485.006 32.731 485.385C33.489 486.144 32.731 488.228 32.731 489.176C32.352 492.019 31.0255 494.673 29.32 496.947C26.667 500.738 23.0665 503.77 20.7925 507.94C20.4135 508.698 20.0345 509.646 20.0345 510.594C20.224 512.489 21.9295 513.437 23.635 513.437C25.909 513.626 27.046 511.92 27.9935 510.025C28.562 508.698 29.1305 507.372 30.2675 506.803C30.6465 506.613 31.0255 506.613 31.215 506.803C31.215 506.992 31.215 506.992 31.4045 507.182C31.594 509.835 31.0255 512.489 29.8885 514.953C29.5095 515.901 28.941 516.659 28.3725 517.227L-1 509.835L-7 1017H1509L1515 861.233V852.325V654.83H1494.72ZM565.226 769.119C566.173 767.792 567.5 769.498 567.879 770.256C568.637 771.393 569.206 772.531 569.964 773.478L565.415 771.393C565.226 770.635 564.847 769.498 565.226 769.119ZM559.352 765.707C559.541 766.086 559.352 767.413 558.972 768.55L556.13 767.224C557.267 765.897 558.594 764.57 559.352 765.707ZM503.26 737.656C503.828 736.329 504.396 735.003 505.533 734.434C505.912 734.245 506.291 734.245 506.481 734.434C506.481 734.624 506.481 734.624 506.67 734.813C506.86 737.467 506.292 740.12 505.155 742.584C504.965 742.774 504.965 742.963 504.775 743.342L499.848 741.068C501.554 740.878 502.691 739.362 503.26 737.656ZM112.132 558.356C112.321 558.167 112.7 557.788 113.079 557.598C113.458 557.409 113.837 557.409 114.216 557.788C114.974 558.546 114.216 560.631 114.216 561.578C114.216 561.958 114.026 562.337 113.837 562.905L109.479 560.82C110.426 560.252 111.373 559.304 112.132 558.356ZM66.841 539.403C67.0305 539.213 67.22 539.213 67.4095 539.213C67.978 539.213 67.978 539.971 67.978 540.54C67.978 540.919 67.7885 541.298 67.7885 541.677L65.704 540.73C65.8935 540.161 66.2725 539.782 66.841 539.403ZM1482.79 652.366C1483.54 652.176 1484.49 652.555 1485.25 653.124C1485.82 653.692 1486.2 654.261 1486.76 654.83H1481.65C1481.46 653.692 1481.84 652.745 1482.79 652.366ZM1475.39 652.745C1475.77 652.555 1476.15 652.555 1476.34 652.745C1476.34 652.934 1476.34 652.934 1476.53 653.124C1476.53 653.692 1476.53 654.261 1476.53 654.64H1473.88C1474.07 653.882 1474.64 653.124 1475.39 652.745ZM1093.93 804.941L1092.42 806.457H1091.85C1091.47 805.32 1091.09 803.993 1090.9 802.667C1091.85 803.425 1092.79 804.183 1093.93 804.941ZM1075.17 803.804C1076.69 801.15 1079.72 798.118 1082.18 799.824C1081.99 802.288 1080.29 804.562 1078.39 806.268H1072.9C1073.84 805.51 1074.6 804.752 1075.17 803.804ZM937.025 803.425C937.783 803.235 938.73 803.614 939.488 804.183C940.057 804.752 940.626 805.51 941.194 806.268C941.384 806.457 941.573 806.647 941.763 806.836L936.457 808.732C935.509 806.268 935.319 803.993 937.025 803.425ZM898.557 817.829C900.262 818.019 901.209 819.346 902.346 820.862L898.935 822.189C898.367 820.672 898.367 819.346 898.557 817.829Z" fill="url(#paint2_linear)"/>
<path d="M139.282 813.428C137.387 813.239 135.493 812.292 134.545 810.777C131.892 806.421 136.63 801.686 140.23 798.087C144.589 793.542 147.81 787.86 149.516 781.799C147.431 784.451 145.157 786.723 142.504 788.617C140.609 789.943 138.525 789.754 137.766 787.291C137.387 786.155 137.577 785.208 137.577 784.072C137.766 781.799 138.146 779.337 139.093 777.253C140.798 773.466 144.02 770.814 146.484 767.594C148.947 764.375 151.221 760.397 150.463 756.42C150.274 755.852 150.084 755.094 149.516 754.905C148.568 754.526 147.431 755.283 147.052 756.041C145.915 757.935 145.915 759.45 143.452 758.693C141.746 758.124 140.42 756.041 140.609 754.337C140.609 752.821 141.367 751.496 142.125 750.359C145.915 743.73 153.495 737.859 152.358 729.336C152.358 728.768 152.168 728.01 151.6 727.632C150.463 726.685 148.758 728.01 148 729.147C147.241 730.473 145.915 731.988 144.399 731.42C143.073 730.851 143.073 728.957 143.452 727.632C145.157 721.192 149.136 715.7 151.789 709.828C152.547 708.313 153.116 706.609 152.927 704.904C152.927 704.525 152.737 704.336 152.547 703.957C152.168 703.389 151.031 703.389 150.463 703.957C149.136 705.093 148.947 707.556 146.673 707.745C144.589 707.934 143.073 705.662 143.073 703.389C143.262 701.306 144.589 699.412 145.726 697.707C154.064 684.639 153.874 667.214 158.991 652.82C159.18 652.252 159.37 651.684 159.938 651.305C160.886 650.547 162.401 651.305 162.781 652.441C163.349 653.578 163.159 654.714 162.97 655.85C161.833 665.699 163.728 675.737 165.433 685.586C166.192 689.374 166.76 692.972 168.087 696.571C169.792 701.116 172.255 705.472 174.151 710.018C175.098 712.291 175.288 715.7 173.014 716.457C170.171 717.404 167.897 712.669 164.865 712.859C159.749 713.048 163.728 719.866 164.676 721.76C166.95 726.306 170.55 730.473 170.74 735.776C170.74 736.533 170.74 737.291 170.361 737.859C167.708 742.026 163.917 735.397 162.781 733.692C162.212 732.935 161.075 732.367 160.317 732.935C159.559 733.503 159.559 734.45 159.749 735.397C160.885 745.814 171.687 752.253 174.529 762.291C174.908 763.617 175.098 764.943 174.529 766.079C173.203 768.731 169.034 767.973 166.76 765.89C165.244 764.375 164.297 762.481 162.781 760.965C161.265 759.45 158.422 758.693 159.18 762.102C159.37 763.238 160.317 764.185 161.075 765.132C163.349 767.784 165.812 770.246 168.276 772.708C169.603 773.844 170.929 775.17 172.066 776.496C173.393 778.2 173.961 780.473 174.719 782.557C175.287 784.451 175.856 786.723 174.34 788.049C173.392 788.807 172.066 788.807 170.929 788.428C169.792 787.86 169.034 787.102 168.087 786.155C166.76 784.64 165.623 782.935 164.676 781.231C164.107 780.852 163.159 781.231 162.97 781.799C162.591 782.367 162.781 783.125 162.781 783.882C163.728 789.754 166.571 792.405 170.55 796.004C174.909 799.981 180.215 804.148 180.783 810.208C180.973 811.345 180.783 812.481 180.404 813.428H222.662L253.362 831.042C254.499 829.716 255.825 828.201 256.962 827.065C261.32 822.519 264.542 816.837 266.248 810.777C264.163 813.428 261.889 815.701 259.236 817.595C257.341 818.921 255.257 818.731 254.499 816.269C254.12 815.133 254.309 814.186 254.309 813.049C254.499 810.777 254.878 808.314 255.825 806.231C257.531 802.443 260.752 799.792 263.216 796.572C265.869 793.542 267.953 789.375 267.195 785.397C267.006 784.829 266.816 784.072 266.248 783.882C265.3 783.504 264.163 784.261 263.784 785.019C262.647 786.913 262.647 788.428 260.183 787.67C258.478 787.102 257.151 785.019 257.341 783.314C257.341 781.799 258.099 780.473 258.857 779.337C262.647 772.708 270.227 766.837 269.09 758.314C269.09 757.746 268.9 756.988 268.332 756.609C267.195 755.662 265.49 756.988 264.732 758.124C263.974 759.45 262.647 760.965 261.131 760.397C259.804 759.829 259.804 757.935 260.183 756.609C261.889 750.17 265.869 744.677 268.521 738.806C269.28 737.291 269.848 735.586 269.658 733.882C269.658 733.503 269.469 733.314 269.279 732.935C268.9 732.367 267.764 732.367 267.195 732.935C265.869 734.071 265.679 736.533 263.405 736.723C261.321 736.912 259.804 734.639 259.804 732.367C259.994 730.283 261.321 728.389 262.458 726.685C270.796 713.616 270.606 696.192 275.723 681.798C275.912 681.23 276.102 680.661 276.67 680.283C277.618 679.525 279.134 680.283 279.513 681.419C280.081 682.555 279.891 683.692 279.702 684.828C278.565 694.677 280.46 704.715 282.166 714.563C282.924 718.351 283.492 721.95 284.818 725.548C286.524 730.094 288.988 734.45 290.883 738.995C291.83 741.268 292.02 744.677 289.746 745.435C286.903 746.382 284.629 741.647 281.597 741.836C276.48 742.026 280.46 748.844 281.407 750.738C283.682 755.283 287.282 759.45 287.472 764.753C287.472 765.511 287.472 766.268 287.093 766.837C284.44 771.003 280.65 764.374 279.513 762.67C278.944 761.912 277.807 761.344 277.049 761.912C276.291 762.481 276.291 763.428 276.481 764.375C277.618 774.791 288.419 781.231 291.261 791.269C291.641 792.595 291.83 793.92 291.261 795.057C289.935 797.708 285.766 796.951 283.492 794.867C281.976 793.352 281.029 791.458 279.513 789.943C277.997 788.428 275.154 787.67 275.912 791.079C276.101 792.216 277.049 793.163 277.807 794.11C280.081 796.761 282.545 799.223 285.008 801.686C286.335 802.822 287.661 804.148 288.798 805.473C290.125 807.178 290.693 809.451 291.451 811.534C292.02 813.428 292.588 815.701 291.072 817.027C290.125 817.784 288.798 817.784 287.661 817.405C286.524 816.837 285.766 816.08 284.818 815.133C283.492 813.618 282.355 811.913 281.407 810.208C280.839 809.83 279.891 810.208 279.702 810.777C279.323 811.345 279.513 812.102 279.513 812.86C280.46 818.731 283.302 821.383 287.282 824.981C291.641 828.959 296.947 833.125 297.515 839.186C297.704 840.512 297.515 842.027 296.568 842.974C293.915 846.004 289.177 842.406 287.093 838.997C285.008 835.587 281.029 831.421 277.807 833.883C277.996 838.618 282.544 842.595 286.334 844.868C290.314 847.33 292.967 849.792 294.104 854.148L315.517 866.459H422.206C422.774 865.891 423.153 865.323 423.722 864.755C424.859 863.429 429.407 854.717 425.996 853.58C425.238 853.391 424.291 853.77 423.532 854.338C422.964 854.906 422.395 855.663 421.827 856.421C420.5 857.936 418.416 858.883 416.332 858.694C415.763 858.694 415.195 858.504 414.816 858.315C414.057 857.747 413.868 856.989 413.868 856.042C413.868 853.391 415.384 851.118 416.9 848.845C418.605 846.572 419.743 844.11 421.259 841.648C422.964 838.807 424.859 836.535 425.238 833.125C422.206 830.284 419.174 839.565 415.194 838.239C412.352 837.292 413.679 833.125 415.384 830.663C419.174 824.981 421.637 818.731 423.153 812.102C423.911 808.883 424.48 805.474 424.859 802.064C425.048 800.739 424.859 793.542 427.891 795.436C428.839 796.004 429.028 797.14 429.407 798.276C430.734 803.769 431.87 809.451 433.386 814.943C434.523 819.299 435.092 825.36 437.934 828.959C439.45 831.042 441.345 832.557 441.156 835.398C441.156 835.588 441.156 835.777 440.967 835.966C440.777 836.345 440.398 836.345 440.208 836.534C436.987 837.671 434.713 835.209 432.629 833.125C432.439 832.936 432.06 832.557 431.681 832.368C431.302 832.178 430.923 832.178 430.544 832.557C429.786 833.315 430.544 835.398 430.544 836.345C430.923 839.186 432.25 841.838 433.955 844.11C436.608 847.898 440.208 850.929 442.483 855.095C442.862 855.853 443.241 856.8 443.241 857.747C443.051 859.641 441.345 860.588 439.64 860.588C437.366 860.777 436.229 859.073 435.281 857.179C434.713 855.853 434.145 854.527 433.008 853.959C432.629 853.77 432.25 853.77 432.06 853.959C432.06 854.148 432.06 854.148 431.871 854.338C431.681 856.989 432.25 859.641 433.386 862.103C434.145 863.808 435.281 864.944 436.418 866.27H472.234C472.992 864.376 473.56 862.292 473.939 860.209C471.665 862.103 469.391 863.997 466.739 864.755C463.896 865.512 460.485 864.755 458.969 862.292C456.316 857.936 461.054 853.201 464.654 849.603C469.013 845.057 472.234 839.375 473.939 833.315C471.855 835.966 469.581 838.239 466.928 840.133C465.033 841.459 462.949 841.269 462.191 838.807C461.812 837.671 462.001 836.724 462.001 835.587C462.19 833.315 462.569 830.853 463.517 828.769C465.222 824.981 468.444 822.33 470.907 819.11C473.371 815.89 475.645 811.913 474.887 807.936C474.698 807.367 474.508 806.61 473.939 806.42C472.992 806.042 471.855 806.799 471.476 807.557C470.339 809.451 470.339 810.966 467.876 810.208C466.17 809.64 464.844 807.557 465.033 805.852C465.033 804.337 465.791 803.011 466.549 801.875C470.339 795.246 477.919 789.375 476.782 780.852C476.782 780.284 476.593 779.526 476.024 779.147C474.887 778.2 473.182 779.526 472.423 780.663C471.665 781.988 470.339 783.504 468.823 782.935C467.496 782.367 467.497 780.473 467.876 779.147C469.581 772.708 473.561 767.215 476.214 761.344C476.972 759.829 477.54 758.124 477.351 756.42C477.351 756.041 477.161 755.852 476.972 755.473C476.593 754.905 475.455 754.905 474.887 755.473C473.56 756.609 473.371 759.071 471.097 759.261C469.012 759.45 467.497 757.177 467.497 754.905C467.686 752.821 469.012 750.927 470.149 749.223C478.487 736.154 478.298 718.73 483.414 704.336C483.604 703.768 483.793 703.2 484.362 702.821C485.309 702.063 486.825 702.821 487.204 703.957C487.773 705.093 487.583 706.23 487.394 707.366C486.257 717.215 488.152 727.253 489.858 737.101C490.616 740.889 491.184 744.488 492.511 748.086C494.216 752.632 496.679 756.988 498.574 761.534C499.522 763.806 499.711 767.215 497.438 767.973C494.595 768.92 492.321 764.185 489.289 764.375C484.173 764.564 488.152 771.382 489.099 773.276C491.374 777.822 494.974 781.988 495.164 787.291C495.164 788.049 495.164 788.807 494.784 789.375C492.131 793.542 488.341 786.913 487.204 785.208C486.636 784.451 485.499 783.882 484.741 784.451C483.983 785.019 483.983 785.966 484.172 786.913C485.309 797.329 496.111 803.769 498.953 813.807C499.333 815.133 499.522 816.458 498.953 817.595C497.627 820.246 493.458 819.489 491.184 817.405C489.668 815.89 488.72 813.996 487.204 812.481C485.688 810.966 482.846 810.208 483.604 813.618C483.793 814.754 484.741 815.701 485.499 816.648C487.773 819.299 490.237 821.762 492.7 824.224C494.026 825.36 495.353 826.686 496.49 828.012C497.816 829.716 498.385 831.989 499.143 834.072C499.712 835.966 500.28 838.239 498.764 839.565C497.817 840.322 496.49 840.322 495.353 839.944C494.216 839.375 493.458 838.618 492.511 837.671C491.184 836.156 490.047 834.451 489.099 832.747C488.531 832.368 487.583 832.747 487.394 833.315C487.015 833.883 487.204 834.641 487.204 835.398C488.152 841.269 490.995 843.921 494.974 847.519C499.333 851.497 504.638 855.663 505.207 861.724C505.396 863.05 505.207 864.565 504.259 865.512C504.07 865.701 504.07 865.701 503.881 865.891H519.23C520.935 863.808 522.641 861.914 524.157 860.02C525.673 857.936 527.189 855.853 527.758 853.391C527.947 852.823 528.705 850.55 528.326 849.982C527.378 848.656 526.052 850.36 525.673 851.118C524.915 852.254 524.157 853.58 523.399 854.717C522.831 855.664 522.073 856.421 521.125 856.989C520.177 857.557 519.041 857.747 518.093 857.368C516.767 856.8 516.198 855.285 516.008 853.77C515.819 851.497 516.767 849.413 518.093 847.519C519.42 845.625 520.936 844.11 522.452 842.406C523.589 841.269 524.726 839.944 525.673 838.618C526.81 837.292 531.358 828.58 527.947 827.443C527.189 827.254 526.241 827.633 525.483 828.201C524.725 828.769 524.347 829.527 523.778 830.284C522.452 831.8 520.367 832.747 518.283 832.557C517.714 832.557 517.146 832.368 516.767 832.178C516.009 831.61 515.819 830.853 515.819 829.906C515.819 827.254 517.335 824.981 518.851 822.709C520.557 820.436 521.693 817.974 523.209 815.512C524.915 812.671 526.81 810.398 527.189 806.989C524.157 804.148 521.125 813.428 517.146 812.102C514.303 811.155 515.63 806.989 517.335 804.527C521.125 798.845 523.589 792.595 525.104 785.966C525.862 782.746 526.431 779.337 526.81 775.928C527 774.602 526.81 767.405 529.842 769.299C530.789 769.867 530.979 771.003 531.358 772.14C532.685 777.632 533.822 783.314 535.338 788.807C536.475 793.163 537.043 799.223 539.886 802.822C541.402 804.905 543.296 806.42 543.107 809.261C543.107 809.451 543.107 809.64 542.917 809.83C542.728 810.208 542.349 810.208 542.159 810.398C538.938 811.534 536.664 809.072 534.579 806.989C534.39 806.799 534.011 806.42 533.632 806.231C533.253 806.042 532.874 806.042 532.495 806.42C531.737 807.178 532.495 809.261 532.495 810.208C532.874 813.049 534.201 815.701 535.906 817.974C538.559 821.762 542.159 824.792 544.433 828.959C544.812 829.716 545.192 830.663 545.192 831.61C545.002 833.504 543.297 834.451 541.591 834.451C539.317 834.641 538.18 832.936 537.232 831.042C536.664 829.716 536.096 828.39 534.958 827.822C534.579 827.633 534.201 827.633 534.011 827.822C534.011 828.012 534.011 828.012 533.822 828.201C533.632 830.853 534.201 833.504 535.338 835.966C536.475 838.428 538.37 840.133 540.454 842.027C541.591 842.974 542.539 844.11 543.297 845.436C543.865 846.383 544.244 847.519 544.054 848.466C543.865 849.603 543.297 850.55 542.349 850.929C541.023 851.497 539.317 850.739 538.369 849.603C537.801 849.035 534.959 844.3 533.822 846.194C533.443 846.762 534.201 849.413 534.39 850.171C534.958 852.633 535.717 855.095 536.664 857.558C536.854 857.747 536.854 858.126 537.043 858.315L557.698 838.807H698.876C698.118 837.481 697.928 835.777 698.307 834.451C699.445 828.959 703.992 825.171 707.404 821.004C708.919 818.921 710.436 816.837 711.004 814.375C711.194 813.807 711.952 811.534 711.573 810.966C710.625 809.64 709.299 811.345 708.919 812.102C708.161 813.239 707.404 814.564 706.646 815.701C706.077 816.648 705.319 817.405 704.372 817.974C703.424 818.542 702.287 818.731 701.34 818.352C700.013 817.784 699.445 816.269 699.255 814.754C699.065 812.481 700.013 810.398 701.34 808.504C702.666 806.61 704.182 805.095 705.698 803.39C706.835 802.254 707.972 800.928 708.919 799.602C710.057 798.276 714.604 789.564 711.193 788.428C710.435 788.238 709.488 788.617 708.73 789.185C708.161 789.754 707.593 790.511 707.025 791.269C705.698 792.784 703.614 793.731 701.529 793.542C700.961 793.542 700.392 793.352 700.013 793.163C699.255 792.595 699.065 791.837 699.065 790.89C699.065 788.238 700.582 785.966 702.098 783.693C703.803 781.42 704.94 778.958 706.456 776.496C708.161 773.655 710.056 771.382 710.435 767.973C707.404 765.132 704.372 774.412 700.392 773.087C697.549 772.14 698.876 767.973 700.582 765.511C704.372 759.829 706.835 753.579 708.351 746.95C709.109 743.73 709.677 740.321 710.057 736.912C710.246 735.586 710.057 728.389 713.089 730.283C714.036 730.851 714.225 731.988 714.604 733.124C715.931 738.617 717.068 744.299 718.584 749.791C719.721 754.147 720.289 760.208 723.132 763.806C724.648 765.89 726.543 767.405 726.353 770.246C726.353 770.435 726.354 770.625 726.164 770.814C725.974 771.193 725.596 771.193 725.406 771.382C722.185 772.519 719.91 770.056 717.826 767.973C717.636 767.784 717.258 767.405 716.878 767.215C716.499 767.026 716.121 767.026 715.742 767.405C714.984 768.162 715.742 770.246 715.742 771.193C716.121 774.034 717.447 776.685 719.153 778.958C721.806 782.746 725.406 785.776 727.68 789.943C728.059 790.701 728.438 791.648 728.438 792.595C728.248 794.489 726.543 795.436 724.838 795.436C722.564 795.625 721.427 793.92 720.479 792.026C719.911 790.701 719.342 789.375 718.205 788.807C717.826 788.617 717.447 788.617 717.258 788.807C717.258 788.996 717.258 788.996 717.068 789.185C716.878 791.837 717.447 794.489 718.584 796.951C719.721 799.413 721.616 801.117 723.701 803.011C724.838 803.958 725.785 805.095 726.543 806.42C727.111 807.367 727.49 808.504 727.301 809.451C727.111 810.587 726.543 811.534 725.596 811.913C724.269 812.481 722.563 811.724 721.616 810.587C721.047 810.019 718.205 805.284 717.068 807.178C716.689 807.746 717.447 810.398 717.637 811.155C718.205 813.618 718.963 816.08 719.911 818.542C721.806 823.466 724.837 827.822 728.438 831.61C729.954 833.125 731.849 835.019 731.66 837.292C731.66 837.86 731.47 838.239 731.281 838.618H774.107L821.482 813.049H1020.08L1024.25 813.807C1025.95 809.451 1029.74 806.231 1032.59 802.633C1034.1 800.549 1035.62 798.466 1036.19 796.004C1036.38 795.435 1037.13 793.163 1036.75 792.595C1035.81 791.269 1034.48 792.973 1034.1 793.731C1033.34 794.867 1032.59 796.193 1031.83 797.329C1031.26 798.276 1030.5 799.034 1029.55 799.602C1028.61 800.17 1027.47 800.36 1026.52 799.981C1025.2 799.413 1024.63 797.898 1024.44 796.382C1024.25 794.11 1025.2 792.026 1026.52 790.132C1027.85 788.238 1029.36 786.723 1030.88 785.019C1032.02 783.882 1033.15 782.557 1034.1 781.231C1035.24 779.905 1039.79 771.193 1036.38 770.056C1035.62 769.867 1034.67 770.246 1033.91 770.814C1033.34 771.382 1032.78 772.14 1032.21 772.897C1030.88 774.413 1028.8 775.359 1026.71 775.17C1026.14 775.17 1025.57 774.981 1025.2 774.791C1024.44 774.223 1024.25 773.466 1024.25 772.519C1024.25 769.867 1025.76 767.594 1027.28 765.322C1028.99 763.049 1030.12 760.587 1031.64 758.124C1033.34 755.283 1035.24 753.011 1035.62 749.602C1032.59 746.761 1029.55 756.041 1025.57 754.715C1022.73 753.768 1024.06 749.602 1025.76 747.139C1029.55 741.458 1032.02 735.207 1033.53 728.579C1034.29 725.359 1034.86 721.95 1035.24 718.541C1035.43 717.215 1035.24 710.018 1038.27 711.912C1039.22 712.48 1039.41 713.616 1039.79 714.753C1041.11 720.245 1042.25 725.927 1043.77 731.42C1044.9 735.776 1045.47 741.836 1048.31 745.435C1049.83 747.518 1051.73 749.033 1051.54 751.874C1051.54 752.064 1051.54 752.253 1051.35 752.443C1051.16 752.821 1050.78 752.821 1050.59 753.011C1047.37 754.147 1045.09 751.685 1043.01 749.602C1042.82 749.412 1042.44 749.033 1042.06 748.844C1041.68 748.655 1041.3 748.655 1040.92 749.033C1040.17 749.791 1040.92 751.874 1040.92 752.821C1041.3 755.662 1042.63 758.314 1044.33 760.587C1046.99 764.375 1050.59 767.405 1052.86 771.572C1053.24 772.329 1053.62 773.276 1053.62 774.223C1053.43 776.117 1051.73 777.064 1050.02 777.064C1047.75 777.253 1046.61 775.549 1045.66 773.655C1045.09 772.329 1044.52 771.003 1043.39 770.435C1043.01 770.246 1042.63 770.246 1042.44 770.435C1042.44 770.625 1042.44 770.625 1042.25 770.814C1042.06 773.466 1042.63 776.117 1043.77 778.579C1044.9 781.041 1046.8 782.746 1048.88 784.64C1050.02 785.587 1050.97 786.723 1051.73 788.049C1052.29 788.996 1052.67 790.132 1052.48 791.079C1052.29 792.216 1051.73 793.163 1050.78 793.542C1049.45 794.11 1047.75 793.352 1046.8 792.216C1046.23 791.648 1043.39 786.913 1042.25 788.807C1041.87 789.375 1042.63 792.026 1042.82 792.784C1043.39 795.246 1044.14 797.708 1045.09 800.17C1046.99 805.095 1050.02 809.451 1053.62 813.239C1055.14 814.754 1057.03 816.648 1056.84 818.921C1056.84 819.299 1056.65 819.678 1056.65 819.868L1154.24 838.428H1516V1024H0V812.86H139.282V813.428ZM1043.77 817.405C1043.77 817.595 1043.77 817.595 1043.77 817.784L1046.42 818.352C1046.04 817.595 1045.47 816.837 1044.71 816.459C1044.52 816.269 1044.33 816.269 1044.15 816.269C1043.77 816.269 1043.58 817.027 1043.77 817.405ZM718.584 835.587C718.774 836.724 718.963 837.86 719.342 838.807H722.943C721.995 837.292 721.427 835.588 719.721 834.451C719.531 834.262 719.342 834.262 719.153 834.262C718.584 834.451 718.395 835.019 718.584 835.587ZM709.109 838.807C709.677 837.292 709.867 835.777 709.488 834.262C707.214 834.451 706.077 837.103 704.561 838.807H709.109ZM492.321 866.459H499.712C498.006 865.512 496.301 863.808 495.164 862.103C493.079 858.694 489.1 854.527 485.878 856.989C486.068 860.967 489.099 864.186 492.321 866.459ZM266.248 838.239C266.248 838.05 266.437 837.671 266.437 837.481C266.248 837.671 266.058 837.86 265.869 838.05L266.248 838.239ZM166.192 813.428H173.392C172.255 812.481 171.308 811.345 170.55 810.208C168.466 806.799 164.486 802.633 161.265 805.095C161.265 808.314 163.539 811.155 166.192 813.428ZM148.379 813.428C148.947 811.913 149.326 810.208 149.516 808.504C147.241 810.398 144.967 812.292 142.314 813.049C141.935 813.239 141.367 813.239 140.988 813.239H148.379V813.428Z" fill="url(#paint3_linear)"/>
<path d="M1111.94 510.674L977.482 459.545L370 1015.6H1510V389.192V145L1111.94 510.674Z" fill="url(#paint4_linear)"/>
<path d="M1078.22 538L1112 510.668L977 459L1078.22 538Z" fill="#FBFBFB"/>
<path d="M28.2578 342.746C55.007 338.412 106.245 351.414 123.01 325.787C125.648 321.641 127.155 317.119 128.473 312.408C130.734 304.682 132.994 296.956 135.255 289.041C141.471 267.559 150.136 243.628 171.988 234.206C222.661 212.724 255.25 262.472 271.45 296.956C273.522 301.478 276.159 306.378 281.057 308.45C292.171 312.785 300.46 299.594 309.502 292.433C322.876 282.069 346.612 286.592 354.712 301.29C358.102 307.32 360.174 315.423 367.144 317.119C375.81 319.191 381.649 309.77 389.373 305.435C405.196 296.767 423.469 312.031 438.35 322.395C474.518 347.08 523.307 344.819 567.764 341.427C573.415 344.819 565.88 351.98 559.287 353.676C478.662 373.462 394.082 375.723 310.444 377.984C220.589 380.434 130.357 382.695 41.0673 372.708C33.3439 371.766 25.4321 370.635 19.4041 366.301C13.3761 361.778 10.5505 352.922 15.6366 347.457C19.0274 344.442 23.7368 343.5 28.2578 342.746Z" fill="url(#paint5_linear)"/>
<path d="M732.1 481.572C719.6 488.158 707.3 478.955 707.3 478.955C707.3 478.955 710.9 472.008 710.3 466.053C709.8 460.098 707.3 453.602 711.4 447.827C715.5 442.143 732.2 440.338 734.4 450.263C736.6 460.188 735.8 470.745 735.3 471.466C735.1 471.827 732.2 472.098 729.2 471.737C729 471.647 728.9 474.534 732.1 481.572Z" fill="#FFDAA1"/>
<path d="M709.7 465.963C709.7 465.963 710.7 468.218 712 467.948C713.3 467.677 717.2 465.421 717.2 465.421L724 459.105C724 459.105 723.5 453.692 725.9 452.429C728.3 451.075 732.6 451.887 734.4 450.173C736.2 448.549 744.1 438.895 739.3 433.572C734.5 428.248 730.9 435.015 730.9 435.015C727.8 434.564 724.6 431.947 721 432.85C717.4 433.752 712.5 438.895 714.8 444.308C709.5 446.835 707.2 449.993 709.7 465.963Z" fill="url(#paint6_linear)"/>
<path d="M698.2 687.466C698.2 687.466 696.2 698.925 698 700.369C699 701.181 703.4 702.083 706.6 703.166C709.8 704.248 719 709.842 722.5 707.497C733.3 699.106 714.6 690.444 711.4 685.391C702.5 682.685 698.2 687.466 698.2 687.466Z" fill="url(#paint7_linear)"/>
<path d="M729.4 471.647C726.3 471.196 721.9 469.391 720.8 467.135C718.5 467.135 716 465.331 716.4 462.263C717 457.932 722.3 456.579 723.6 460.278L729.4 471.647Z" fill="url(#paint8_linear)"/>
<path d="M686.6 581.271C683.8 590.925 692.4 625.301 696.6 642.985C697.9 658.143 694.5 686.474 697.2 688.098C703.2 687.106 706.2 683.857 714.1 686.384C715.9 677.271 724.6 652.549 733 585.151C692.4 580.549 689.5 571.707 686.6 581.271Z" fill="#009191"/>
<path d="M771 666.173C771 666.173 768 663.196 767.9 659.857C767.8 656.429 756.2 664.73 756.2 664.73L758 669.06C758.2 668.97 769.5 669.602 771 666.173Z" fill="#DDA12A"/>
<path d="M754.5 665.722C754.5 665.722 751.1 680.79 756.5 681.963C762 683.136 768.9 679.076 770.4 677.993C772 676.91 782.7 669.602 779 665.632C775.3 661.662 766.8 664.73 766.8 664.73L754.5 665.722Z" fill="url(#paint9_linear)"/>
<path d="M701.5 582.354C702.2 587.857 733.1 609.963 756.5 624.489C756.9 638.384 753.7 659.857 753.7 666.624C762.6 663.196 762.9 662.023 769.9 663.376C772.3 656.068 787.8 622.684 786.5 616.098C785.1 609.602 753.7 580.549 753.7 580.549L701.5 582.354Z" fill="url(#paint10_linear)"/>
<path d="M706.6 477.782C695.2 490.775 681 507.106 681 584.519C744.9 588.309 758.3 579.467 758.3 579.467C756.7 578.294 764.6 516.218 732.6 480.489C720.9 486.354 708 481.842 706.6 477.782Z" fill="url(#paint11_linear)"/>
<path d="M805.6 607.436V365H799.1V609.963L805.6 607.436Z" fill="#CED7EA"/>
<path d="M798.2 373.03C798.2 373.03 803.3 375.105 806.1 373.03C808.8 370.955 853.1 411.376 874.2 401.812C867 453.421 805.7 436.82 805.7 436.82C805.7 436.82 806.9 434.654 802.2 435.286C797.5 435.917 798.2 435.917 798.2 435.917V433.301C798.2 433.301 805.7 432.038 805.9 433.481V375.286C805.9 375.286 800 376.549 798.2 375.105C798.2 373.842 798.2 373.03 798.2 373.03Z" fill="url(#paint12_linear)"/>
<path d="M830.3 423.647L843 411.376L838.3 407.586L825.6 419.857L830.3 423.647Z" fill="#004BFF"/>
<path d="M834.6 419.496L824.9 411.647L820.6 415.797L830.3 423.647L834.6 419.496Z" fill="#58EDFF"/>
<path d="M834.6 419.496L829.9 415.707L825.6 419.857L830.3 423.647L834.6 419.496Z" fill="#00BBFF"/>
<path d="M835 419.045L830.3 415.256L829.9 415.707L834.6 419.496L835 419.045Z" fill="#0042E4"/>
<path d="M789.2 462.444C789.2 462.444 796.8 453.782 799.3 451.797L799.5 455.948L805.2 452.519V449.361C805.2 449.361 807.3 449.09 807.5 450.083C807.7 451.075 809.1 457.121 808.6 460.188C804.3 463.617 798.5 466.414 792 468.85L789.2 462.444Z" fill="#FFDAA1"/>
<path d="M698.4 503.226C698.4 490.684 751.4 484.278 751.4 484.278L789.1 460.91C789.1 460.91 790.8 466.865 796.6 468.669C787.5 479.045 774.2 486.444 762.8 496.008C751.3 505.572 716.3 514.865 716.3 514.865C716.3 514.865 698.4 515.767 698.4 503.226Z" fill="url(#paint13_linear)"/>
<defs>
<linearGradient id="paint0_linear" x1="1180.72" y1="433.362" x2="1180.72" y2="241.119" gradientUnits="userSpaceOnUse">
<stop stop-color="white" stop-opacity="0"/>
<stop offset="1" stop-color="white"/>
</linearGradient>
<linearGradient id="paint1_linear" x1="755.565" y1="468.251" x2="755.565" y2="116.108" gradientUnits="userSpaceOnUse">
<stop stop-color="white" stop-opacity="0"/>
<stop offset="1" stop-color="white"/>
</linearGradient>
<linearGradient id="paint2_linear" x1="756.497" y1="857.428" x2="757" y2="1282" gradientUnits="userSpaceOnUse">
<stop stop-color="#E1E6F3"/>
<stop offset="1" stop-color="white" stop-opacity="0"/>
</linearGradient>
<linearGradient id="paint3_linear" x1="758.503" y1="802.053" x2="758.504" y2="1024" gradientUnits="userSpaceOnUse">
<stop stop-color="#D2D9E8"/>
<stop offset="1" stop-color="white"/>
</linearGradient>
<linearGradient id="paint4_linear" x1="940" y1="580" x2="940" y2="1015.6" gradientUnits="userSpaceOnUse">
<stop stop-color="#CDD6E9"/>
<stop offset="1" stop-color="white"/>
</linearGradient>
<linearGradient id="paint5_linear" x1="292.029" y1="394.278" x2="293.049" y2="243.148" gradientUnits="userSpaceOnUse">
<stop stop-color="white" stop-opacity="0"/>
<stop offset="1" stop-color="white"/>
</linearGradient>
<linearGradient id="paint6_linear" x1="709.411" y1="448.233" x2="738.859" y2="452.092" gradientUnits="userSpaceOnUse">
<stop stop-color="#2961BB"/>
<stop offset="1" stop-color="#0A3E8C"/>
</linearGradient>
<linearGradient id="paint7_linear" x1="697.176" y1="696.118" x2="725.874" y2="696.621" gradientUnits="userSpaceOnUse">
<stop stop-color="#E9CE31"/>
<stop offset="1" stop-color="#EFB52E"/>
</linearGradient>
<linearGradient id="paint8_linear" x1="724.313" y1="464.817" x2="720.966" y2="468.548" gradientUnits="userSpaceOnUse">
<stop stop-color="#FFDAA1"/>
<stop offset="1" stop-color="#EFBB6F"/>
</linearGradient>
<linearGradient id="paint9_linear" x1="752.499" y1="676.119" x2="778.416" y2="663.871" gradientUnits="userSpaceOnUse">
<stop stop-color="#E9CE31"/>
<stop offset="1" stop-color="#EFB52E"/>
</linearGradient>
<linearGradient id="paint10_linear" x1="701.466" y1="623.575" x2="786.541" y2="623.575" gradientUnits="userSpaceOnUse">
<stop offset="0.00628811" stop-color="#07AB9E"/>
<stop offset="1" stop-color="#079F9E"/>
</linearGradient>
<linearGradient id="paint11_linear" x1="686.127" y1="530.353" x2="763.459" y2="540.485" gradientUnits="userSpaceOnUse">
<stop stop-color="#3F67FD"/>
<stop offset="1" stop-color="#4197FF"/>
</linearGradient>
<linearGradient id="paint12_linear" x1="836.184" y1="372.926" x2="836.184" y2="436.955" gradientUnits="userSpaceOnUse">
<stop stop-color="white"/>
<stop offset="1" stop-color="white"/>
</linearGradient>
<linearGradient id="paint13_linear" x1="698.394" y1="488.007" x2="796.683" y2="488.007" gradientUnits="userSpaceOnUse">
<stop stop-color="#3F67FD"/>
<stop offset="1" stop-color="#4197FF"/>
</linearGradient>
</defs>
</svg>
