<svg width="375" height="953" viewBox="0 0 375 953" fill="none" xmlns="http://www.w3.org/2000/svg">
<rect x="-514.487" width="1404.9" height="872.716" fill="#F3F4F6"/>
<path d="M876.396 331.368C881.128 297.356 872.014 259.486 845.549 237.746C818.909 216.006 773.691 217.233 754.237 245.636C744.247 260.012 742.144 278.421 735.484 294.551C728.824 310.68 713.4 326.459 696.224 322.953C684.306 320.498 676.244 309.979 667.131 301.914C658.017 293.849 643.47 288.239 634.356 296.304C630.676 299.46 628.748 304.193 626.119 308.226C618.057 320.148 601.407 325.408 587.911 320.323C577.045 316.115 566.354 306.122 555.487 310.33C548.477 313.135 544.971 321.2 538.487 325.232C530.249 330.492 519.558 327.687 509.919 326.459C492.392 324.18 474.691 326.81 457.339 329.44C400.904 338.031 344.469 346.797 288.034 355.388C342.191 366.959 398.801 352.057 453.659 359.771C482.753 363.803 511.146 374.323 540.59 374.849C561.446 375.199 582.478 370.465 602.984 374.673C633.305 380.985 660.646 406.582 690.967 400.095C714.802 395.011 733.556 370.465 757.917 372.745C764.753 373.446 771.237 376.251 777.722 378.881C799.28 387.998 823.116 396.413 845.9 390.803C868.684 385.193 887.788 359.595 878.149 338.206" fill="url(#paint0_linear)"/>
<path opacity="0.15" d="M188.518 566.82C344.935 566.82 471.737 439.975 471.737 283.505C471.737 127.035 344.935 0.190918 188.518 0.190918C32.0998 0.190918 -94.7019 127.035 -94.7019 283.505C-94.7019 439.975 32.0998 566.82 188.518 566.82Z" fill="white"/>
<path d="M188.518 453.524C282.385 453.524 358.48 377.404 358.48 283.505C358.48 189.607 282.385 113.487 188.518 113.487C94.6508 113.487 18.5564 189.607 18.5564 283.505C18.5564 377.404 94.6508 453.524 188.518 453.524Z" fill="url(#paint1_linear)"/>
<path d="M-307.688 331.597L97.1719 659.276H-511.696V499.206L-307.688 331.597Z" fill="#F0F2F7"/>
<path d="M-511.696 578.955C-511.696 578.955 -391.99 564.929 -99.825 397.321H-47.2457L-29.7193 372.775L219.156 249.523L890.418 565.63V805.823H-511.696V578.955Z" fill="#F0F2F7"/>
<path d="M219.155 249.347L414.049 411.17L360.554 397.746L552.682 554.409L890.417 565.454L219.155 249.347Z" fill="white"/>
<path d="M552.684 554.409L373.213 698.173L612.273 554.409H552.684Z" fill="white"/>
<path d="M876.204 609.254C876.204 606.785 874.794 604.493 873.383 602.553C871.797 600.437 870.739 598.144 869.328 595.852C867.741 593.207 865.978 591.09 865.626 587.916C868.447 585.271 871.268 593.912 874.97 592.678C877.615 591.796 876.381 587.916 874.794 585.624C871.268 580.333 868.976 574.514 867.565 568.342C866.86 565.344 866.331 562.17 865.978 558.996C865.802 557.762 865.978 551.061 863.157 552.824C862.276 553.353 862.099 554.411 861.747 555.469C860.513 560.583 859.455 565.873 858.044 570.987C856.986 575.043 856.458 580.686 853.813 584.037C852.402 585.976 850.639 587.387 850.816 590.032C850.816 590.209 850.816 590.385 850.992 590.561C851.168 590.914 851.521 590.914 851.697 591.09C854.694 592.148 856.81 589.856 858.75 587.916C858.926 587.74 859.279 587.387 859.631 587.211C859.984 587.035 860.336 587.035 860.689 587.387C861.394 588.093 860.689 590.032 860.689 590.914C860.336 593.559 859.102 596.028 857.515 598.144C855.047 601.671 851.697 604.493 849.581 608.372C849.405 608.548 849.405 608.901 849.229 609.254H834.066L731.806 711.533C730.043 707.83 726.869 705.008 724.401 701.834C722.99 699.894 721.58 697.954 721.051 695.662C720.875 695.133 720.169 693.017 720.522 692.488C721.403 691.253 722.638 692.84 722.99 693.546C723.695 694.604 724.401 695.838 725.106 696.896C725.635 697.778 726.34 698.483 727.222 699.013C728.103 699.542 729.161 699.718 730.043 699.365C731.277 698.836 731.806 697.425 731.982 696.015C732.158 693.899 731.277 691.959 730.043 690.195C728.808 688.432 727.398 687.021 725.987 685.434C724.93 684.376 723.872 683.142 722.99 681.907C721.932 680.673 717.701 672.561 720.875 671.503C721.58 671.327 722.461 671.679 723.166 672.208C723.695 672.737 724.224 673.443 724.753 674.148C725.987 675.559 727.927 676.441 729.866 676.264C730.395 676.264 730.924 676.088 731.277 675.912C731.982 675.383 732.158 674.677 732.158 673.795C732.158 671.327 730.748 669.21 729.337 667.094C727.751 664.978 726.693 662.686 725.282 660.393C723.695 657.748 721.932 655.632 721.58 652.458C724.401 649.813 727.222 658.454 730.924 657.219C733.569 656.337 732.335 652.458 730.748 650.165C727.222 644.875 724.93 639.056 723.519 632.884C722.814 629.886 722.285 626.712 721.932 623.538C721.756 622.303 721.932 615.602 719.111 617.366C718.23 617.895 718.054 618.953 717.701 620.011C716.467 625.125 715.409 630.415 713.998 635.529C712.94 639.585 712.412 645.228 709.767 648.578C708.356 650.518 706.593 651.929 706.77 654.574C706.77 654.75 706.77 654.927 706.946 655.103C707.122 655.456 707.475 655.456 707.651 655.632C710.648 656.69 712.764 654.398 714.704 652.458C714.88 652.282 715.233 651.929 715.585 651.752C715.938 651.576 716.29 651.576 716.643 651.929C717.348 652.634 716.643 654.574 716.643 655.456C716.29 658.101 715.056 660.57 713.469 662.686C711.001 666.213 707.651 669.034 705.535 672.914C705.183 673.619 704.83 674.501 704.83 675.383C705.006 677.146 706.593 678.028 708.18 678.028C710.296 678.204 711.354 676.617 712.235 674.853C712.764 673.619 713.293 672.385 714.351 671.856C714.703 671.679 715.056 671.679 715.233 671.856C715.233 672.032 715.232 672.032 715.409 672.208C715.585 674.677 715.056 677.146 713.998 679.438C712.94 681.731 711.177 683.318 709.238 685.081C708.18 685.963 707.298 687.021 706.593 688.256C706.064 689.137 705.712 690.195 705.888 691.077C706.064 692.135 706.593 693.017 707.475 693.37C708.709 693.899 710.296 693.193 711.177 692.135C711.706 691.606 714.351 687.197 715.409 688.961C715.761 689.49 715.056 691.959 714.88 692.664C714.351 694.957 713.646 697.249 712.764 699.542C712.588 699.718 712.588 700.071 712.411 700.247L706.946 694.78H647.177C647.353 691.43 645.237 687.903 643.298 685.61C640.124 681.907 636.245 677.675 637.127 672.737C640.477 673.09 641.358 678.733 644.708 678.557C647.177 678.557 648.058 675.206 647.529 672.914C646.471 667.8 642.24 664.273 639.066 660.393C637.656 658.454 636.245 656.514 635.716 654.221C635.54 653.692 634.835 651.576 635.187 651.047C636.069 649.813 637.303 651.4 637.656 652.105C638.361 653.163 639.066 654.398 639.771 655.456C640.3 656.337 641.006 657.043 641.887 657.572C642.769 658.101 643.827 658.277 644.708 657.925C645.942 657.395 646.471 655.985 646.647 654.574C646.824 652.458 645.942 650.518 644.708 648.755C643.474 646.991 642.063 645.58 640.653 643.993C639.595 642.935 638.537 641.701 637.656 640.467C636.598 639.232 632.366 631.12 635.54 630.062C636.245 629.886 637.127 630.239 637.832 630.768C638.361 631.297 638.89 632.002 639.419 632.707C640.653 634.118 642.593 635 644.532 634.824C645.061 634.824 645.59 634.647 645.942 634.471C646.648 633.942 646.824 633.236 646.824 632.355C646.824 629.886 645.413 627.77 644.003 625.654C642.416 623.538 641.358 621.245 639.948 618.953C638.361 616.308 636.598 614.191 636.245 611.017C639.066 608.372 641.887 617.013 645.59 615.778C648.234 614.897 647 611.017 645.413 608.725C641.887 603.434 639.595 597.615 638.185 591.443C637.479 588.445 636.95 585.271 636.598 582.097C636.422 580.863 636.598 574.161 633.777 575.925C632.895 576.454 632.719 577.512 632.366 578.57C631.132 583.684 630.074 588.974 628.664 594.088C627.606 598.144 627.077 603.787 624.432 607.138C623.022 609.077 621.259 610.488 621.435 613.133C621.435 613.31 621.435 613.486 621.612 613.662C621.788 614.015 622.14 614.015 622.317 614.191C625.314 615.249 627.43 612.957 629.369 611.017C629.545 610.841 629.898 610.488 630.251 610.312C630.603 610.135 630.956 610.135 631.309 610.488C632.014 611.194 631.309 613.133 631.309 614.015C630.956 616.66 629.722 619.129 628.135 621.245C625.667 624.772 622.317 627.593 620.201 631.473C619.848 632.178 619.496 633.06 619.496 633.942C619.672 635.705 621.259 636.587 622.846 636.587C624.961 636.763 626.019 635.176 626.901 633.413C627.43 632.178 627.959 630.944 629.016 630.415C629.369 630.239 629.722 630.239 629.898 630.415C629.898 630.591 629.898 630.591 630.074 630.768C630.251 633.236 629.722 635.705 628.664 637.998C627.606 640.29 625.843 641.877 623.903 643.641C622.846 644.522 621.964 645.581 621.259 646.815C620.73 647.697 620.377 648.755 620.554 649.636C620.73 650.694 621.259 651.576 622.14 651.929C623.375 652.458 624.961 651.753 625.843 650.694C626.372 650.165 629.016 645.757 630.074 647.52C630.427 648.049 629.722 650.518 629.546 651.223C629.017 653.516 628.311 655.808 627.43 658.101C625.667 662.686 622.846 666.742 619.496 670.269C618.085 671.679 616.322 673.443 616.498 675.559C616.675 678.38 620.201 679.615 622.493 678.909C625.843 678.028 625.667 674.501 628.135 672.737C628.311 672.561 628.488 672.561 628.664 672.561C629.193 672.561 629.193 673.266 629.193 673.795C628.488 678.557 626.548 682.965 623.903 686.845C622.493 688.785 620.906 690.724 619.672 692.84C619.319 693.37 619.143 694.075 618.967 694.604H602.041C601.336 693.37 600.63 692.135 599.573 691.253C598.515 690.019 597.104 689.137 596.046 687.903C595.341 687.197 592.344 681.907 595.341 682.084C595.694 682.084 596.046 682.26 596.399 682.613C597.104 683.318 597.633 684.2 598.339 684.905C599.044 685.61 600.102 686.139 600.983 685.787C602.217 685.258 602.217 683.318 601.688 682.084C600.807 679.262 599.22 676.617 597.281 674.324C595.517 672.208 592.52 670.092 593.578 667.094C593.754 666.742 593.931 666.389 594.283 666.036C594.812 665.684 595.694 665.684 596.223 666.036C596.752 666.389 597.281 666.918 597.633 667.447C598.338 668.152 600.983 672.737 602.217 670.269C602.394 669.916 602.394 669.563 602.394 669.211C602.217 665.684 600.983 662.333 599.044 659.335C597.281 656.69 594.812 654.398 593.578 651.576C592.873 649.813 592.697 646.639 595.165 646.639C597.281 646.639 598.691 649.107 600.278 649.989C601.512 650.694 603.628 650.518 603.98 649.107C604.157 648.578 603.98 647.873 603.804 647.344C602.746 644.17 601.159 640.996 598.691 638.703C596.399 636.411 594.459 635.176 593.225 632.002C592.696 630.768 592.52 629.181 593.578 628.475C594.46 627.946 595.517 628.299 596.399 629.004C597.104 629.71 597.633 630.591 598.339 631.297C599.044 632.002 600.278 632.355 600.983 631.826C601.688 631.473 601.865 630.415 601.688 629.71C601.512 629.004 601.159 628.299 600.63 627.593C599.22 625.301 597.809 623.185 596.399 621.069C595.341 619.305 593.578 617.189 593.225 615.249C593.049 614.544 593.225 613.662 593.931 613.31C594.46 613.133 594.989 613.31 595.341 613.486C595.694 613.839 596.046 614.191 596.399 614.544C597.104 615.249 598.162 615.778 599.044 615.955C599.749 616.131 600.454 615.955 600.983 615.426C601.336 615.073 601.512 614.368 601.336 613.839C601.159 611.546 599.22 609.783 597.633 608.196C596.575 607.138 591.286 600.613 593.754 599.202C595.694 598.144 598.162 604.14 600.278 601.671C600.807 600.966 600.807 599.908 600.454 599.202C600.102 598.321 599.573 597.439 598.867 596.91C597.986 596.204 596.752 595.675 595.694 595.146C594.283 594.441 591.11 589.856 593.578 588.798C595.341 587.916 596.752 590.738 597.986 591.443C598.515 591.619 599.044 591.796 599.396 591.443C599.573 591.267 599.573 591.09 599.573 590.914C599.749 588.093 598.338 585.271 596.752 582.979C595.165 580.51 593.402 578.217 593.049 575.22C593.049 574.691 592.873 574.161 593.049 573.809C593.225 573.28 593.754 573.103 594.283 573.103C594.989 573.28 594.636 574.691 595.341 575.22C596.046 575.749 597.104 575.572 597.81 575.22C598.867 574.514 599.044 572.927 598.691 571.693C598.339 570.458 597.457 569.4 596.752 568.342C594.46 564.992 592.873 561.288 591.991 557.233C591.286 553.353 591.815 549.65 591.815 545.77C591.815 544.712 591.991 539.598 590.228 539.598C588.641 539.775 588.465 544.183 588.465 545.241C587.936 553.882 587.231 563.228 581.589 569.929C580.884 570.811 580.002 571.693 579.826 572.751C579.65 573.809 580.355 575.043 581.236 575.396C582.294 575.925 583.528 575.749 584.234 574.867C584.762 574.338 585.468 572.927 586.349 573.809C586.702 574.161 586.878 574.691 586.878 575.22C587.055 578.746 585.468 582.273 583.528 585.271C581.589 588.269 579.473 591.267 578.239 594.617C577.886 595.675 577.71 596.91 577.886 597.968C578.239 599.026 579.12 600.084 580.178 600.084C582.118 600.26 582.294 598.497 583.705 597.792C584.41 597.439 585.291 597.439 585.82 597.968C586.173 598.32 586.349 598.85 586.173 599.379C585.997 602.024 583.705 603.963 581.765 605.903C579.473 608.019 577.886 610.841 576.652 613.662C576.3 614.544 576.123 615.426 576.123 616.308C576.123 617.189 576.476 618.247 577.357 618.6C578.592 619.305 580.178 618.953 581.236 617.895C582.294 617.013 582.823 615.602 583.528 614.368C583.881 613.662 584.41 612.957 585.291 612.781C588.465 612.075 586.173 617.366 585.468 618.247C581.765 623.185 576.476 627.946 576.828 634.118C576.828 635.176 577.181 636.234 578.063 636.587C579.297 637.116 580.707 635.882 581.589 634.647C582.118 633.942 585.644 626.535 586.173 630.415C586.702 634.118 583.881 635.705 581.942 638.174C579.649 640.996 577.886 644.17 577.005 647.52C576.652 648.931 576.476 651.047 577.886 651.576C580.002 652.458 580.884 649.46 582.118 648.578C583.528 647.52 585.468 648.049 585.82 649.813C585.997 650.871 585.644 652.105 585.115 652.987C582.823 657.043 578.063 659.512 576.476 663.92C576.123 665.155 575.947 666.742 577.005 667.447C578.768 668.681 580.355 666.565 581.412 665.507C581.765 665.155 582.294 664.802 582.647 664.802C583.176 664.802 583.705 665.331 583.705 665.86C583.881 666.389 583.705 666.918 583.528 667.447C582.118 672.032 578.239 673.972 575.418 677.499C574.184 679.086 573.479 680.849 573.126 682.789C572.95 683.671 572.95 684.729 573.302 685.61C573.655 686.492 574.536 687.197 575.418 687.197C576.652 687.197 577.534 685.963 577.886 684.905C578.415 683.847 578.592 682.436 579.473 681.555C580.531 680.496 582.823 680.673 582.999 682.436C583.176 683.847 580.884 685.61 580.178 686.668C578.592 689.137 577.181 691.606 575.594 694.075H557.258L510.007 741.335C509.125 740.277 508.244 739.219 507.362 738.337C504.188 735.163 501.896 731.107 500.839 726.875C502.249 728.638 504.012 730.402 505.775 731.636C507.186 732.694 508.596 732.518 509.125 730.754C509.301 730.049 509.301 729.167 509.301 728.462C509.125 726.875 508.772 725.111 508.244 723.524C507.009 720.879 504.894 718.939 502.954 716.823C501.015 714.707 499.604 711.709 500.133 709.064C500.31 708.535 500.486 708.182 500.839 708.006C501.544 707.653 502.249 708.182 502.602 708.888C503.483 710.298 503.483 711.18 505.246 710.651C506.48 710.298 507.362 708.711 507.186 707.477C507.186 706.419 506.657 705.537 506.128 704.655C503.483 700.071 498.018 695.838 498.899 689.843C498.899 689.49 499.075 688.961 499.428 688.608C500.31 687.903 501.367 688.785 502.073 689.666C502.602 690.548 503.483 691.606 504.541 691.253C505.422 690.901 505.423 689.49 505.246 688.608C504.188 684.023 501.191 680.32 499.428 675.912C498.899 674.853 498.547 673.619 498.723 672.385C498.723 672.208 498.723 671.856 498.899 671.679C499.252 671.327 499.957 671.327 500.31 671.679C501.191 672.561 501.367 674.148 502.954 674.324C504.365 674.501 505.599 672.737 505.422 671.327C505.246 669.916 504.365 668.505 503.483 667.271C497.665 657.925 497.665 645.757 494.139 635.529C493.962 635.176 493.786 634.647 493.433 634.471C492.728 633.942 491.67 634.471 491.318 635.176C490.965 635.882 491.141 636.763 491.141 637.645C492.023 644.699 490.613 651.753 489.378 658.63C488.849 661.275 488.32 663.92 487.439 666.389C486.205 669.563 484.442 672.561 483.207 675.912C482.502 677.499 482.326 679.967 484.089 680.496C486.205 681.202 487.615 677.851 489.731 677.851C493.257 678.028 490.436 682.789 489.731 684.2C488.144 687.374 485.499 690.372 485.499 694.075C485.499 694.604 485.5 695.133 485.852 695.486C487.792 698.483 490.436 693.722 491.318 692.488C491.67 691.959 492.552 691.606 493.081 691.959C493.61 692.311 493.61 693.017 493.61 693.722C492.904 701.129 485.147 705.714 483.207 712.767C483.031 713.649 482.855 714.707 483.207 715.412C484.089 717.352 487.086 716.823 488.673 715.412C489.731 714.354 490.436 712.944 491.494 711.886C492.552 710.827 494.668 710.298 494.139 712.767C493.962 713.649 493.433 714.354 492.728 714.883C491.141 716.647 489.378 718.587 487.615 720.174C486.734 721.055 485.676 721.937 484.971 722.819C484.089 724.053 483.56 725.64 483.031 727.051C482.678 728.285 482.326 730.049 483.384 730.931C484.089 731.46 484.971 731.46 485.852 731.107C486.557 730.754 487.263 730.049 487.792 729.52C488.673 728.462 489.555 727.227 490.26 725.993C490.613 725.64 491.318 725.993 491.494 726.522C491.67 727.051 491.67 727.58 491.67 727.933C490.965 731.989 489.026 733.928 486.205 736.574C483.031 739.395 479.329 742.393 478.976 746.625C478.976 747.331 478.976 748.212 479.329 748.918H368.958C368.958 748.741 368.958 748.565 368.958 748.389C368.958 745.92 367.547 743.804 366.137 741.688C364.55 739.571 363.492 737.279 362.082 734.986C360.495 732.341 358.732 730.225 358.379 727.051C361.2 724.406 364.021 733.047 367.724 731.812C370.368 730.931 369.134 727.051 367.547 724.759C364.021 719.468 361.729 713.649 360.319 707.477C359.614 704.479 359.085 701.305 358.732 698.131C358.556 696.896 358.732 690.195 355.911 691.959C355.029 692.488 354.853 693.546 354.5 694.604C353.266 699.718 352.208 705.008 350.798 710.122C349.74 714.178 349.211 719.821 346.566 723.171C345.156 725.111 343.393 726.522 343.569 729.167C343.569 729.344 343.569 729.52 343.745 729.696C343.922 730.049 344.274 730.049 344.451 730.225C347.448 731.283 349.564 728.991 351.503 727.051C351.68 726.875 352.032 726.522 352.385 726.346C352.737 726.169 353.09 726.169 353.443 726.522C354.148 727.227 353.443 729.167 353.443 730.049C353.09 732.694 351.856 735.163 350.269 737.279C347.801 740.806 344.451 743.627 342.335 747.507C341.982 748.212 341.63 749.094 341.63 749.976C341.806 751.739 343.393 752.621 344.98 752.621C347.095 752.797 348.153 751.21 349.035 749.447C349.564 748.212 350.093 746.978 351.151 746.449C351.503 746.272 351.856 746.272 352.032 746.449C352.032 746.625 352.032 746.625 352.208 746.802C352.385 748.918 352.032 751.034 351.151 753.15L332.638 759.675C331.58 754.561 327.349 751.034 324.175 747.154C322.765 745.214 321.354 743.275 320.825 740.982C320.649 740.453 319.944 738.337 320.296 737.808C321.178 736.574 322.412 738.161 322.765 738.866C323.47 739.924 324.175 741.159 324.88 742.217C325.409 743.098 326.114 743.804 326.996 744.333C327.878 744.862 328.935 745.038 329.817 744.685C331.051 744.156 331.58 742.746 331.756 741.335C331.933 739.219 331.051 737.279 329.817 735.516C328.583 733.752 327.172 732.341 325.762 730.754C324.704 729.696 323.646 728.462 322.765 727.227C321.707 725.993 317.475 717.881 320.649 716.823C321.354 716.647 322.236 717 322.941 717.529C323.47 718.058 323.999 718.763 324.528 719.468C325.762 720.879 327.701 721.761 329.641 721.584C330.169 721.584 330.698 721.408 331.051 721.232C331.756 720.703 331.933 719.997 331.933 719.116C331.933 716.647 330.522 714.531 329.112 712.415C327.525 710.298 326.467 708.006 325.057 705.714C323.47 703.068 321.707 700.952 321.354 697.778C324.175 695.133 326.996 703.774 330.698 702.539C333.343 701.658 332.109 697.778 330.522 695.486C326.996 690.195 324.704 684.376 323.294 678.204C322.588 675.206 322.059 672.032 321.707 668.858C321.53 667.623 321.707 660.922 318.886 662.686C318.004 663.215 317.828 664.273 317.475 665.331C316.241 670.445 315.183 675.735 313.773 680.849C312.715 684.905 312.186 690.548 309.541 693.899C308.131 695.838 306.368 697.249 306.544 699.894C306.544 700.071 306.544 700.247 306.72 700.423C306.897 700.776 307.249 700.776 307.425 700.952C310.423 702.01 312.539 699.718 314.478 697.778C314.654 697.602 315.007 697.249 315.359 697.073C315.712 696.896 316.065 696.896 316.417 697.249C317.123 697.954 316.417 699.894 316.417 700.776C316.065 703.421 314.831 705.89 313.244 708.006C310.775 711.533 307.425 714.354 305.31 718.234C304.957 718.939 304.604 719.821 304.604 720.703C304.781 722.466 306.368 723.348 307.954 723.348C310.07 723.524 311.128 721.937 312.01 720.174C312.538 718.939 313.067 717.705 314.125 717.176C314.478 716.999 314.831 716.999 315.007 717.176C315.007 717.352 315.007 717.352 315.183 717.529C315.359 719.997 314.831 722.466 313.773 724.759C312.715 727.051 310.952 728.638 309.012 730.402C307.954 731.283 307.073 732.341 306.368 733.576C305.839 734.457 305.486 735.516 305.662 736.397C305.839 737.455 306.368 738.337 307.249 738.69C308.483 739.219 310.07 738.513 310.952 737.455C311.481 736.926 314.125 732.518 315.183 734.281C315.536 734.81 314.831 737.279 314.654 737.984C314.125 740.277 313.42 742.569 312.539 744.862C310.775 749.447 307.954 753.503 304.604 757.029C303.194 758.44 301.431 760.204 301.607 762.32C301.784 765.141 305.31 766.376 307.602 765.67C310.952 764.788 310.775 761.262 313.244 759.498C313.42 759.322 313.596 759.322 313.773 759.322C314.302 759.322 314.302 760.027 314.302 760.556C313.949 762.672 313.244 764.965 312.539 766.905L282.566 777.662C281.86 776.956 281.155 776.074 280.626 775.369C279.568 774.135 275.337 766.023 278.51 764.965C279.216 764.789 280.097 765.141 280.803 765.67C281.331 766.199 281.86 766.905 282.389 767.61C283.623 769.021 285.563 769.902 287.502 769.726C288.031 769.726 288.56 769.55 288.913 769.373C289.618 768.844 289.794 768.139 289.794 767.257C289.794 764.788 288.384 762.672 286.973 760.556C285.387 758.44 284.329 756.148 282.918 753.855C281.331 751.21 279.568 749.094 279.216 745.92C282.037 743.275 284.858 751.915 288.56 750.681C291.205 749.799 289.971 745.92 288.384 743.627C284.858 738.337 282.566 732.518 281.155 726.346C280.45 723.348 279.921 720.174 279.568 716.999C279.392 715.765 279.568 709.064 276.747 710.827C275.866 711.356 275.69 712.415 275.337 713.473C274.103 718.587 273.045 723.877 271.634 728.991C270.576 733.047 270.048 738.69 267.403 742.04C265.992 743.98 264.229 745.391 264.406 748.036C264.406 748.212 264.406 748.389 264.582 748.565C264.758 748.918 265.111 748.918 265.287 749.094C268.284 750.152 270.4 747.86 272.34 745.92C272.516 745.743 272.869 745.391 273.221 745.214C273.574 745.038 273.926 745.038 274.279 745.391C274.984 746.096 274.279 748.036 274.279 748.918C273.926 751.563 272.692 754.032 271.105 756.148C268.637 759.675 265.287 762.496 263.172 766.376C262.819 767.081 262.466 767.963 262.466 768.844C262.643 770.608 264.229 771.49 265.816 771.49C267.932 771.666 268.99 770.079 269.871 768.315C270.4 767.081 270.929 765.847 271.987 765.318C272.34 765.141 272.692 765.141 272.869 765.318C272.869 765.494 272.869 765.494 273.045 765.67C273.221 768.139 272.692 770.608 271.634 772.9C270.576 775.193 268.813 776.78 266.874 778.543C265.816 779.425 264.935 780.483 264.229 781.717C263.7 782.599 263.348 783.657 263.524 784.539L244.659 791.24H176.074L142.575 775.722C141.341 774.135 139.93 772.548 138.696 771.137C137.638 770.079 136.58 768.844 135.699 767.61C134.641 766.376 130.409 758.264 133.583 757.206C134.288 757.029 135.17 757.382 135.875 757.911C136.404 758.44 136.933 759.146 137.462 759.851C138.696 761.262 140.635 762.143 142.575 761.967C143.104 761.967 143.633 761.791 143.985 761.614C144.691 761.085 144.867 760.38 144.867 759.498C144.867 757.029 143.456 754.913 142.046 752.797C140.459 750.681 139.401 748.389 137.991 746.096C136.404 743.451 134.641 741.335 134.288 738.161C137.109 735.516 139.93 744.156 143.633 742.922C146.277 742.04 145.043 738.161 143.456 735.868C139.93 730.578 137.638 724.759 136.228 718.587C135.522 715.589 134.993 712.415 134.641 709.24C134.465 708.006 134.641 701.305 131.82 703.068C130.938 703.597 130.762 704.655 130.409 705.714C129.175 710.827 128.117 716.118 126.707 721.232C125.649 725.288 125.12 730.931 122.475 734.281C121.065 736.221 119.302 737.632 119.478 740.277C119.478 740.453 119.478 740.629 119.654 740.806C119.831 741.159 120.183 741.159 120.36 741.335C123.357 742.393 125.473 740.1 127.412 738.161C127.588 737.984 127.941 737.632 128.294 737.455C128.646 737.279 128.999 737.279 129.352 737.632C130.057 738.337 129.352 740.277 129.352 741.159C128.999 743.804 127.765 746.272 126.178 748.389C123.71 751.915 120.36 754.737 118.244 758.616C117.891 759.322 117.539 760.204 117.539 761.085C117.715 762.849 119.302 763.73 120.889 763.73C123.004 763.907 124.062 762.32 124.944 760.556C125.473 759.322 125.825 758.087 127.059 757.558C127.412 757.382 127.765 757.382 127.941 757.558C127.941 757.735 127.941 757.735 128.117 757.911C128.294 760.38 127.765 762.849 126.707 765.141C126.354 766.023 125.825 766.552 125.296 767.257L114.365 762.143C114.365 760.204 113.66 758.264 112.426 756.677C111.191 754.913 109.781 753.503 108.37 751.915C107.313 750.857 106.255 749.623 105.373 748.389C104.315 747.154 100.084 739.042 103.258 737.984C103.963 737.808 104.844 738.161 105.55 738.69C106.078 739.219 106.607 739.924 107.136 740.63C108.371 742.04 110.31 742.922 112.249 742.746C112.778 742.746 113.307 742.569 113.66 742.393C114.365 741.864 114.541 741.159 114.541 740.277C114.541 737.808 113.131 735.692 111.72 733.576C110.134 731.46 109.076 729.167 107.665 726.875C106.078 724.23 104.315 722.113 103.963 718.939C106.784 716.294 109.605 724.935 113.307 723.701C115.952 722.819 114.718 718.939 113.131 716.647C109.605 711.357 107.313 705.537 105.902 699.365C105.197 696.367 104.668 693.193 104.315 690.019C104.139 688.785 104.315 682.084 101.494 683.847C100.613 684.376 100.437 685.434 100.084 686.492C98.8497 691.606 97.7919 696.896 96.3813 702.01C95.3235 706.066 94.7946 711.709 92.1499 715.06C90.7394 717 88.9763 718.41 89.1526 721.055C89.1526 721.232 89.1526 721.408 89.3289 721.584C89.5052 721.937 89.8578 721.937 90.0342 722.113C93.0314 723.172 95.1472 720.879 97.0866 718.939C97.2629 718.763 97.6155 718.41 97.9682 718.234C98.3208 718.058 98.6734 718.058 99.026 718.41C99.7313 719.116 99.026 721.055 99.026 721.937C98.6734 724.582 97.4393 727.051 95.8525 729.167C93.3841 732.694 90.0342 735.516 87.9185 739.395C87.5658 740.1 87.2132 740.982 87.2132 741.864C87.3895 743.627 88.9763 744.509 90.5631 744.509C92.6788 744.685 93.7367 743.098 94.6182 741.335C95.1472 740.1 95.6761 738.866 96.734 738.337C97.0866 738.161 97.4393 738.161 97.6156 738.337C97.6156 738.513 97.6155 738.513 97.7919 738.69C97.9681 741.159 97.4392 743.627 96.3813 745.92C95.3235 748.212 93.7367 749.623 91.7973 751.386L71.6978 745.567C71.1689 742.922 69.5821 740.453 67.9953 738.513C64.8217 734.81 60.9429 730.578 61.8244 725.64C65.1743 725.993 66.0559 731.636 69.4058 731.46C71.8742 731.46 72.7557 728.109 72.2267 725.817C71.1689 720.703 66.9374 717.176 63.7639 713.296C62.3534 711.357 60.9429 709.417 60.4139 707.124C60.2376 706.595 59.5324 704.479 59.885 703.95C60.7666 702.716 62.0007 704.303 62.3534 705.008C63.0587 706.066 63.7639 707.301 64.4691 708.359C64.998 709.24 65.7032 709.946 66.5848 710.475C67.4664 711.004 68.5243 711.18 69.4058 710.827C70.64 710.298 71.1689 708.888 71.3452 707.477C71.5215 705.361 70.64 703.421 69.4058 701.658C68.1716 699.894 66.7611 698.483 65.3506 696.896C64.2927 695.838 63.2349 694.604 62.3534 693.37C61.2955 692.135 57.064 684.023 60.2376 682.965C60.9429 682.789 61.8244 683.142 62.5297 683.671C63.0586 684.2 63.5876 684.905 64.1165 685.61C65.3507 687.021 67.2901 687.903 69.2295 687.727C69.7584 687.727 70.2874 687.55 70.64 687.374C71.3452 686.845 71.5215 686.139 71.5215 685.258C71.5215 682.789 70.111 680.673 68.7006 678.557C67.1138 676.441 66.0559 674.148 64.6454 671.856C63.0587 669.211 61.2955 667.094 60.9429 663.92C63.7638 661.275 66.5849 669.916 70.2874 668.681C72.9321 667.8 71.6979 663.92 70.1111 661.628C66.5848 656.337 64.2928 650.518 62.8823 644.346C62.1771 641.348 61.6481 638.174 61.2955 635C61.1192 633.765 61.2955 627.064 58.4745 628.828C57.593 629.357 57.4167 630.415 57.0641 631.473C55.8299 636.587 54.772 641.877 53.3615 646.991C52.3036 651.047 51.7747 656.69 49.1301 660.041C47.7195 661.98 45.9565 663.391 46.1328 666.036C46.1328 666.213 46.1328 666.389 46.3091 666.565C46.4854 666.918 46.838 666.918 47.0143 667.094C50.0116 668.152 52.1274 665.86 54.0668 663.92C54.2431 663.744 54.5956 663.391 54.9483 663.215C55.3009 663.038 55.6536 663.038 56.0062 663.391C56.7114 664.097 56.0062 666.036 56.0062 666.918C55.6536 669.563 54.4194 672.032 52.8326 674.148C50.3642 677.675 47.0143 680.496 44.8986 684.376C44.546 685.081 44.1933 685.963 44.1933 686.845C44.3696 688.608 45.9564 689.49 47.5432 689.49C49.659 689.666 50.7169 688.079 51.5984 686.316C52.1273 685.081 52.6562 683.847 53.7141 683.318C54.0668 683.142 54.4193 683.142 54.5956 683.318C54.5956 683.494 54.5956 683.494 54.772 683.671C54.9482 686.139 54.4194 688.608 53.3615 690.901C52.3036 693.193 50.5405 694.78 48.6011 696.544C47.5433 697.425 46.6617 698.483 45.9564 699.718C45.4275 700.6 45.0749 701.658 45.2512 702.539C45.4275 703.597 45.9564 704.479 46.838 704.832C48.0722 705.361 49.659 704.655 50.5405 703.597C51.0695 703.068 53.7141 698.66 54.772 700.423C55.1246 700.952 54.4194 703.421 54.243 704.126C53.7141 706.419 53.0089 708.711 52.1273 711.004C50.3642 715.589 47.5432 719.645 44.1933 723.171C42.7828 724.582 41.0198 726.346 41.1961 728.462C41.3724 731.283 44.8986 732.518 47.1907 731.812C50.5406 730.931 50.3642 727.404 52.8326 725.64C53.0089 725.464 53.1852 725.464 53.3615 725.464C53.8904 725.464 53.8904 726.169 53.8904 726.698C53.3615 729.696 52.3036 732.694 51.0695 735.516L21.9781 722.113C23.036 721.408 23.3887 720.174 23.565 718.939C23.7413 716.823 22.8597 714.883 21.6255 713.12C20.3914 711.357 18.9808 709.946 17.5704 708.359C16.5125 707.301 15.4547 706.066 14.5731 704.832C13.5153 703.597 9.28375 695.486 12.4574 694.428C13.1626 694.251 14.0443 694.604 14.7495 695.133C15.2784 695.662 15.8073 696.367 16.3362 697.073C17.5704 698.483 19.5098 699.365 21.4492 699.189C21.9781 699.189 22.5071 699.012 22.8597 698.836C23.5649 698.307 23.7413 697.602 23.7413 696.72C23.7413 694.251 22.3309 692.135 20.9203 690.019C19.3336 687.903 18.2756 685.61 16.8651 683.318C15.2783 680.673 13.5153 678.557 13.1626 675.383C15.9836 672.737 18.8046 681.378 22.5071 680.144C25.1518 679.262 23.9176 675.382 22.3307 673.09C18.8046 667.8 16.5126 661.98 15.1021 655.808C14.3968 652.811 13.8679 649.636 13.5153 646.462C13.3389 645.228 13.5152 638.527 10.6942 640.29C9.81268 640.819 9.63641 641.877 9.28381 642.935C8.04962 648.049 6.99176 653.34 5.58124 658.454C4.52338 662.509 3.99445 668.152 1.34979 671.503C-0.0606689 673.443 -1.82379 674.853 -1.64746 677.499C-1.64746 677.675 -1.64746 677.851 -1.47113 678.028C-1.29486 678.38 -0.9422 678.38 -0.76593 678.557C2.23138 679.615 4.34705 677.322 6.2865 675.383C6.46277 675.206 6.81543 674.853 7.16803 674.677C7.52069 674.501 7.87329 674.501 8.22595 674.853C8.93115 675.559 8.22595 677.499 8.22595 678.38C7.87329 681.025 6.6391 683.494 5.05231 685.61C2.58398 689.137 -0.765869 691.959 -2.88165 695.838C-3.23425 696.544 -3.58691 697.425 -3.58691 698.307C-3.41064 700.071 -1.82379 700.952 -0.237 700.952C1.87872 701.129 2.93665 699.542 3.81818 697.778C4.34711 696.544 4.87604 695.309 5.9339 694.78C6.2865 694.604 6.63916 694.604 6.81543 694.78C6.81543 694.957 6.81543 694.957 6.9917 695.133C7.16803 697.602 6.6391 700.071 5.58124 702.363C4.52338 704.655 2.76025 706.243 0.820862 708.006C-0.06073 708.888 -0.942261 709.769 -1.64746 710.827L-29.6809 697.954C-30.0335 697.425 -30.5625 697.073 -30.9151 696.544C-31.973 695.486 -33.0308 694.251 -33.9123 693.017C-34.9702 691.782 -39.2017 683.671 -36.0281 682.613C-35.3229 682.436 -34.4413 682.789 -33.7361 683.318C-33.2071 683.847 -32.6782 684.552 -32.1493 685.258C-30.9151 686.668 -28.9757 687.55 -27.0363 687.374C-26.5073 687.374 -25.9784 687.197 -25.6258 687.021C-24.9205 686.492 -24.7442 685.787 -24.7442 684.905C-24.7442 682.436 -26.1547 680.32 -27.5652 678.204C-29.152 676.088 -30.2099 673.795 -31.6204 671.503C-33.2072 668.858 -34.9702 666.742 -35.3229 663.568C-32.5019 660.922 -29.6809 669.563 -25.9784 668.329C-23.3337 667.447 -24.5679 663.568 -26.1547 661.275C-29.6809 655.985 -31.973 650.165 -33.3835 643.993C-34.0887 640.996 -34.6176 637.821 -34.9702 634.647C-35.1465 633.413 -34.9703 626.712 -37.7912 628.475C-38.6728 629.004 -38.8491 630.062 -39.2017 631.12C-40.4359 636.234 -41.4937 641.525 -42.9042 646.639C-43.9621 650.694 -44.491 656.337 -47.1357 659.688C-48.5462 661.628 -50.3093 663.039 -50.133 665.684C-50.133 665.86 -50.133 666.036 -49.9567 666.213C-49.7803 666.565 -49.4277 666.565 -49.2514 666.742C-46.2541 667.8 -44.1384 665.507 -42.199 663.568C-42.0227 663.391 -41.67 663.038 -41.3174 662.862C-40.9648 662.686 -40.6122 662.686 -40.2596 663.039C-39.5543 663.744 -40.2596 665.684 -40.2596 666.565C-40.6122 669.211 -41.8463 671.679 -43.4331 673.795C-45.9015 677.322 -49.2514 680.144 -51.3671 684.023C-51.7198 684.729 -52.0724 685.61 -52.0724 686.492C-52.0724 686.845 -51.8961 687.197 -51.7198 687.374L-58.7722 684.2C-59.8301 682.613 -61.2406 681.202 -62.6511 679.791C-63.7089 678.733 -64.7668 677.499 -65.6483 676.264C-66.7062 675.03 -70.9377 666.918 -67.7641 665.86C-67.0588 665.684 -66.1772 666.036 -65.472 666.565C-64.9431 667.094 -64.4141 667.8 -63.8852 668.505C-62.651 669.916 -60.7116 670.798 -58.7722 670.621C-58.2433 670.621 -57.7144 670.445 -57.3617 670.269C-56.6565 669.74 -56.4802 669.034 -56.4802 668.152C-56.4802 665.684 -57.8906 663.567 -59.3011 661.451C-60.8879 659.335 -61.9458 657.043 -63.3563 654.75C-64.9431 652.105 -66.7062 649.989 -67.0588 646.815C-64.2378 644.17 -61.4168 652.811 -57.7143 651.576C-55.0696 650.694 -56.3038 646.815 -57.8907 644.522C-61.4169 639.232 -63.7089 633.413 -65.1194 627.241C-65.8246 624.243 -66.3536 621.069 -66.7062 617.895C-66.8825 616.66 -66.7062 609.959 -69.5272 611.723C-70.4087 612.252 -70.585 613.31 -70.9377 614.368C-72.1718 619.482 -73.2297 624.772 -74.6402 629.886C-75.698 633.942 -76.227 639.585 -78.8716 642.935C-80.2821 644.875 -82.0453 646.286 -81.869 648.931C-81.869 649.107 -81.8689 649.284 -81.6926 649.46C-81.5163 649.813 -81.1637 649.813 -80.9874 649.989C-77.9901 651.047 -75.8744 648.755 -73.9349 646.815C-73.7586 646.639 -73.406 646.286 -73.0534 646.11C-72.7008 645.933 -72.3481 645.933 -71.9955 646.286C-71.2903 646.991 -71.9955 648.931 -71.9955 649.813C-72.3481 652.458 -73.5823 654.927 -75.1691 657.043C-77.6375 660.57 -80.9874 663.391 -83.1031 667.271C-83.4557 667.976 -83.8083 668.858 -83.8083 669.74C-83.632 671.503 -82.0453 672.385 -80.4584 672.385C-78.3427 672.561 -77.2849 670.974 -76.4033 669.211C-75.8744 667.976 -75.3454 666.742 -74.2876 666.213C-73.9349 666.036 -73.5823 666.036 -73.406 666.213C-73.406 666.389 -73.406 666.389 -73.2297 666.565C-73.0534 669.034 -73.5823 671.503 -74.6402 673.795C-74.9928 674.501 -75.5217 675.206 -75.8744 675.912L-109.021 660.57C-110.431 658.983 -111.842 657.396 -113.076 655.808C-114.486 653.869 -115.897 651.929 -116.426 649.636C-116.602 649.107 -117.307 646.991 -116.955 646.462C-116.073 645.228 -114.839 646.815 -114.486 647.52C-113.781 648.578 -113.076 649.813 -112.371 650.871C-111.842 651.753 -111.137 652.458 -110.255 652.987C-109.373 653.516 -108.316 653.692 -107.434 653.34C-106.2 652.811 -105.671 651.4 -105.495 649.989C-105.318 647.873 -106.2 645.933 -107.434 644.17C-108.668 642.406 -110.079 640.996 -111.489 639.408C-112.547 638.35 -113.605 637.116 -114.486 635.882C-115.544 634.647 -119.776 626.535 -116.602 625.477C-115.897 625.301 -115.015 625.654 -114.31 626.183C-113.781 626.712 -113.252 627.417 -112.723 628.123C-111.489 629.533 -109.55 630.415 -107.61 630.239C-107.081 630.239 -106.552 630.062 -106.2 629.886C-105.495 629.357 -105.318 628.652 -105.318 627.77C-105.318 625.301 -106.729 623.185 -108.139 621.069C-109.726 618.953 -110.784 616.66 -112.194 614.368C-113.781 611.723 -115.544 609.606 -115.897 606.432C-113.076 603.787 -110.255 612.428 -106.552 611.194C-103.908 610.312 -105.142 606.432 -106.729 604.14C-110.255 598.85 -112.547 593.03 -113.958 586.858C-114.663 583.86 -115.192 580.686 -115.544 577.512C-115.721 576.278 -115.544 569.577 -118.365 571.34C-119.247 571.869 -119.423 572.927 -119.776 573.985C-121.01 579.099 -122.068 584.389 -123.478 589.503C-124.536 593.559 -125.065 599.202 -127.71 602.553C-129.12 604.493 -130.883 605.903 -130.707 608.548C-130.707 608.725 -130.707 608.901 -130.531 609.077C-130.354 609.43 -130.002 609.43 -129.826 609.606C-126.828 610.665 -124.712 608.372 -122.773 606.432C-122.597 606.256 -122.244 605.903 -121.892 605.727C-121.539 605.551 -121.186 605.551 -120.834 605.903C-120.128 606.609 -120.834 608.548 -120.834 609.43C-121.186 612.075 -122.42 614.544 -124.007 616.66C-126.476 620.187 -129.825 623.009 -131.941 626.888C-132.294 627.593 -132.646 628.475 -132.646 629.357C-132.47 631.12 -130.883 632.002 -129.297 632.002C-127.181 632.178 -126.123 630.591 -125.241 628.828C-124.712 627.593 -124.184 626.359 -123.126 625.83C-122.773 625.654 -122.42 625.654 -122.244 625.83C-122.244 626.006 -122.244 626.006 -122.068 626.183C-121.891 628.652 -122.42 631.12 -123.478 633.413C-124.536 635.705 -126.299 637.292 -128.239 639.056C-129.297 639.938 -130.178 640.996 -130.883 642.23C-131.412 643.112 -131.765 644.17 -131.589 645.051C-131.412 646.11 -130.883 646.991 -130.002 647.344C-128.768 647.873 -127.181 647.168 -126.299 646.11C-125.77 645.58 -123.126 641.172 -122.068 642.935C-121.715 643.464 -122.42 645.933 -122.597 646.639C-123.126 648.755 -123.655 651.047 -124.536 652.987L-155.038 638.879C-155.038 636.411 -156.448 634.295 -157.859 632.178C-159.446 630.062 -160.504 627.77 -161.914 625.477C-163.501 622.832 -165.264 620.716 -165.617 617.542C-162.796 614.897 -159.975 623.538 -156.272 622.303C-153.627 621.421 -154.862 617.542 -156.448 615.249C-159.975 609.959 -162.267 604.14 -163.677 597.968C-164.382 594.97 -164.911 591.796 -165.264 588.622C-165.44 587.387 -165.264 580.686 -168.085 582.45C-168.966 582.979 -169.143 584.037 -169.495 585.095C-170.73 590.209 -171.787 595.499 -173.198 600.613C-174.256 604.669 -174.785 610.312 -177.429 613.662C-178.84 615.602 -180.603 617.013 -180.427 619.658C-180.427 619.834 -180.427 620.011 -180.25 620.187C-180.074 620.54 -179.721 620.54 -179.545 620.716C-176.548 621.774 -174.432 619.482 -172.493 617.542C-172.316 617.366 -171.964 617.013 -171.611 616.837C-171.259 616.66 -170.906 616.66 -170.553 617.013C-169.848 617.718 -170.553 619.658 -170.553 620.54C-170.906 623.185 -172.14 625.654 -173.727 627.77C-174.079 628.299 -174.608 628.828 -174.961 629.357L-189.947 622.48C-190.653 621.598 -191.534 620.716 -192.416 619.834C-193.474 618.776 -194.532 617.542 -195.413 616.308C-196.471 615.073 -200.702 606.961 -197.529 605.903C-196.824 605.727 -195.942 606.08 -195.237 606.609C-194.708 607.138 -194.179 607.843 -193.65 608.548C-192.416 609.959 -190.476 610.841 -188.537 610.665C-188.008 610.665 -187.479 610.488 -187.127 610.312C-186.421 609.783 -186.245 609.077 -186.245 608.196C-186.245 605.727 -187.655 603.611 -189.066 601.495C-190.653 599.379 -191.711 597.086 -193.121 594.794C-194.708 592.148 -196.471 590.032 -196.824 586.858C-194.003 584.213 -191.182 592.854 -187.479 591.619C-184.834 590.738 -186.069 586.858 -187.655 584.566C-191.182 579.275 -193.474 573.456 -194.884 567.284C-195.589 564.286 -196.118 561.112 -196.471 557.938C-196.647 556.704 -196.471 550.002 -199.292 551.766C-200.174 552.295 -200.35 553.353 -200.702 554.411C-201.937 559.525 -202.995 564.815 -204.405 569.929C-205.463 573.985 -205.992 579.628 -208.636 582.979C-210.047 584.918 -211.81 586.329 -211.634 588.974C-211.634 589.151 -211.634 589.327 -211.457 589.503C-211.281 589.856 -210.928 589.856 -210.752 590.032C-207.755 591.09 -205.639 588.798 -203.7 586.858C-203.523 586.682 -203.171 586.329 -202.818 586.153C-202.466 585.976 -202.113 585.977 -201.76 586.329C-201.055 587.035 -201.76 588.974 -201.76 589.856C-202.113 592.501 -203.347 594.97 -204.934 597.086C-207.402 600.613 -210.752 603.434 -212.868 607.314C-213.221 608.019 -213.573 608.901 -213.573 609.783C-213.397 611.546 -211.81 612.428 -210.223 612.428C-208.108 612.604 -207.05 611.017 -206.168 609.254C-205.639 608.019 -205.11 606.785 -204.052 606.256C-203.7 606.08 -203.347 606.08 -203.171 606.256C-203.171 606.432 -203.171 606.432 -202.995 606.609C-202.818 609.077 -203.347 611.546 -204.405 613.839C-204.581 614.368 -204.934 614.72 -205.11 615.073L-226.091 605.374C-226.268 602.2 -228.207 599.026 -230.146 596.733C-233.32 593.03 -237.199 588.798 -236.317 583.86C-232.967 584.213 -232.086 589.856 -228.736 589.68C-226.268 589.68 -225.386 586.329 -225.915 584.037C-226.973 578.923 -231.204 575.396 -234.378 571.516C-235.788 569.577 -237.199 567.637 -237.728 565.344C-237.904 564.815 -238.609 562.699 -238.257 562.17C-237.375 560.936 -236.141 562.523 -235.788 563.228C-235.083 564.286 -234.378 565.521 -233.673 566.579C-233.144 567.46 -232.438 568.166 -231.557 568.695C-230.675 569.224 -229.617 569.4 -228.736 569.048C-227.502 568.518 -226.973 567.108 -226.796 565.697C-226.62 563.581 -227.502 561.641 -228.736 559.878C-229.97 558.114 -231.381 556.704 -232.791 555.116C-233.849 554.058 -234.907 552.824 -235.788 551.59C-236.846 550.355 -241.078 542.243 -237.904 541.185C-237.199 541.009 -236.317 541.362 -235.612 541.891C-235.083 542.42 -234.554 543.125 -234.025 543.83C-232.791 545.241 -230.852 546.123 -228.912 545.947C-228.383 545.947 -227.854 545.77 -227.502 545.594C-226.796 545.065 -226.62 544.359 -226.62 543.478C-226.62 541.009 -228.031 538.893 -229.441 536.777C-231.028 534.661 -232.086 532.368 -233.496 530.076C-235.083 527.431 -236.846 525.314 -237.199 522.14C-234.378 519.495 -231.557 528.136 -227.854 526.902C-225.21 526.02 -226.444 522.14 -228.031 519.848C-231.557 514.557 -233.849 508.738 -235.259 502.566C-235.965 499.568 -236.494 496.394 -236.846 493.22C-237.022 491.986 -236.846 485.285 -239.667 487.048C-240.549 487.577 -240.725 488.635 -241.078 489.693C-242.312 494.807 -243.37 500.097 -244.78 505.211C-245.838 509.267 -246.367 514.91 -249.012 518.261C-250.422 520.2 -252.185 521.611 -252.009 524.256C-252.009 524.433 -252.009 524.609 -251.833 524.785C-251.656 525.138 -251.304 525.138 -251.127 525.314C-248.13 526.372 -246.014 524.08 -244.075 522.14C-243.899 521.964 -243.546 521.611 -243.193 521.435C-242.841 521.259 -242.488 521.259 -242.135 521.611C-241.43 522.317 -242.135 524.256 -242.135 525.138C-242.488 527.783 -243.722 530.252 -245.309 532.368C-247.777 535.895 -251.127 538.716 -253.243 542.596C-253.596 543.301 -253.948 544.183 -253.948 545.065C-253.772 546.828 -252.185 547.71 -250.598 547.71C-248.483 547.886 -247.425 546.299 -246.543 544.536C-246.014 543.301 -245.485 542.067 -244.428 541.538C-244.075 541.362 -243.722 541.362 -243.546 541.538C-243.546 541.714 -243.546 541.714 -243.37 541.891C-243.193 544.359 -243.722 546.828 -244.78 549.121C-245.838 551.413 -247.601 553 -249.541 554.764C-250.598 555.645 -251.48 556.704 -252.185 557.938C-252.714 558.82 -253.067 559.878 -252.89 560.759C-252.714 561.817 -252.185 562.699 -251.304 563.052C-250.069 563.581 -248.483 562.875 -247.601 561.817C-247.072 561.288 -244.428 556.88 -243.37 558.643C-243.017 559.172 -243.722 561.641 -243.899 562.347C-244.428 564.639 -245.133 566.931 -246.014 569.224C-247.777 573.809 -250.598 577.865 -253.948 581.392C-255.359 582.802 -257.122 584.566 -256.946 586.682C-256.769 589.503 -253.243 590.738 -250.951 590.032C-247.601 589.151 -247.777 585.624 -245.309 583.86C-245.133 583.684 -244.956 583.684 -244.78 583.684C-244.251 583.684 -244.251 584.389 -244.251 584.918C-244.78 588.445 -246.014 591.796 -247.777 594.97L-270.169 584.566C-271.05 583.508 -272.108 582.45 -273.166 581.215C-274.224 580.157 -275.282 578.923 -276.164 577.688C-277.221 576.454 -281.453 568.342 -278.279 567.284C-277.574 567.108 -276.692 567.46 -275.987 567.989C-275.458 568.518 -274.929 569.224 -274.4 569.929C-273.166 571.34 -271.227 572.222 -269.287 572.045C-268.758 572.045 -268.23 571.869 -267.877 571.693C-267.172 571.164 -266.995 570.458 -266.995 569.577C-266.995 567.108 -268.406 564.992 -269.816 562.876C-271.403 560.759 -272.461 558.467 -273.871 556.174C-275.458 553.529 -277.221 551.413 -277.574 548.239C-274.753 545.594 -271.932 554.235 -268.23 553C-265.585 552.119 -266.819 548.239 -268.406 545.947C-271.932 540.656 -274.224 534.837 -275.635 528.665C-276.34 525.667 -276.869 522.493 -277.221 519.319C-277.398 518.084 -277.221 511.383 -280.042 513.147C-280.924 513.676 -281.1 514.734 -281.453 515.792C-282.687 520.906 -283.745 526.196 -285.155 531.31C-286.213 535.366 -286.742 541.009 -289.387 544.359C-290.797 546.299 -292.56 547.71 -292.384 550.355C-292.384 550.531 -292.384 550.708 -292.208 550.884C-292.031 551.237 -291.679 551.237 -291.503 551.413C-288.505 552.471 -286.39 550.179 -284.45 548.239C-284.274 548.063 -283.921 547.71 -283.569 547.534C-283.216 547.357 -282.863 547.357 -282.511 547.71C-281.805 548.415 -282.511 550.355 -282.511 551.237C-282.863 553.882 -284.097 556.351 -285.684 558.467C-288.153 561.994 -291.503 564.815 -293.618 568.695C-293.971 569.4 -294.324 570.282 -294.324 571.164C-294.147 572.927 -292.56 573.809 -290.974 573.809C-288.858 573.985 -287.8 572.398 -286.918 570.635C-286.39 569.4 -285.861 568.166 -284.803 567.637C-284.45 567.46 -284.097 567.46 -283.921 567.637C-283.921 567.813 -283.921 567.813 -283.745 567.989C-283.569 570.458 -284.097 572.927 -285.155 575.22C-285.332 575.749 -285.684 576.278 -286.037 576.807L-311.778 564.992C-312.836 563.757 -314.07 562.523 -314.952 561.112C-316.362 559.172 -317.773 557.233 -318.302 554.94C-318.478 554.411 -319.183 552.295 -318.831 551.766C-317.949 550.532 -316.715 552.119 -316.362 552.824C-315.657 553.882 -314.952 555.116 -314.247 556.174C-313.718 557.056 -313.012 557.762 -312.131 558.291C-311.249 558.82 -310.191 558.996 -309.31 558.643C-308.076 558.114 -307.547 556.704 -307.371 555.293C-307.194 553.177 -308.076 551.237 -309.31 549.473C-310.544 547.71 -311.955 546.299 -313.365 544.712C-314.423 543.654 -315.481 542.42 -316.362 541.185C-317.42 539.951 -321.652 531.839 -318.478 530.781C-317.773 530.605 -316.891 530.957 -316.186 531.486C-315.657 532.015 -315.128 532.721 -314.599 533.426C-313.365 534.837 -311.426 535.719 -309.486 535.542C-308.957 535.542 -308.428 535.366 -308.076 535.19C-307.371 534.661 -307.194 533.955 -307.194 533.074C-307.194 530.605 -308.605 528.489 -310.015 526.372C-311.602 524.256 -312.66 521.964 -314.07 519.671C-315.657 517.026 -317.42 514.91 -317.773 511.736C-314.952 509.091 -312.131 517.732 -308.428 516.497C-305.784 515.616 -307.018 511.736 -308.605 509.444C-312.131 504.153 -314.423 498.334 -315.833 492.162C-316.539 489.164 -317.068 485.99 -317.42 482.816C-317.597 481.581 -317.42 474.88 -320.241 476.644C-321.123 477.173 -321.299 478.231 -321.652 479.289C-322.886 484.403 -323.944 489.693 -325.354 494.807C-326.412 498.863 -326.941 504.506 -329.586 507.856C-330.996 509.796 -332.759 511.207 -332.583 513.852C-332.583 514.028 -332.583 514.205 -332.407 514.381C-332.23 514.734 -331.878 514.734 -331.701 514.91C-328.704 515.968 -326.588 513.676 -324.649 511.736C-324.473 511.56 -324.12 511.207 -323.767 511.031C-323.415 510.854 -323.062 510.854 -322.71 511.207C-322.004 511.912 -322.71 513.852 -322.71 514.734C-323.062 517.379 -324.296 519.848 -325.883 521.964C-328.352 525.491 -331.701 528.312 -333.817 532.192C-334.17 532.897 -334.522 533.779 -334.522 534.661C-334.346 536.424 -332.759 537.306 -331.173 537.306C-329.057 537.482 -327.999 535.895 -327.117 534.132C-326.588 532.897 -326.236 531.663 -325.002 531.134C-324.649 530.957 -324.296 530.957 -324.12 531.134C-324.12 531.31 -324.12 531.31 -323.944 531.486C-323.767 533.955 -324.296 536.424 -325.354 538.717C-326.412 541.009 -328.175 542.596 -330.115 544.359C-331.173 545.241 -332.054 546.299 -332.759 547.534C-333.288 548.415 -333.641 549.473 -333.465 550.355C-333.288 551.413 -332.759 552.295 -331.878 552.648C-330.644 553.177 -329.057 552.471 -328.175 551.413C-327.646 550.884 -325.002 546.476 -323.944 548.239C-323.591 548.768 -324.296 551.237 -324.473 551.942C-324.825 553.882 -325.531 555.998 -326.236 557.762L-350.214 546.652C-351.272 545.241 -352.506 544.007 -353.564 542.772C-354.622 541.714 -355.68 540.48 -356.561 539.246C-357.619 538.011 -361.851 529.899 -358.677 528.841C-357.972 528.665 -357.09 529.018 -356.385 529.547C-355.856 530.076 -355.327 530.781 -354.798 531.486C-353.564 532.897 -351.625 533.779 -349.685 533.603C-349.156 533.603 -348.627 533.426 -348.275 533.25C-347.569 532.721 -347.393 532.015 -347.393 531.134C-347.393 528.665 -348.804 526.549 -350.214 524.433C-351.801 522.317 -352.859 520.024 -354.269 517.732C-355.856 515.086 -357.619 512.97 -357.972 509.796C-355.151 507.151 -352.33 515.792 -348.627 514.557C-345.983 513.676 -347.217 509.796 -348.804 507.504C-352.33 502.213 -354.622 496.394 -356.032 490.222C-356.738 487.224 -357.267 484.05 -357.619 480.876C-357.795 479.642 -357.619 472.94 -360.44 474.704C-361.322 475.233 -361.498 476.291 -361.851 477.349C-363.085 482.463 -364.143 487.753 -365.553 492.867C-366.611 496.923 -367.14 502.566 -369.785 505.917C-371.195 507.856 -372.958 509.267 -372.782 511.912C-372.782 512.089 -372.782 512.265 -372.606 512.441C-372.429 512.794 -372.077 512.794 -371.9 512.97C-368.903 514.028 -366.787 511.736 -364.848 509.796C-364.672 509.62 -364.319 509.267 -363.966 509.091C-363.614 508.914 -363.261 508.915 -362.908 509.267C-362.203 509.973 -362.908 511.912 -362.908 512.794C-363.261 515.439 -364.495 517.908 -366.082 520.024C-368.55 523.551 -371.9 526.372 -374.016 530.252C-374.369 530.957 -374.721 531.839 -374.721 532.721C-374.545 534.484 -372.958 535.366 -371.371 535.366C-369.256 535.542 -368.198 533.955 -367.316 532.192C-366.787 530.957 -366.258 529.723 -365.201 529.194C-364.848 529.018 -364.495 529.018 -364.319 529.194C-364.319 529.37 -364.319 529.37 -364.143 529.547C-363.966 532.015 -364.495 534.484 -365.553 536.777C-365.906 537.482 -366.258 538.011 -366.611 538.54L-394.292 525.667C-394.468 525.491 -394.644 525.138 -394.644 524.962C-396.231 522.317 -397.994 520.2 -398.347 517.026C-395.526 514.381 -392.705 523.022 -389.002 521.788C-386.358 520.906 -387.592 517.026 -389.179 514.734C-392.705 509.444 -394.997 503.624 -396.408 497.452C-397.113 494.454 -397.642 491.28 -397.994 488.106C-398.171 486.872 -397.994 480.171 -400.815 481.934C-401.697 482.463 -401.873 483.521 -402.226 484.579C-403.46 489.693 -404.518 494.983 -405.928 500.097C-406.986 504.153 -407.515 509.796 -410.16 513.147C-411.041 514.381 -412.275 515.439 -412.804 516.85L-436.254 505.917C-437.488 503.801 -438.37 501.508 -437.841 499.039C-434.491 499.392 -433.609 505.035 -430.259 504.859C-427.791 504.859 -426.909 501.508 -427.438 499.216C-428.496 494.102 -432.728 490.575 -435.901 486.695C-437.312 484.756 -438.722 482.816 -439.251 480.523C-439.427 479.994 -440.133 477.878 -439.78 477.349C-438.898 476.115 -437.664 477.702 -437.312 478.407C-436.606 479.465 -435.901 480.7 -435.196 481.758C-434.667 482.639 -433.962 483.345 -433.08 483.874C-432.199 484.403 -431.141 484.579 -430.259 484.226C-429.025 483.697 -428.496 482.287 -428.32 480.876C-428.143 478.76 -429.025 476.82 -430.259 475.057C-431.493 473.293 -432.904 471.882 -434.314 470.295C-435.372 469.237 -436.43 468.003 -437.312 466.768C-438.37 465.534 -442.601 457.422 -439.427 456.364C-438.722 456.188 -437.841 456.541 -437.135 457.07C-436.606 457.599 -436.077 458.304 -435.549 459.009C-434.314 460.42 -432.375 461.302 -430.436 461.126C-429.907 461.126 -429.378 460.949 -429.025 460.773C-428.32 460.244 -428.143 459.538 -428.143 458.657C-428.143 456.188 -429.554 454.072 -430.964 451.956C-432.551 449.84 -433.609 447.547 -435.02 445.255C-436.606 442.609 -438.369 440.493 -438.722 437.319C-435.901 434.674 -433.08 443.315 -429.378 442.08C-426.733 441.199 -427.967 437.319 -429.554 435.027C-433.08 429.736 -435.372 423.917 -436.783 417.745C-437.488 414.747 -438.017 411.573 -438.369 408.399C-438.546 407.164 -438.37 400.463 -441.19 402.227C-442.072 402.756 -442.248 403.814 -442.601 404.872C-443.835 409.986 -444.893 415.276 -446.303 420.39C-447.361 424.446 -447.89 430.089 -450.535 433.44C-451.945 435.379 -453.709 436.79 -453.532 439.435C-453.532 439.612 -453.532 439.788 -453.356 439.964C-453.18 440.317 -452.827 440.317 -452.651 440.493C-449.653 441.551 -447.538 439.259 -445.598 437.319C-445.422 437.143 -445.069 436.79 -444.717 436.614C-444.364 436.437 -444.011 436.437 -443.659 436.79C-442.954 437.495 -443.659 439.435 -443.659 440.317C-444.011 442.962 -445.246 445.431 -446.832 447.547C-449.301 451.074 -452.651 453.895 -454.766 457.775C-455.119 458.48 -455.472 459.362 -455.472 460.244C-455.295 462.007 -453.709 462.889 -452.122 462.889C-450.006 463.065 -448.948 461.478 -448.067 459.715C-447.538 458.48 -447.185 457.246 -445.951 456.717C-445.598 456.541 -445.246 456.541 -445.069 456.717C-445.069 456.893 -445.069 456.893 -444.893 457.07C-444.717 459.538 -445.246 462.007 -446.303 464.3C-447.361 466.592 -449.124 468.179 -451.064 469.943C-452.122 470.824 -453.003 471.882 -453.709 473.117C-454.237 473.999 -454.59 475.057 -454.414 475.938C-454.237 476.996 -453.709 477.878 -452.827 478.231C-451.593 478.76 -450.006 478.054 -449.124 476.996C-448.596 476.467 -445.951 472.059 -444.893 473.822C-444.54 474.351 -445.246 476.82 -445.422 477.525C-445.951 479.818 -446.656 482.11 -447.538 484.403C-449.301 488.988 -452.122 493.044 -455.472 496.57C-455.472 496.57 -455.472 496.57 -455.648 496.747L-470.634 489.869C-471.869 488.106 -473.279 486.695 -474.69 485.108C-475.747 484.05 -476.805 482.816 -477.687 481.581C-478.745 480.347 -482.976 472.235 -479.803 471.177C-479.097 471.001 -478.216 471.353 -477.511 471.882C-476.982 472.411 -476.453 473.117 -475.924 473.822C-474.69 475.233 -472.75 476.115 -470.811 475.938C-470.282 475.938 -469.753 475.762 -469.4 475.586C-468.695 475.057 -468.519 474.351 -468.519 473.47C-468.519 471.001 -469.929 468.885 -471.34 466.768C-472.926 464.652 -473.984 462.36 -475.395 460.067C-476.982 457.422 -478.745 455.306 -479.097 452.132C-476.276 449.487 -473.455 458.128 -469.753 456.893C-467.108 456.012 -468.342 452.132 -469.929 449.84C-473.455 444.549 -475.747 438.73 -477.158 432.558C-477.863 429.56 -478.392 426.386 -478.745 423.212C-478.921 421.977 -478.745 415.276 -481.566 417.04C-482.447 417.569 -482.624 418.627 -482.976 419.685C-484.21 424.799 -485.268 430.089 -486.679 435.203C-487.737 439.259 -488.265 444.902 -490.91 448.252C-492.321 450.192 -494.084 451.603 -493.907 454.248C-493.907 454.424 -493.907 454.601 -493.731 454.777C-493.555 455.13 -493.202 455.13 -493.026 455.306C-490.029 456.364 -487.913 454.072 -485.973 452.132C-485.797 451.956 -485.445 451.603 -485.092 451.427C-484.739 451.25 -484.387 451.25 -484.034 451.603C-483.329 452.308 -484.034 454.248 -484.034 455.13C-484.387 457.775 -485.621 460.244 -487.208 462.36C-489.676 465.887 -493.026 468.708 -495.142 472.588C-495.494 473.293 -495.847 474.175 -495.847 475.057C-495.671 476.82 -494.084 477.702 -492.497 477.702C-490.381 477.878 -489.323 476.291 -488.442 474.528C-487.913 473.293 -487.384 472.059 -486.326 471.53C-485.973 471.353 -485.621 471.353 -485.445 471.53C-485.445 471.706 -485.445 471.706 -485.268 471.882C-485.092 474.351 -485.621 476.82 -486.679 479.112C-487.031 479.994 -487.56 480.7 -488.089 481.229L-515.417 474.351L-521 946.217H889.487L895.07 801.292V793.003V609.254H876.204ZM11.3995 715.589C12.2811 714.354 13.5153 715.941 13.8679 716.647C14.5731 717.705 15.1021 718.763 15.8073 719.645L11.5758 717.705C11.3995 717 11.0469 715.941 11.3995 715.589ZM5.9339 712.415C6.11023 712.767 5.93384 714.002 5.58124 715.06L2.93658 713.825C3.99445 712.591 5.22864 711.357 5.9339 712.415ZM-46.2541 686.316C-45.7252 685.081 -45.1963 683.847 -44.1385 683.318C-43.7858 683.142 -43.4332 683.142 -43.2569 683.318C-43.2569 683.494 -43.2569 683.494 -43.0806 683.671C-42.9042 686.139 -43.4331 688.608 -44.491 690.901C-44.6673 691.077 -44.6674 691.253 -44.8437 691.606L-49.4277 689.49C-47.8409 689.314 -46.7831 687.903 -46.2541 686.316ZM-410.16 519.495C-409.983 519.319 -409.631 518.966 -409.278 518.79C-408.926 518.613 -408.573 518.613 -408.22 518.966C-407.515 519.671 -408.22 521.611 -408.22 522.493C-408.22 522.846 -408.397 523.198 -408.573 523.727L-412.628 521.788C-411.747 521.259 -410.865 520.377 -410.16 519.495ZM-452.298 501.861C-452.122 501.684 -451.945 501.684 -451.769 501.684C-451.24 501.684 -451.24 502.39 -451.24 502.919C-451.24 503.272 -451.417 503.624 -451.417 503.977L-453.356 503.095C-453.18 502.566 -452.827 502.213 -452.298 501.861ZM865.097 606.961C865.802 606.785 866.683 607.138 867.389 607.667C867.918 608.196 868.27 608.725 868.799 609.254H864.039C863.863 608.196 864.215 607.314 865.097 606.961ZM858.221 607.314C858.573 607.138 858.926 607.138 859.102 607.314C859.102 607.49 859.102 607.49 859.278 607.667C859.278 608.196 859.278 608.725 859.278 609.077H856.81C856.986 608.372 857.515 607.667 858.221 607.314ZM503.307 748.918L501.896 750.328H501.367C501.015 749.27 500.662 748.036 500.486 746.802C501.367 747.507 502.249 748.212 503.307 748.918ZM485.852 747.86C487.263 745.391 490.083 742.569 492.375 744.156C492.199 746.449 490.612 748.565 488.849 750.152H483.736C484.618 749.447 485.323 748.741 485.852 747.86ZM357.321 747.507C358.027 747.331 358.908 747.683 359.613 748.212C360.142 748.741 360.671 749.447 361.2 750.152C361.377 750.328 361.553 750.505 361.729 750.681L356.793 752.444C355.911 750.152 355.735 748.036 357.321 747.507ZM321.53 760.909C323.117 761.085 323.999 762.32 325.057 763.73L321.883 764.965C321.354 763.554 321.354 762.32 321.53 760.909Z" fill="url(#paint2_linear)"/>
<path d="M-384.899 756.814C-386.662 756.638 -388.425 755.757 -389.306 754.347C-391.775 750.294 -387.367 745.889 -384.017 742.541C-379.962 738.311 -376.965 733.025 -375.378 727.386C-377.317 729.853 -379.433 731.968 -381.901 733.73C-383.665 734.963 -385.604 734.787 -386.309 732.496C-386.662 731.439 -386.485 730.558 -386.485 729.501C-386.309 727.386 -385.957 725.095 -385.075 723.157C-383.488 719.633 -380.491 717.166 -378.199 714.17C-375.907 711.174 -373.791 707.474 -374.496 703.773C-374.673 703.245 -374.849 702.54 -375.378 702.364C-376.26 702.011 -377.317 702.716 -377.67 703.421C-378.728 705.183 -378.728 706.593 -381.02 705.888C-382.607 705.359 -383.841 703.421 -383.665 701.835C-383.665 700.425 -382.959 699.192 -382.254 698.134C-378.728 691.967 -371.675 686.504 -372.733 678.575C-372.733 678.046 -372.91 677.341 -373.438 676.989C-374.496 676.108 -376.083 677.341 -376.788 678.398C-377.494 679.632 -378.728 681.042 -380.138 680.513C-381.372 679.984 -381.372 678.222 -381.02 676.989C-379.433 670.997 -375.731 665.887 -373.262 660.425C-372.557 659.015 -372.028 657.429 -372.204 655.843C-372.204 655.491 -372.381 655.314 -372.557 654.962C-372.91 654.433 -373.967 654.433 -374.496 654.962C-375.731 656.019 -375.907 658.31 -378.022 658.486C-379.962 658.662 -381.372 656.548 -381.372 654.433C-381.196 652.495 -379.962 650.733 -378.904 649.147C-371.146 636.988 -371.323 620.776 -366.562 607.384C-366.386 606.855 -366.21 606.327 -365.681 605.974C-364.799 605.27 -363.389 605.974 -363.036 607.032C-362.507 608.089 -362.684 609.146 -362.86 610.204C-363.918 619.367 -362.155 628.706 -360.568 637.869C-359.863 641.393 -359.334 644.742 -358.099 648.09C-356.513 652.319 -354.221 656.372 -352.458 660.601C-351.576 662.715 -351.4 665.887 -353.515 666.592C-356.16 667.473 -358.276 663.068 -361.097 663.244C-365.857 663.42 -362.155 669.764 -361.273 671.526C-359.157 675.755 -355.807 679.632 -355.631 684.566C-355.631 685.271 -355.631 685.976 -355.984 686.504C-358.452 690.381 -361.978 684.214 -363.036 682.628C-363.565 681.923 -364.623 681.394 -365.328 681.923C-366.033 682.451 -366.033 683.332 -365.857 684.214C-364.799 693.905 -354.75 699.897 -352.105 709.236C-351.752 710.47 -351.576 711.703 -352.105 712.76C-353.339 715.227 -357.218 714.522 -359.334 712.584C-360.744 711.174 -361.626 709.412 -363.036 708.002C-364.447 706.593 -367.091 705.888 -366.386 709.06C-366.21 710.117 -365.328 710.998 -364.623 711.879C-362.507 714.346 -360.215 716.637 -357.923 718.928C-356.689 719.985 -355.455 721.219 -354.397 722.452C-353.163 724.038 -352.634 726.153 -351.929 728.091C-351.4 729.853 -350.871 731.968 -352.281 733.201C-353.163 733.906 -354.397 733.906 -355.455 733.554C-356.513 733.025 -357.218 732.32 -358.099 731.439C-359.334 730.029 -360.391 728.443 -361.273 726.857C-361.802 726.505 -362.684 726.857 -362.86 727.386C-363.213 727.915 -363.036 728.62 -363.036 729.324C-362.155 734.787 -359.51 737.254 -355.807 740.602C-351.752 744.303 -346.816 748.179 -346.287 753.818C-346.11 754.876 -346.287 755.933 -346.639 756.814H-307.322L-278.76 773.202C-277.702 771.968 -276.468 770.559 -275.41 769.501C-271.355 765.272 -268.357 759.986 -266.77 754.347C-268.71 756.814 -270.826 758.928 -273.294 760.691C-275.057 761.924 -276.996 761.748 -277.702 759.457C-278.054 758.4 -277.878 757.519 -277.878 756.461C-277.702 754.347 -277.349 752.056 -276.467 750.118C-274.881 746.593 -271.883 744.126 -269.591 741.131C-267.123 738.311 -265.184 734.435 -265.889 730.734C-266.065 730.205 -266.241 729.501 -266.77 729.324C-267.652 728.972 -268.71 729.677 -269.062 730.382C-270.12 732.144 -270.12 733.554 -272.412 732.849C-273.999 732.32 -275.233 730.382 -275.057 728.796C-275.057 727.386 -274.352 726.153 -273.647 725.095C-270.12 718.928 -263.068 713.465 -264.126 705.535C-264.126 705.007 -264.302 704.302 -264.831 703.95C-265.889 703.069 -267.476 704.302 -268.181 705.359C-268.886 706.593 -270.12 708.003 -271.531 707.474C-272.765 706.945 -272.765 705.183 -272.412 703.95C-270.826 697.958 -267.123 692.848 -264.655 687.385C-263.949 685.976 -263.421 684.39 -263.597 682.804C-263.597 682.451 -263.773 682.275 -263.95 681.923C-264.302 681.394 -265.36 681.394 -265.889 681.923C-267.123 682.98 -267.299 685.271 -269.415 685.447C-271.354 685.623 -272.765 683.509 -272.765 681.394C-272.589 679.456 -271.354 677.694 -270.297 676.108C-262.539 663.949 -262.715 647.737 -257.955 634.345C-257.779 633.816 -257.602 633.288 -257.073 632.935C-256.192 632.23 -254.781 632.935 -254.429 633.992C-253.9 635.05 -254.076 636.107 -254.252 637.164C-255.31 646.328 -253.547 655.667 -251.96 664.83C-251.255 668.354 -250.726 671.702 -249.492 675.05C-247.905 679.28 -245.613 683.332 -243.85 687.562C-242.968 689.676 -242.792 692.848 -244.908 693.553C-247.552 694.434 -249.668 690.029 -252.489 690.205C-257.25 690.381 -253.547 696.725 -252.666 698.487C-250.55 702.716 -247.2 706.593 -247.024 711.527C-247.024 712.232 -247.024 712.937 -247.376 713.465C-249.845 717.342 -253.371 711.174 -254.429 709.588C-254.958 708.884 -256.015 708.355 -256.721 708.884C-257.426 709.412 -257.426 710.293 -257.25 711.174C-256.192 720.866 -246.142 726.857 -243.497 736.197C-243.145 737.43 -242.969 738.664 -243.497 739.721C-244.732 742.188 -248.61 741.483 -250.726 739.545C-252.137 738.135 -253.018 736.373 -254.429 734.963C-255.839 733.554 -258.484 732.849 -257.779 736.021C-257.602 737.078 -256.721 737.959 -256.016 738.84C-253.9 741.307 -251.608 743.598 -249.316 745.889C-248.081 746.946 -246.847 748.179 -245.789 749.413C-244.555 750.999 -244.026 753.113 -243.321 755.052C-242.792 756.814 -242.263 758.928 -243.674 760.162C-244.555 760.867 -245.789 760.867 -246.847 760.514C-247.905 759.986 -248.61 759.281 -249.492 758.4C-250.726 756.99 -251.784 755.404 -252.666 753.818C-253.195 753.466 -254.076 753.818 -254.252 754.347C-254.605 754.876 -254.429 755.58 -254.429 756.285C-253.547 761.748 -250.902 764.215 -247.2 767.563C-243.145 771.263 -238.208 775.14 -237.679 780.779C-237.503 782.013 -237.679 783.422 -238.561 784.303C-241.029 787.123 -245.437 783.775 -247.376 780.603C-249.316 777.431 -253.018 773.554 -256.016 775.845C-255.839 780.25 -251.608 783.951 -248.082 786.065C-244.379 788.356 -241.911 790.647 -240.853 794.7L-220.93 806.154H-121.667C-121.138 805.625 -120.785 805.097 -120.256 804.568C-119.198 803.334 -114.967 795.229 -118.14 794.171C-118.846 793.995 -119.727 794.348 -120.432 794.876C-120.961 795.405 -121.49 796.11 -122.019 796.815C-123.253 798.224 -125.193 799.105 -127.132 798.929C-127.661 798.929 -128.19 798.753 -128.543 798.577C-129.248 798.048 -129.424 797.343 -129.424 796.462C-129.424 793.995 -128.014 791.881 -126.603 789.766C-125.016 787.651 -123.959 785.361 -122.548 783.07C-120.961 780.427 -119.198 778.312 -118.846 775.14C-121.667 772.497 -124.488 781.131 -128.19 779.898C-130.835 779.017 -129.601 775.14 -128.014 772.849C-124.488 767.563 -122.196 761.748 -120.785 755.58C-120.08 752.585 -119.551 749.413 -119.198 746.241C-119.022 745.008 -119.198 738.311 -116.377 740.074C-115.496 740.602 -115.319 741.659 -114.967 742.717C-113.733 747.827 -112.675 753.113 -111.264 758.224C-110.206 762.277 -109.677 767.915 -107.033 771.263C-105.622 773.202 -103.859 774.612 -104.036 777.255C-104.036 777.431 -104.035 777.607 -104.212 777.783C-104.388 778.136 -104.741 778.136 -104.917 778.312C-107.914 779.369 -110.03 777.079 -111.969 775.14C-112.146 774.964 -112.498 774.611 -112.851 774.435C-113.204 774.259 -113.556 774.259 -113.909 774.612C-114.614 775.316 -113.909 777.255 -113.909 778.136C-113.556 780.779 -112.322 783.246 -110.735 785.361C-108.267 788.885 -104.917 791.704 -102.801 795.581C-102.449 796.286 -102.096 797.167 -102.096 798.048C-102.272 799.81 -103.859 800.691 -105.446 800.691C-107.562 800.867 -108.62 799.282 -109.501 797.519C-110.03 796.286 -110.559 795.052 -111.617 794.524C-111.969 794.348 -112.322 794.348 -112.498 794.524C-112.498 794.7 -112.498 794.7 -112.675 794.876C-112.851 797.343 -112.322 799.81 -111.264 802.101C-110.559 803.687 -109.501 804.744 -108.443 805.978H-75.1205C-74.4153 804.216 -73.8864 802.277 -73.5338 800.339C-75.6495 802.101 -77.7651 803.863 -80.2335 804.568C-82.8782 805.273 -86.0518 804.568 -87.4623 802.277C-89.9307 798.224 -85.5228 793.819 -82.1729 790.471C-78.1177 786.242 -75.1205 780.955 -73.5338 775.316C-75.4732 777.783 -77.5888 779.898 -80.0571 781.66C-81.8203 782.894 -83.7597 782.717 -84.465 780.427C-84.8176 779.369 -84.6414 778.488 -84.6414 777.431C-84.465 775.316 -84.1124 773.026 -83.2308 771.087C-81.644 767.563 -78.6468 765.096 -76.3547 762.1C-74.0627 759.105 -71.947 755.404 -72.6522 751.704C-72.8285 751.175 -73.0048 750.47 -73.5338 750.294C-74.4153 749.941 -75.4732 750.646 -75.8258 751.351C-76.8837 753.113 -76.8835 754.523 -79.1755 753.818C-80.7624 753.29 -81.9966 751.351 -81.8203 749.765C-81.8203 748.356 -81.115 747.122 -80.4098 746.065C-76.8835 739.897 -69.8312 734.435 -70.8891 726.505C-70.8891 725.976 -71.0653 725.272 -71.5942 724.919C-72.6521 724.038 -74.239 725.271 -74.9442 726.329C-75.6495 727.562 -76.8836 728.972 -78.2941 728.443C-79.5283 727.915 -79.5282 726.153 -79.1755 724.919C-77.5887 718.928 -73.8864 713.818 -71.418 708.355C-70.7128 706.945 -70.1837 705.359 -70.36 703.773C-70.36 703.421 -70.5364 703.245 -70.7127 702.892C-71.0653 702.364 -72.1233 702.364 -72.6522 702.892C-73.8864 703.95 -74.0627 706.24 -76.1785 706.417C-78.1179 706.593 -79.5282 704.478 -79.5282 702.364C-79.3519 700.425 -78.1179 698.663 -77.06 697.077C-69.3024 684.918 -69.4786 668.707 -64.7183 655.314C-64.5419 654.786 -64.3656 654.257 -63.8367 653.905C-62.9551 653.2 -61.5446 653.905 -61.192 654.962C-60.6631 656.019 -60.8393 657.077 -61.0156 658.134C-62.0735 667.297 -60.3104 676.636 -58.7236 685.799C-58.0183 689.324 -57.4894 692.672 -56.2552 696.02C-54.6684 700.249 -52.3765 704.302 -50.6133 708.531C-49.7318 710.646 -49.5554 713.818 -51.6711 714.522C-54.3159 715.404 -56.4315 710.998 -59.2525 711.174C-64.0129 711.351 -60.3104 717.694 -59.4288 719.456C-57.3131 723.686 -53.9632 727.562 -53.7869 732.496C-53.7869 733.201 -53.7869 733.906 -54.1395 734.435C-56.6079 738.311 -60.1341 732.144 -61.192 730.558C-61.7209 729.853 -62.7788 729.324 -63.484 729.853C-64.1893 730.382 -64.1893 731.263 -64.0129 732.144C-62.9551 741.836 -52.9053 747.827 -50.2607 757.166C-49.9081 758.4 -49.7318 759.633 -50.2607 760.691C-51.4949 763.158 -55.3736 762.453 -57.4894 760.514C-58.8998 759.105 -59.7815 757.342 -61.192 755.933C-62.6025 754.523 -65.2471 753.818 -64.5419 756.99C-64.3655 758.047 -63.484 758.928 -62.7787 759.809C-60.663 762.276 -58.371 764.567 -56.0789 766.858C-54.8447 767.915 -53.6106 769.149 -52.5527 770.382C-51.3185 771.968 -50.7896 774.083 -50.0843 776.021C-49.5554 777.783 -49.0265 779.898 -50.437 781.132C-51.3185 781.836 -52.5527 781.836 -53.6106 781.484C-54.6685 780.955 -55.3737 780.25 -56.2552 779.369C-57.4894 777.96 -58.5473 776.374 -59.4288 774.788C-59.9578 774.435 -60.8393 774.788 -61.0156 775.316C-61.3682 775.845 -61.192 776.55 -61.192 777.255C-60.3104 782.717 -57.6657 785.184 -53.9631 788.532C-49.908 792.233 -44.9714 796.11 -44.4424 801.748C-44.2661 802.982 -44.4424 804.392 -45.324 805.273C-45.5003 805.449 -45.5002 805.449 -45.6766 805.625H-31.3954C-29.8087 803.687 -28.2219 801.925 -26.8113 800.163C-25.4009 798.224 -23.9904 796.286 -23.4614 793.995C-23.2851 793.466 -22.5799 791.352 -22.9325 790.823C-23.8141 789.59 -25.0482 791.176 -25.4008 791.881C-26.1061 792.938 -26.8113 794.171 -27.5165 795.229C-28.0455 796.11 -28.7507 796.814 -29.6323 797.343C-30.5139 797.872 -31.5717 798.048 -32.4532 797.696C-33.6874 797.167 -34.2164 795.757 -34.3927 794.348C-34.569 792.233 -33.6874 790.295 -32.4532 788.532C-31.2191 786.77 -29.8086 785.361 -28.3981 783.775C-27.3402 782.717 -26.2823 781.484 -25.4008 780.25C-24.343 779.017 -20.1116 770.911 -23.2852 769.854C-23.9904 769.678 -24.8719 770.03 -25.5772 770.559C-26.2825 771.087 -26.6349 771.792 -27.1639 772.497C-28.3981 773.907 -30.3375 774.788 -32.277 774.612C-32.8059 774.612 -33.3348 774.435 -33.6874 774.259C-34.3926 773.73 -34.569 773.026 -34.569 772.145C-34.569 769.677 -33.1585 767.563 -31.748 765.448C-30.1613 763.334 -29.1034 761.043 -27.6929 758.752C-26.1061 756.109 -24.343 753.994 -23.9904 750.823C-26.8113 748.179 -29.6323 756.814 -33.3348 755.58C-35.9794 754.699 -34.7453 750.823 -33.1585 748.532C-29.6323 743.245 -27.3403 737.43 -25.9298 731.263C-25.2245 728.267 -24.6956 725.095 -24.343 721.923C-24.1667 720.69 -24.343 713.994 -21.522 715.756C-20.6405 716.285 -20.4641 717.342 -20.1115 718.399C-18.8773 723.509 -17.8195 728.796 -16.409 733.906C-15.3511 737.959 -14.8221 743.598 -12.1775 746.946C-10.767 748.884 -9.00403 750.294 -9.1803 752.937C-9.1803 753.113 -9.1803 753.29 -9.35657 753.466C-9.5329 753.818 -9.8855 753.818 -10.0618 753.994C-13.0591 755.052 -15.1749 752.761 -17.1143 750.823C-17.2906 750.646 -17.6432 750.294 -17.9958 750.118C-18.3484 749.941 -18.701 749.941 -19.0536 750.294C-19.7589 750.999 -19.0536 752.937 -19.0536 753.818C-18.701 756.461 -17.4669 758.928 -15.8801 761.043C-13.4117 764.567 -10.0618 767.387 -7.94611 771.263C-7.59351 771.968 -7.24078 772.849 -7.24078 773.73C-7.41711 775.493 -9.00397 776.374 -10.5908 776.374C-12.7065 776.55 -13.7643 774.964 -14.6459 773.202C-15.1749 771.968 -15.7037 770.735 -16.7616 770.206C-17.1143 770.03 -17.4669 770.03 -17.6432 770.206C-17.6432 770.382 -17.6431 770.382 -17.8195 770.559C-17.9958 773.026 -17.4669 775.493 -16.409 777.783C-15.3511 780.074 -13.588 781.66 -11.6486 783.422C-10.5907 784.303 -9.70917 785.361 -9.00391 786.594C-8.47498 787.475 -8.12244 788.532 -8.29877 789.413C-8.47504 790.471 -9.00391 791.352 -9.88544 791.704C-11.1196 792.233 -12.7065 791.528 -13.5881 790.471C-14.117 789.942 -16.7616 785.537 -17.8195 787.299C-18.1721 787.828 -17.4669 790.295 -17.2905 790.999C-16.7616 793.29 -16.0563 795.581 -15.1747 797.872C-14.9985 798.048 -14.9985 798.4 -14.8221 798.577L4.39569 780.427H135.747C135.042 779.193 134.866 777.607 135.218 776.374C136.276 771.263 140.508 767.739 143.681 763.862C145.092 761.924 146.502 759.986 147.031 757.695C147.208 757.166 147.913 755.052 147.56 754.523C146.679 753.29 145.444 754.876 145.092 755.58C144.387 756.638 143.681 757.871 142.976 758.928C142.447 759.809 141.742 760.514 140.86 761.043C139.979 761.572 138.921 761.748 138.039 761.395C136.805 760.867 136.276 759.457 136.1 758.047C135.924 755.933 136.805 753.994 138.039 752.232C139.274 750.47 140.684 749.06 142.094 747.474C143.152 746.417 144.21 745.184 145.092 743.95C146.15 742.717 150.381 734.611 147.207 733.554C146.502 733.377 145.621 733.73 144.915 734.258C144.386 734.787 143.858 735.492 143.329 736.197C142.094 737.606 140.155 738.488 138.216 738.311C137.687 738.311 137.158 738.135 136.805 737.959C136.1 737.43 135.924 736.725 135.924 735.844C135.924 733.377 137.334 731.263 138.745 729.148C140.331 727.034 141.389 724.743 142.8 722.452C144.387 719.809 146.15 717.694 146.502 714.522C143.681 711.879 140.86 720.514 137.158 719.28C134.513 718.399 135.747 714.522 137.334 712.232C140.86 706.945 143.152 701.13 144.563 694.963C145.268 691.967 145.797 688.795 146.15 685.623C146.326 684.39 146.15 677.694 148.971 679.456C149.852 679.984 150.028 681.042 150.381 682.099C151.615 687.209 152.673 692.496 154.084 697.606C155.142 701.659 155.67 707.298 158.315 710.646C159.726 712.584 161.489 713.994 161.312 716.637C161.312 716.813 161.312 716.989 161.136 717.166C160.96 717.518 160.607 717.518 160.431 717.694C157.434 718.752 155.318 716.461 153.378 714.522C153.202 714.346 152.849 713.994 152.497 713.818C152.144 713.641 151.792 713.641 151.439 713.994C150.734 714.699 151.439 716.637 151.439 717.518C151.792 720.161 153.026 722.628 154.613 724.743C157.081 728.267 160.431 731.087 162.547 734.963C162.899 735.668 163.252 736.549 163.252 737.43C163.075 739.192 161.489 740.074 159.902 740.074C157.786 740.25 156.728 738.664 155.847 736.902C155.318 735.668 154.789 734.435 153.731 733.906C153.378 733.73 153.026 733.73 152.849 733.906C152.849 734.082 152.849 734.082 152.673 734.258C152.497 736.725 153.026 739.192 154.084 741.483C155.142 743.774 156.905 745.36 158.844 747.122C159.902 748.003 160.783 749.06 161.489 750.294C162.018 751.175 162.37 752.232 162.194 753.113C162.018 754.171 161.489 755.052 160.607 755.404C159.373 755.933 157.786 755.228 156.905 754.171C156.376 753.642 153.731 749.237 152.673 750.999C152.32 751.527 153.026 753.994 153.202 754.699C153.731 756.99 154.436 759.281 155.318 761.572C157.081 766.153 159.902 770.206 163.252 773.73C164.662 775.14 166.425 776.902 166.249 779.017C166.249 779.546 166.073 779.898 165.896 780.25H205.743L249.82 756.461H434.594L438.473 757.166C440.06 753.113 443.586 750.118 446.231 746.77C447.641 744.831 449.052 742.893 449.581 740.602C449.757 740.074 450.462 737.959 450.11 737.43C449.228 736.197 447.994 737.783 447.641 738.488C446.936 739.545 446.231 740.778 445.525 741.836C444.997 742.717 444.291 743.422 443.41 743.95C442.528 744.479 441.47 744.655 440.589 744.303C439.355 743.774 438.826 742.364 438.649 740.955C438.473 738.84 439.355 736.902 440.589 735.139C441.823 733.377 443.233 731.968 444.644 730.382C445.702 729.324 446.76 728.091 447.641 726.857C448.699 725.624 452.931 717.518 449.757 716.461C449.052 716.285 448.17 716.637 447.465 717.166C446.936 717.694 446.407 718.399 445.878 719.104C444.644 720.514 442.704 721.395 440.765 721.219C440.236 721.219 439.707 721.042 439.355 720.866C438.649 720.338 438.473 719.633 438.473 718.752C438.473 716.285 439.884 714.17 441.294 712.055C442.881 709.941 443.939 707.65 445.349 705.359C446.936 702.716 448.699 700.601 449.052 697.43C446.231 694.786 443.41 703.421 439.707 702.187C437.063 701.306 438.297 697.43 439.884 695.139C443.41 689.852 445.702 684.037 447.112 677.87C447.818 674.874 448.346 671.702 448.699 668.53C448.875 667.297 448.699 660.601 451.52 662.363C452.402 662.892 452.578 663.949 452.931 665.006C454.165 670.116 455.223 675.403 456.633 680.513C457.691 684.566 458.22 690.205 460.865 693.553C462.275 695.491 464.038 696.901 463.862 699.544C463.862 699.72 463.862 699.897 463.686 700.073C463.509 700.425 463.157 700.425 462.98 700.602C459.983 701.659 457.867 699.368 455.928 697.43C455.751 697.253 455.399 696.901 455.046 696.725C454.694 696.549 454.341 696.549 453.988 696.901C453.283 697.606 453.988 699.544 453.988 700.425C454.341 703.069 455.575 705.536 457.162 707.65C459.63 711.174 462.98 713.994 465.096 717.87C465.449 718.575 465.801 719.456 465.801 720.337C465.625 722.1 464.038 722.981 462.451 722.981C460.336 723.157 459.278 721.571 458.396 719.809C457.867 718.575 457.338 717.342 456.28 716.813C455.928 716.637 455.575 716.637 455.399 716.813C455.399 716.989 455.399 716.989 455.223 717.166C455.046 719.633 455.575 722.1 456.633 724.39C457.691 726.681 459.454 728.267 461.393 730.029C462.451 730.91 463.333 731.968 464.038 733.201C464.567 734.082 464.92 735.139 464.743 736.021C464.567 737.078 464.038 737.959 463.157 738.311C461.922 738.84 460.336 738.135 459.454 737.078C458.925 736.549 456.28 732.144 455.223 733.906C454.87 734.435 455.575 736.902 455.752 737.607C456.28 739.897 456.986 742.188 457.867 744.479C459.63 749.06 462.451 753.113 465.801 756.638C467.212 758.047 468.975 759.81 468.799 761.924C468.799 762.277 468.622 762.629 468.622 762.805L559.422 780.074H896V952.73H-514.487V756.285H-384.899V756.814ZM456.633 760.514C456.633 760.691 456.633 760.691 456.633 760.867L459.101 761.395C458.749 760.691 458.22 759.986 457.515 759.633C457.338 759.457 457.162 759.457 456.986 759.457C456.633 759.457 456.457 760.162 456.633 760.514ZM154.084 777.431C154.26 778.488 154.436 779.546 154.789 780.427H158.139C157.257 779.017 156.728 777.431 155.141 776.374C154.965 776.197 154.789 776.197 154.613 776.197C154.084 776.374 153.907 776.902 154.084 777.431ZM145.268 780.427C145.797 779.017 145.973 777.607 145.621 776.197C143.505 776.374 142.447 778.841 141.037 780.427H145.268ZM-56.4316 806.154H-49.5554C-51.1422 805.273 -52.729 803.687 -53.7869 802.101C-55.7263 798.929 -59.4288 795.052 -62.4261 797.343C-62.2498 801.044 -59.4289 804.039 -56.4316 806.154ZM-266.77 779.898C-266.77 779.722 -266.594 779.369 -266.594 779.193C-266.77 779.369 -266.947 779.545 -267.123 779.722L-266.77 779.898ZM-359.863 756.814H-353.163C-354.221 755.933 -355.102 754.876 -355.807 753.818C-357.747 750.646 -361.449 746.77 -364.447 749.06C-364.447 752.056 -362.331 754.699 -359.863 756.814ZM-376.436 756.814C-375.907 755.404 -375.554 753.818 -375.378 752.232C-377.494 753.994 -379.609 755.757 -382.078 756.461C-382.43 756.638 -382.959 756.638 -383.312 756.638H-376.436V756.814Z" fill="url(#paint3_linear)"/>
<path d="M520.062 475.132L394.963 427.561L-170.239 944.917H890.418V362.104V134.908L520.062 475.132Z" fill="url(#paint4_linear)"/>
<path d="M-488.196 318.891C-463.309 314.859 -415.637 326.956 -400.038 303.112C-397.584 299.255 -396.182 295.047 -394.955 290.664C-392.852 283.476 -390.749 276.288 -388.646 268.924C-382.862 248.937 -374.8 226.671 -354.469 217.905C-307.323 197.919 -277.003 244.204 -261.93 276.288C-260.002 280.496 -257.548 285.054 -252.992 286.982C-242.651 291.015 -234.939 278.742 -226.527 272.08C-214.083 262.437 -192 266.645 -184.463 280.32C-181.309 285.931 -179.381 293.469 -172.896 295.047C-164.834 296.976 -159.4 288.21 -152.215 284.177C-137.492 276.112 -120.492 290.314 -106.646 299.956C-72.9953 322.924 -27.6018 320.82 13.7605 317.664C19.0184 320.82 12.0079 327.482 5.8736 329.06C-69.1394 347.469 -147.833 349.573 -225.65 351.677C-309.251 353.956 -393.203 356.06 -476.278 346.768C-483.464 345.891 -490.825 344.839 -496.433 340.807C-502.042 336.599 -504.671 328.359 -499.939 323.274C-496.784 320.469 -492.402 319.593 -488.196 318.891Z" fill="url(#paint5_linear)"/>
<path d="M142.469 463.672C130.839 469.8 119.395 461.238 119.395 461.238C119.395 461.238 122.744 454.774 122.186 449.234C121.721 443.693 119.395 437.649 123.209 432.277C127.024 426.988 142.562 425.309 144.609 434.543C146.656 443.777 145.911 453.599 145.446 454.27C145.26 454.606 142.562 454.858 139.771 454.522C139.584 454.438 139.491 457.125 142.469 463.672Z" fill="#FFDAA1"/>
<path d="M121.628 449.15C121.628 449.15 122.558 451.248 123.768 450.997C124.977 450.745 128.606 448.646 128.606 448.646L134.932 442.77C134.932 442.77 134.467 437.733 136.7 436.558C138.933 435.299 142.934 436.054 144.608 434.459C146.283 432.948 153.633 423.966 149.167 419.013C144.702 414.06 141.352 420.356 141.352 420.356C138.468 419.937 135.491 417.502 132.141 418.342C128.792 419.181 124.233 423.966 126.373 429.003C121.442 431.353 119.302 434.291 121.628 449.15Z" fill="url(#paint6_linear)"/>
<path d="M110.927 655.237C110.927 655.237 109.066 665.899 110.741 667.242C111.672 667.997 115.765 668.837 118.743 669.844C121.72 670.851 130.28 676.056 133.536 673.873C143.584 666.066 126.186 658.008 123.209 653.307C114.928 650.788 110.927 655.237 110.927 655.237Z" fill="url(#paint7_linear)"/>
<path d="M139.956 454.438C137.072 454.019 132.978 452.34 131.955 450.241C129.815 450.241 127.489 448.562 127.861 445.708C128.419 441.679 133.35 440.419 134.56 443.861L139.956 454.438Z" fill="url(#paint8_linear)"/>
<path d="M100.136 556.433C97.5305 565.415 105.532 597.399 109.44 613.852C110.649 627.955 107.486 654.314 109.998 655.825C115.58 654.902 118.371 651.879 125.722 654.23C127.396 645.751 135.491 622.75 143.306 560.043C105.532 555.761 102.834 547.535 100.136 556.433Z" fill="#009191"/>
<path d="M178.661 635.426C178.661 635.426 175.87 632.656 175.777 629.55C175.684 626.36 164.891 634.083 164.891 634.083L166.566 638.112C166.752 638.028 177.265 638.616 178.661 635.426Z" fill="#DDA12A"/>
<path d="M163.309 635.006C163.309 635.006 160.146 649.025 165.17 650.117C170.287 651.208 176.707 647.43 178.103 646.423C179.591 645.416 189.547 638.616 186.104 634.922C182.662 631.229 174.753 634.083 174.753 634.083L163.309 635.006Z" fill="url(#paint9_linear)"/>
<path d="M113.998 557.44C114.649 562.561 143.399 583.128 165.17 596.643C165.542 609.571 162.565 629.55 162.565 635.846C170.846 632.656 171.125 631.564 177.637 632.824C179.87 626.024 194.292 594.964 193.082 588.836C191.78 582.792 162.565 555.761 162.565 555.761L113.998 557.44Z" fill="url(#paint10_linear)"/>
<path d="M118.743 460.147C108.137 472.235 94.925 487.429 94.925 559.455C154.378 562.981 166.845 554.754 166.845 554.754C165.356 553.663 172.707 495.908 142.934 462.665C132.048 468.122 120.046 463.924 118.743 460.147Z" fill="url(#paint11_linear)"/>
<path d="M210.853 580.777V355.214H204.806V583.128L210.853 580.777Z" fill="#CED7EA"/>
<path d="M203.968 362.686C203.968 362.686 208.713 364.616 211.318 362.686C213.83 360.755 255.047 398.363 274.679 389.464C267.98 437.481 210.946 422.035 210.946 422.035C210.946 422.035 212.063 420.021 207.69 420.608C203.317 421.196 203.968 421.196 203.968 421.196V418.761C203.968 418.761 210.946 417.586 211.132 418.929V364.784C211.132 364.784 205.643 365.959 203.968 364.616C203.968 363.441 203.968 362.686 203.968 362.686Z" fill="url(#paint12_linear)"/>
<path d="M233.834 409.779L245.65 398.363L241.277 394.837L229.461 406.254L233.834 409.779Z" fill="#004BFF"/>
<path d="M237.835 405.918L228.81 398.615L224.809 402.476L233.834 409.779L237.835 405.918Z" fill="#58EDFF"/>
<path d="M237.834 405.918L233.461 402.392L229.461 406.254L233.834 409.779L237.834 405.918Z" fill="#00BBFF"/>
<path d="M238.207 405.498L233.834 401.972L233.462 402.392L237.835 405.918L238.207 405.498Z" fill="#0042E4"/>
<path d="M195.594 445.876C195.594 445.876 202.665 437.817 204.991 435.97L205.177 439.832L210.48 436.642V433.704C210.48 433.704 212.434 433.452 212.62 434.375C212.806 435.299 214.109 440.923 213.644 443.777C209.643 446.967 204.246 449.57 198.199 451.836L195.594 445.876Z" fill="#FFDAA1"/>
<path d="M111.114 483.82C111.114 472.151 160.425 466.191 160.425 466.191L195.501 444.449C195.501 444.449 197.083 449.989 202.479 451.668C194.012 461.322 181.638 468.206 171.032 477.104C160.332 486.002 127.768 494.649 127.768 494.649C127.768 494.649 111.114 495.488 111.114 483.82Z" fill="url(#paint13_linear)"/>
<defs>
<linearGradient id="paint0_linear" x1="584.056" y1="403.201" x2="584.056" y2="224.337" gradientUnits="userSpaceOnUse">
<stop stop-color="white" stop-opacity="0"/>
<stop offset="1" stop-color="white"/>
</linearGradient>
<linearGradient id="paint1_linear" x1="188.491" y1="435.66" x2="188.491" y2="108.026" gradientUnits="userSpaceOnUse">
<stop stop-color="white" stop-opacity="0"/>
<stop offset="1" stop-color="white"/>
</linearGradient>
<linearGradient id="paint2_linear" x1="189.358" y1="797.751" x2="189.826" y2="1192.77" gradientUnits="userSpaceOnUse">
<stop stop-color="#E1E6F3"/>
<stop offset="1" stop-color="white" stop-opacity="0"/>
</linearGradient>
<linearGradient id="paint3_linear" x1="191.224" y1="746.23" x2="191.225" y2="952.73" gradientUnits="userSpaceOnUse">
<stop stop-color="#D2D9E8"/>
<stop offset="1" stop-color="white"/>
</linearGradient>
<linearGradient id="paint4_linear" x1="360.089" y1="539.632" x2="360.089" y2="944.917" gradientUnits="userSpaceOnUse">
<stop stop-color="#CDD6E9"/>
<stop offset="1" stop-color="white"/>
</linearGradient>
<linearGradient id="paint5_linear" x1="-242.783" y1="366.837" x2="-241.835" y2="226.226" gradientUnits="userSpaceOnUse">
<stop stop-color="white" stop-opacity="0"/>
<stop offset="1" stop-color="white"/>
</linearGradient>
<linearGradient id="paint6_linear" x1="121.359" y1="432.654" x2="148.757" y2="436.244" gradientUnits="userSpaceOnUse">
<stop stop-color="#2961BB"/>
<stop offset="1" stop-color="#0A3E8C"/>
</linearGradient>
<linearGradient id="paint7_linear" x1="109.974" y1="663.287" x2="136.676" y2="663.755" gradientUnits="userSpaceOnUse">
<stop stop-color="#E9CE31"/>
<stop offset="1" stop-color="#EFB52E"/>
</linearGradient>
<linearGradient id="paint8_linear" x1="135.223" y1="448.084" x2="132.109" y2="451.555" gradientUnits="userSpaceOnUse">
<stop stop-color="#FFDAA1"/>
<stop offset="1" stop-color="#EFBB6F"/>
</linearGradient>
<linearGradient id="paint9_linear" x1="161.448" y1="644.679" x2="185.561" y2="633.284" gradientUnits="userSpaceOnUse">
<stop stop-color="#E9CE31"/>
<stop offset="1" stop-color="#EFB52E"/>
</linearGradient>
<linearGradient id="paint10_linear" x1="113.967" y1="595.793" x2="193.12" y2="595.793" gradientUnits="userSpaceOnUse">
<stop offset="0.00628811" stop-color="#07AB9E"/>
<stop offset="1" stop-color="#079F9E"/>
</linearGradient>
<linearGradient id="paint11_linear" x1="99.6956" y1="509.059" x2="171.645" y2="518.486" gradientUnits="userSpaceOnUse">
<stop stop-color="#3F67FD"/>
<stop offset="1" stop-color="#4197FF"/>
</linearGradient>
<linearGradient id="paint12_linear" x1="239.308" y1="362.589" x2="239.308" y2="422.162" gradientUnits="userSpaceOnUse">
<stop stop-color="white"/>
<stop offset="1" stop-color="white"/>
</linearGradient>
<linearGradient id="paint13_linear" x1="111.108" y1="469.66" x2="202.557" y2="469.66" gradientUnits="userSpaceOnUse">
<stop stop-color="#3F67FD"/>
<stop offset="1" stop-color="#4197FF"/>
</linearGradient>
</defs>
</svg>
