<svg width="9" height="6" viewBox="0 0 9 6" fill="none" xmlns="http://www.w3.org/2000/svg">
<path fill-rule="evenodd" clip-rule="evenodd" d="M4.499 6L9 3.32715V0.765497L4.499 3.45545L0 0.654306V3.32715L4.499 6Z" fill="#9C1CB2"/>
</svg>
