<svg width="1510" height="550" viewBox="0 0 1510 550" fill="none" xmlns="http://www.w3.org/2000/svg">
<mask id="mask0" mask-type="alpha" maskUnits="userSpaceOnUse" x="0" y="0" width="1510" height="550">
<rect width="1510" height="550" fill="url(#paint0_linear)"/>
</mask>
<g mask="url(#mask0)">
<circle opacity="0.5" cx="755" cy="515" r="515" fill="white" fill-opacity="0.1"/>
<circle opacity="0.3" cx="755" cy="515" r="400" fill="url(#paint1_linear)" fill-opacity="0.1"/>
</g>
<defs>
<linearGradient id="paint0_linear" x1="0" y1="285.224" x2="1510" y2="285.224" gradientUnits="userSpaceOnUse">
<stop stop-color="#308EFF"/>
<stop offset="1" stop-color="#4C9DFF"/>
</linearGradient>
<linearGradient id="paint1_linear" x1="355" y1="529.872" x2="1155" y2="529.872" gradientUnits="userSpaceOnUse">
<stop stop-color="white"/>
<stop offset="1" stop-color="#E0EEFF"/>
</linearGradient>
</defs>
</svg>
