<svg width="82" height="74" viewBox="0 0 82 74" fill="none" xmlns="http://www.w3.org/2000/svg">
<path d="M69.8172 0.875H12.1828C9.46096 0.875 6.63406 1.62037 4.48532 3.42028C2.3328 5.22337 0.875 8.07299 0.875 12.25V51.1231C0.875 55.3001 2.3328 58.1497 4.48532 59.9528C6.63406 61.7527 9.46096 62.4981 12.1828 62.4981H33.3911V69.4135H29.972C28.9522 69.4135 28.1266 70.2451 28.1266 71.2692C28.1266 72.2934 28.9522 73.125 29.972 73.125H52.6817C53.7016 73.125 54.5272 72.2934 54.5272 71.2692C54.5272 70.2451 53.7016 69.4135 52.6817 69.4135H48.6089V62.4981H69.8172C73.97 62.4981 76.8029 61.0312 78.5952 58.8658C80.3842 56.7043 81.125 53.8608 81.125 51.1231V12.25C81.125 8.07299 79.6672 5.22337 77.5147 3.42028C75.3659 1.62037 72.539 0.875 69.8172 0.875ZM44.918 69.4135H37.082V62.4981H44.918V69.4135ZM77.4341 51.1231C77.4341 52.2819 77.2457 54.2005 76.2023 55.826C75.165 57.442 73.2711 58.7865 69.8172 58.7865H12.1828C11.0312 58.7865 9.12438 58.597 7.50896 57.5476C5.90283 56.5042 4.56586 54.5986 4.56586 51.1231V48.7731H77.4341V51.1231ZM77.4341 45.0788H4.56586V12.3192C4.56586 8.84369 5.90283 6.93812 7.50896 5.89473C9.12438 4.84529 11.0312 4.65577 12.1828 4.65577H69.8172C70.9688 4.65577 72.8756 4.84529 74.491 5.89473C76.0972 6.93812 77.4341 8.84369 77.4341 12.3192V45.0788Z" fill="white" stroke="white" stroke-width="0.25"/>
<path d="M66.7558 9.3903C67.3101 8.85704 68.182 8.79018 68.8149 9.26865C69.5195 9.80126 69.6618 10.8082 69.1321 11.5174L69.1318 11.5178L54.9385 30.6771L66.7558 9.3903ZM66.7558 9.3903H66.8141L66.6662 9.58976L53.8318 26.8975L53.7329 27.0308L53.6321 26.8989L47.6106 19.0239L47.6106 19.0239C47.3197 18.6432 46.875 18.4137 46.3986 18.3979C45.9242 18.3844 45.468 18.5844 45.1546 18.9436L45.1545 18.9437L35.3479 30.1591L35.2333 30.2902L35.1457 30.1397L27.9547 17.7826C27.9546 17.7826 27.9546 17.7825 27.9546 17.7824C27.67 17.2998 27.1561 17.002 26.599 16.9961C26.0394 16.993 25.5186 17.2851 25.2274 17.7665L25.2269 17.7673L13.3559 37.0654L13.3512 37.0731L13.3454 37.08C12.7784 37.7594 12.8666 38.7726 13.5417 39.3429C14.2164 39.9127 15.2223 39.8244 15.789 39.1454L15.789 39.1453C15.9032 39.0085 15.9938 38.8534 16.0573 38.6863L16.0614 38.6755L16.0675 38.6656L26.39 21.7387L26.4997 21.5588L26.605 21.7413L33.4865 33.6659C33.9317 34.4314 34.9086 34.6882 35.6688 34.2409L66.7558 9.3903ZM36.0548 33.9228L36.0549 33.9227L46.0678 22.6553L46.1685 22.5421L46.2606 22.6624L52.3999 30.6898C52.7282 31.0621 53.1894 31.2881 53.6827 31.3191C54.1772 31.3127 54.6411 31.0759 54.9383 30.6774L36.0548 33.9228ZM36.0548 33.9228C35.9435 34.0484 35.8132 34.1558 35.6689 34.2409L36.0548 33.9228Z" fill="white" stroke="white" stroke-width="0.25"/>
</svg>
