<svg width="78" height="78" viewBox="0 0 78 78" fill="none" xmlns="http://www.w3.org/2000/svg">
<path d="M69.7128 8.27548C58.6805 -2.75849 40.7302 -2.75849 29.698 8.27548C24.3537 13.6204 21.4107 20.7273 21.4107 28.2863C21.4107 35.1723 23.8541 41.6822 28.3291 46.8278L24.9594 50.1981L21.5253 46.7634C21.149 46.387 20.6385 46.1755 20.1063 46.1755C19.5742 46.1755 19.0637 46.387 18.6874 46.7634L2.59822 62.8554C0.922746 64.5309 0 66.7587 0 69.1284C0 71.4981 0.922746 73.726 2.59792 75.4015C4.27339 77.0773 6.50081 78 8.86991 78C11.239 78 13.4667 77.0771 15.1419 75.4016L31.2312 59.3099C31.6075 58.9336 31.819 58.423 31.819 57.8908C31.819 57.3585 31.6075 56.8479 31.2312 56.4716L27.7971 53.0369L31.1679 49.6656C36.4684 54.2694 43.0863 56.5726 49.7053 56.5726C56.951 56.5726 64.1967 53.8141 69.7128 48.2973C75.0567 42.9522 78 35.8457 78 28.2866C78 20.7271 75.057 13.6204 69.7128 8.27548ZM12.304 72.5632C11.3868 73.4806 10.1673 73.9858 8.86991 73.9858C7.5727 73.9858 6.35304 73.4804 5.43578 72.563C4.51867 71.6457 4.01334 70.4259 4.01334 69.1286C4.01334 67.8313 4.51867 66.6113 5.43593 65.6939L14.4142 56.7142L21.2824 63.5833L12.304 72.5632ZM24.1206 60.7448L17.2523 53.8754L20.1063 51.0209L26.9746 57.8904L24.1206 60.7448ZM66.8748 45.4586C57.4075 54.9278 42.0033 54.9278 32.5361 45.4586C27.9499 40.8717 25.4242 34.7733 25.4242 28.2863C25.4242 21.7993 27.9499 15.7009 32.5361 11.1141C37.2697 6.3797 43.4876 4.01234 49.7055 4.01234C55.9233 4.01234 62.1413 6.3794 66.8749 11.1141C71.4611 15.7009 73.9868 21.7995 73.9868 28.2863C73.9868 34.7731 71.4609 40.8717 66.8748 45.4586Z" fill="#2487FF"/>
<path d="M63.5631 14.4259C55.9218 6.78365 43.4889 6.78334 35.8476 14.4259C28.2067 22.0684 28.2067 34.5034 35.8478 42.146C39.6684 45.9669 44.6868 47.8777 49.7054 47.8777C54.7241 47.8777 59.7426 45.9669 63.5632 42.146V42.1458C71.2042 34.5036 71.2042 22.0684 63.5631 14.4259ZM60.7251 39.3076C54.6487 45.385 44.762 45.385 38.6857 39.3078C32.6093 33.2304 32.6093 23.3419 38.6855 17.2645C41.724 14.2254 45.714 12.7065 49.7054 12.7065C53.6958 12.7065 57.6873 14.2263 60.7251 17.2645C66.8015 23.3418 66.8015 33.2302 60.7251 39.3076Z" fill="#2487FF"/>
<path d="M57.1778 20.8125C53.0572 16.6917 46.3533 16.6917 42.2329 20.8125C41.4492 21.5963 41.4492 22.8671 42.2329 23.6512C43.0165 24.435 44.2871 24.435 45.071 23.6512C47.6262 21.0953 51.7845 21.0953 54.3399 23.6512C54.7319 24.0432 55.2453 24.239 55.7589 24.239C56.2724 24.239 56.7861 24.0431 57.1778 23.6512C57.9615 22.8674 57.9615 21.5965 57.1778 20.8125Z" fill="#2487FF"/>
</svg>
