<svg width="76" height="76" viewBox="0 0 76 76" fill="none" xmlns="http://www.w3.org/2000/svg">
<path d="M70.7526 5.25411C63.7451 -1.75275 52.342 -1.74999 45.3331 5.25411L32.6233 17.9627C31.5434 19.0425 31.5434 20.7928 32.6233 21.8726C33.7032 22.9524 35.4537 22.9524 36.5336 21.8726L49.2434 9.16401C51.5815 6.82747 54.7064 5.53892 58.0415 5.53892C61.3779 5.53892 64.5028 6.82747 66.841 9.16539C69.1791 11.5033 70.4678 14.6279 70.4678 17.9641C70.4678 21.2988 69.1791 24.4234 66.841 26.7613L50.2223 43.3826C45.369 48.2326 37.4752 48.2326 32.6219 43.3826C31.542 42.3028 29.7915 42.3028 28.7116 43.3826C27.6318 44.4624 27.6318 46.2141 28.7116 47.2925C32.2154 50.7959 36.8184 52.5476 41.4214 52.5476C46.0244 52.5476 50.6274 50.7959 54.1312 47.2925L70.7526 30.6726C74.1361 27.2909 76 22.7768 76 17.9641C76 13.15 74.1361 8.63725 70.7526 5.25411Z" fill="#2487FF"/>
<path d="M37.5112 56.0896L26.7566 66.8432C24.4185 69.1811 21.2936 70.4697 17.9571 70.4697C14.622 70.4697 11.4958 69.1811 9.15762 66.8432C4.30573 61.9918 4.30573 54.0973 9.15762 49.2459L24.8015 33.6035C27.1396 31.267 30.2645 29.9784 33.601 29.9784C36.9361 29.9784 40.0609 31.267 42.3991 33.6035C43.479 34.6833 45.2295 34.6833 46.3094 33.6035C47.3893 32.5237 47.3893 30.7734 46.3094 29.6936C39.3032 22.6881 27.9001 22.6867 20.8898 29.6936L5.24596 45.3374C1.86388 48.7191 0 53.2332 0 58.0459C0 62.8573 1.86388 67.3713 5.24734 70.7531C8.62943 74.1363 13.1439 76 17.9557 76C22.7689 76 27.2834 74.1363 30.6655 70.7531L41.4201 59.9995C42.5 58.9197 42.5 57.1694 41.4201 56.0896C40.3403 55.0098 38.5911 55.0098 37.5112 56.0896Z" fill="#2487FF"/>
</svg>
