<svg width="77" height="72" viewBox="0 0 77 72" fill="none" xmlns="http://www.w3.org/2000/svg">
<path fill-rule="evenodd" clip-rule="evenodd" d="M70.0729 69.6862L76.2281 29.1197C76.3104 28.5889 76.1568 28.0497 75.8064 27.6421C75.4571 27.2354 74.9471 27.0012 74.4088 27.0012H71.3539V9.46C71.3539 8.10283 70.2489 7 68.8906 7H30.643L27.6052 1.94528C27.1631 1.20715 26.3542 0.75 25.493 0.75H8.21974C6.86297 0.751391 5.75799 1.85403 5.75799 3.21V27H2.59171C2.05617 27 1.54631 27.2326 1.19691 27.6379C0.846364 28.0431 0.689897 28.5802 0.770977 29.1138L6.92768 69.6909C7.06802 70.5938 7.83378 71.25 8.74703 71.25H68.2522C69.1669 71.25 69.9327 70.5929 70.0729 69.6862ZM10.7654 22.0012H9.51353V27.0012H8.76168V3.75125H25.1875L28.2253 8.80597C28.6675 9.5441 29.4764 10.0013 30.3376 10.0013H68.3502V27.0012H67.5984V22.0012H66.3465V18.2513H65.0947V14.5013H12.0172V18.2513H10.7654V22.0012ZM12.5172 25.0012H64.5947V27.0012H12.5172V25.0012ZM13.7691 21.2512H63.3428V22.0012H13.7691V21.2512ZM62.091 18.2513H15.0209V17.5013H62.091V18.2513ZM73.0577 30.0012L67.2536 68.2513H9.74687L3.94406 30.0012H73.0577ZM34.7454 62.5012H61.2841V44.5012H34.4954V62.2512H34.7454V62.5012ZM37.4991 59.5012V47.5012H58.2804V59.5012H37.4991ZM41.0047 52.5012H46.012C46.842 52.5012 47.5139 51.8309 47.5139 51.0012C47.5139 50.1716 46.842 49.5012 46.012 49.5012H41.0047C40.1747 49.5012 39.5028 50.1716 39.5028 51.0012C39.5028 51.8309 40.1747 52.5012 41.0047 52.5012ZM51.0194 52.5012H52.2713C53.1013 52.5012 53.7731 51.8309 53.7731 51.0012C53.7731 50.1716 53.1013 49.5012 52.2713 49.5012H51.0194C50.1894 49.5012 49.5176 50.1716 49.5176 51.0012C49.5176 51.8309 50.1894 52.5012 51.0194 52.5012ZM54.7749 54.5012H41.0047C40.1747 54.5012 39.5028 55.1716 39.5028 56.0012C39.5028 56.8309 40.1747 57.5012 41.0047 57.5012H54.7749C55.6049 57.5012 56.2768 56.8309 56.2768 56.0012C56.2768 55.1716 55.6049 54.5012 54.7749 54.5012Z" fill="#2487FF"/>
</svg>
