<svg width="21" height="21" viewBox="0 0 21 21" fill="none" xmlns="http://www.w3.org/2000/svg">
<path fill-rule="evenodd" clip-rule="evenodd" d="M20.3592 10.465C20.3592 16.2447 15.8016 20.93 10.1796 20.93C4.55756 20.93 0 16.2447 0 10.465C0 4.68534 4.55756 0 10.1796 0C13.0534 0 15.6491 1.22428 17.5001 3.1932L8.91175 11.9179L5.04983 7.94768L2.89939 10.0395L7.83014 15.1085L8.89898 16.2073L9.97435 15.1149L19.2441 5.69795C19.957 7.12763 20.3592 8.74803 20.3592 10.465Z" fill="white"/>
</svg>
