<svg width="300" height="322" viewBox="0 0 300 322" fill="none" xmlns="http://www.w3.org/2000/svg">
<path d="M29.5135 312.203C25.4098 319.812 34.9718 324.13 52.2409 320.938C57.6525 319.939 65.473 321.251 69.5901 320.938C77.6908 320.318 80.2998 315.461 80.2998 312.736C80.2998 307.912 64.8124 303.468 52.2743 303.468C39.7362 303.468 31.6155 308.318 29.5135 312.203Z" fill="#ECF3FF"/>
<path d="M81.8012 118.179C102.273 113.035 117.694 92.7061 140.268 92.7061C169.288 92.7061 174.205 123.422 195.845 135.495C227.781 153.312 266.156 168.97 266.156 201.159C266.156 238.837 244.476 269.407 203.352 290.022C214.148 292.84 222.336 297.085 222.336 301.536C222.336 305.986 218.132 313.742 205.094 314.742C198.494 315.248 185.903 313.129 177.188 314.742C164.697 317.054 154.728 316.914 148.115 314.961C145.956 315.299 143.774 315.473 141.589 315.481C95.3602 315.481 50.2724 302.015 40.8305 253.629C36.3331 230.522 -3.05176e-05 216.79 -3.05176e-05 197.541C0.00662231 160.508 12.8583 135.495 81.8012 118.179Z" fill="url(#paint0_linear)"/>
<path d="M86.8058 142.725C86.8058 142.725 89.8085 150.221 98.7099 154.571C107.611 158.922 136.838 168.41 139.214 167.104C158.077 156.764 172.511 137.728 172.511 137.728L164.029 130.152L135.57 144.81C135.57 144.81 129.425 143.111 116.826 136.815C104.228 130.518 86.8058 142.725 86.8058 142.725Z" fill="url(#paint1_linear)"/>
<path d="M164.029 130.165L164.543 119.618C164.543 119.618 170.669 113.301 174.839 115.533C179.01 117.765 177.388 119.531 177.388 119.531L170.048 135.682L164.029 130.165Z" fill="url(#paint2_linear)"/>
<path d="M134.807 297.919C134.807 297.919 141.259 299.31 143.309 301.405C145.359 303.501 144.12 305.109 143.335 307.266C141.166 313.334 127.703 308.157 126.856 306.221C126.101 304.154 125.481 302.041 125 299.895L134.807 297.919Z" fill="url(#paint3_linear)"/>
<path d="M150.304 219.502C150.304 219.502 151.445 246.933 147.521 263.537C144.065 278.162 136.5 298.5 136.5 298.5L124.76 300.096C124.76 300.096 125.508 277.249 123.839 262.784C122.038 247.173 118.895 223.266 118.895 223.266L150.304 219.502Z" fill="url(#paint4_linear)"/>
<path d="M123.773 231.002C123.773 231.002 122.392 253.389 113.824 270.839C108.105 282.48 88.7408 304.154 88.7408 304.154L77.7508 301.409C77.7508 301.409 88.7809 280.327 89.228 268.461C89.8952 250.837 86.659 226.098 86.659 226.098L123.773 231.002Z" fill="url(#paint5_linear)"/>
<path d="M86.8524 315.662C88.0468 314.436 87.8533 307.319 87.6131 303.908L78.8051 301.536C77.277 303.948 74.0007 309.278 73.1733 311.277C72.139 313.769 72.8463 318.64 78.318 318.973C83.7896 319.306 85.3711 317.187 86.8524 315.662Z" fill="#EBC630"/>
<path d="M200.449 59.479C197.94 56.0009 194.958 47.559 201.617 40.5029C203.492 38.5041 205.127 37.0182 206.441 35.8389C210.292 32.3142 211.326 31.3681 210.445 25.8445C209.891 22.2732 210.492 19.7346 212.227 18.2954C214.569 16.3631 217.745 17.4092 218.099 17.5358L216.891 20.9539C216.491 20.8206 215.183 20.5475 214.535 21.0938C213.888 21.6402 213.701 23.166 214.028 25.2848C215.196 32.7606 212.954 34.8128 208.877 38.5374C207.542 39.7567 206.028 41.1426 204.246 43.0348C198 49.6578 203.158 57.1003 203.385 57.4134L200.449 59.479Z" fill="#00BBFF"/>
<path d="M240.059 57.5331L236.449 57.1933C236.449 56.9867 236.969 52.0626 240.326 49.364C241.198 48.6715 242.204 48.1671 243.282 47.8827C244.359 47.5983 245.484 47.54 246.585 47.7115C248.433 47.9314 249.808 47.7115 250.448 47.0452C250.652 46.7942 250.803 46.5053 250.894 46.1953C250.984 45.8853 251.012 45.5603 250.975 45.2395L254.559 44.6731C254.684 45.5422 254.618 46.4284 254.363 47.2689C254.108 48.1094 253.671 48.8838 253.084 49.5373C251.603 51.0831 249.287 51.6828 246.151 51.2963C245.532 51.191 244.898 51.2154 244.289 51.3679C243.68 51.5205 243.11 51.7979 242.614 52.1826C240.459 53.9083 240.065 57.4998 240.059 57.5331Z" fill="url(#paint6_linear)"/>
<path d="M186.77 23.978L188.772 20.973C188.945 21.0863 193.036 23.8781 193.81 28.1157C194.001 29.2114 193.962 30.3348 193.697 31.415C193.432 32.4952 192.945 33.5089 192.268 34.3922C191.194 35.9113 190.74 37.2239 191.007 38.0967C191.128 38.3975 191.308 38.6707 191.538 38.8998C191.767 39.1289 192.041 39.309 192.342 39.4293L191.121 42.8474C190.297 42.5419 189.55 42.0596 188.933 41.4345C188.316 40.8093 187.845 40.0566 187.551 39.2294C186.884 37.1839 187.484 34.8586 189.306 32.3C189.697 31.8078 189.982 31.2397 190.142 30.6317C190.301 30.0238 190.332 29.3893 190.233 28.7686C189.773 26.0368 186.804 23.978 186.77 23.978Z" fill="#FF7D2F"/>
<path d="M187.864 3.64292L187.477 0.0381171C187.684 0.0381171 192.615 -0.474952 195.939 2.26364C196.791 2.97928 197.486 3.86291 197.981 4.85924C198.476 5.85558 198.76 6.94318 198.814 8.05398C198.968 9.90636 199.482 11.2057 200.242 11.6988C200.529 11.8483 200.842 11.9388 201.164 11.9652C201.486 11.9915 201.811 11.953 202.117 11.852L203.392 15.2436C202.565 15.5406 201.683 15.6528 200.808 15.5722C199.933 15.4916 199.086 15.2202 198.327 14.7772C196.512 13.6378 195.458 11.4456 195.198 8.35383C195.185 7.71904 195.039 7.09407 194.767 6.5199C194.496 5.94573 194.106 5.43535 193.623 5.02221C191.501 3.32309 187.898 3.63626 187.864 3.64292Z" fill="#00BBFF"/>
<path d="M151.865 54.2943L154.914 56.2533C154.801 56.4266 152.099 60.5711 147.875 61.4307C146.782 61.6465 145.656 61.6337 144.568 61.3928C143.48 61.1519 142.455 60.6884 141.556 60.0314C140.008 58.9853 138.686 58.5655 137.819 58.852C137.524 58.9767 137.257 59.1587 137.034 59.3876C136.811 59.6164 136.635 59.8873 136.518 60.1846L133.075 59.0386C133.363 58.2104 133.83 57.4554 134.442 56.8268C135.054 56.1982 135.797 55.7113 136.618 55.4004C138.62 54.7341 140.988 55.2405 143.591 56.9996C144.092 57.3807 144.667 57.6529 145.279 57.7987C145.892 57.9444 146.528 57.9605 147.147 57.8458C149.863 57.3328 151.865 54.321 151.865 54.2943Z" fill="#00BBFF"/>
<path d="M212.999 46.9888L216.449 48.1143L213.455 57.2667L210.004 56.1412L212.999 46.9888Z" fill="#FF7D2F"/>
<path d="M234.944 40.55L236.918 43.5917L228.826 48.8269L226.853 45.7851L234.944 40.55Z" fill="#00BBFF"/>
<path d="M218.615 111.029L220.588 114.07L212.497 119.306L210.523 116.264L218.615 111.029Z" fill="#00BBFF"/>
<path d="M296.604 77.6684L292.607 68.8663L296.003 67.3937L300 76.1958L296.604 77.6684Z" fill="#FF7D2F"/>
<path d="M126.055 33.3198L118.968 27.1829L121.164 24.3911L128.25 30.5279L126.055 33.3198Z" fill="#FF7D2F"/>
<path d="M172.642 32.0171L178.201 39.8838L175.235 41.9737L169.676 34.107L172.642 32.0171Z" fill="url(#paint7_linear)"/>
<path d="M248.319 72.439L249.933 75.6855L241.297 79.9663L239.683 76.7199L248.319 72.439Z" fill="#FF7D2F"/>
<path d="M240.659 28.8557L237.043 28.5626C237.063 28.2427 237.79 20.647 247.285 18.6948C250.829 17.9685 250.782 17.2489 250.682 15.6765C250.595 14.3439 250.468 12.305 252.523 10.8392L254.625 13.7975C254.278 14.044 254.218 14.1973 254.298 15.4433C254.465 18.0751 254.132 20.9935 248.006 22.2461C241.16 23.652 240.659 28.8024 240.659 28.8557Z" fill="#FF7D2F"/>
<path d="M296.197 36.991L293.027 35.2187C293.995 33.4863 294.555 31.2542 294.148 30.7145C294.035 30.5613 293.267 30.2548 291.179 30.7145C289.711 31.0544 287.602 31.3808 286.288 29.9949C284.793 28.4558 285.413 26.0971 286.141 23.332C287.048 19.8806 288.183 15.5964 285.574 12.4181C284.172 10.7191 282.638 9.84625 280.863 9.75297C277.046 9.53309 273.402 12.9911 273.362 13.0245L270.833 10.4259C271.027 10.2394 275.624 5.83517 281.056 6.135C283.859 6.29491 286.321 7.63416 288.396 10.1328C292.166 14.7768 290.658 20.5136 289.644 24.3115C289.337 25.3197 289.114 26.3515 288.977 27.3964C289.439 27.3891 289.898 27.3242 290.345 27.2032C293.561 26.4636 295.816 26.91 297.017 28.5358C299.166 31.3542 296.71 36.0715 296.197 36.991Z" fill="url(#paint8_linear)"/>
<path d="M146.04 39.15C145.96 38.9901 144.038 35.1523 145.893 31.6676C147.274 29.049 150.264 27.4366 154.768 26.8769C156.636 26.6504 157.871 26.2106 158.344 25.5443C158.898 24.7781 158.598 23.2856 158.284 21.7132C157.737 18.9947 156.916 14.8837 161.387 12.7115C163.949 11.4656 167.966 10.9126 172.584 15.3434C174.2 16.9306 175.586 18.736 176.701 20.7071L173.505 22.4261C173.458 22.3328 168.48 13.2979 162.975 15.9697C161.187 16.8359 161.234 17.9686 161.841 21.0002C162.275 23.1657 162.762 25.6176 161.28 27.6632C160.179 29.1956 158.191 30.1218 155.215 30.4882C152.012 30.888 149.877 31.8741 149.109 33.3533C148.128 35.1856 149.263 37.491 149.269 37.5176L146.04 39.15Z" fill="url(#paint9_linear)"/>
<path d="M198.267 55.9534L165.598 43.4938L167.332 136.861L230.944 68.4065L198.267 55.9534Z" fill="#00BBFF"/>
<path d="M165.711 59.5314L188.472 52.2155L207.002 59.2782L166.165 74.0166L165.711 59.5314Z" fill="#079F9E"/>
<path d="M166.392 82.1987L218.733 63.7557L230.964 68.4531L166.692 92.1265L166.392 82.1987Z" fill="#079F9E"/>
<path d="M166.665 101.188L216.851 83.5713L194.31 107.831L167.072 118.332L166.665 101.188Z" fill="#079F9E"/>
<path d="M124.842 58.71L124.946 62.3328L115.308 62.6101L115.204 58.9872L124.842 58.71Z" fill="#FF7D2F"/>
<path d="M166.211 76.7359L210.859 60.7508L207.095 59.3848L166.151 74.0173L166.211 76.7359Z" fill="#0A3E8C"/>
<path d="M166.692 92.1264L230.964 68.4531L226.38 73.317L166.799 95.7511L166.692 92.1264Z" fill="#0A3E8C"/>
<path d="M145.479 113.362L145.846 106.912L151.765 105.892L154.087 110.596L152.345 112.202L149.97 108.751L148.909 111.642L148.655 116.547L145.479 113.362Z" fill="#00BBFF"/>
<path d="M157.51 187.599C157.884 190.265 158.213 192.945 158.498 195.642C158.838 198.86 160.753 236.285 160.5 236.285C160.5 236.285 132.954 233.574 118.581 236.059C110.768 237.391 73.4402 239.79 73.4402 239.79V232.987C73.4402 232.987 72.526 121.716 110.14 121.716C110.14 121.716 121.918 118.478 136.197 130.498C143.611 136.062 147.207 147.369 150.13 155.751C153.632 166.099 156.104 176.767 157.51 187.599Z" fill="#4081FE"/>
<path d="M116.453 155.318C116.45 158.726 116.151 162.128 115.559 165.485C112.402 185.934 104.555 217.31 101.299 237.765C116.019 238.085 137.952 235.1 152.679 235.433C152.379 227.75 149.45 212.339 149.056 204.657C148.862 199.679 148.662 194.702 147.775 189.832C146.387 181.936 145.773 172.122 142.737 162.154C137.986 146.636 137.832 136.362 126.856 125.608C125.921 124.688 123.119 121.876 123.119 121.876C122.637 121.856 122.158 121.785 121.691 121.663C117.54 120.69 112.302 121.337 108.052 121.876C108.052 121.803 110.507 124.148 112.202 129.452C114.077 135.402 116.253 149.148 116.453 155.318Z" fill="white"/>
<path d="M89.6283 137.141C89.6283 137.141 84.7905 144.47 92.4175 150.82C100.044 157.17 126.202 173.228 128.824 172.561C149.596 166.958 168.12 151.86 168.12 151.86L161.667 142.492L130.512 150.034C130.512 150.034 124.94 146.942 114.184 137.841C103.427 128.739 89.6283 137.141 89.6283 137.141Z" fill="url(#paint10_linear)"/>
<path d="M161.667 142.472L164.69 132.351C164.69 132.351 172.137 127.686 175.66 130.811C179.183 133.936 177.221 135.249 177.221 135.249L166.291 149.241L161.667 142.472Z" fill="#FFDAA1"/>
<path d="M113.331 112.021L109.708 121.497C109.708 121.497 117.401 128.16 119.323 125.674C120.213 124.471 121.197 123.339 122.266 122.289L121.251 116.293L113.331 112.021Z" fill="url(#paint11_linear)"/>
<path d="M112.517 111.288C112.517 111.288 117.695 119.477 123.4 120.31C129.105 121.143 131.127 105.112 130.607 102.453C130.086 99.7949 126.69 93.6716 125.782 92.5856C124.855 91.3863 115.606 90.6733 112.637 95.5106C112.163 96.5408 111.901 97.6554 111.867 98.7885C111.832 99.9216 112.026 101.05 112.437 102.107C112.437 102.107 110.021 100.395 108.887 101.654C107.752 102.913 107.078 105.338 109.107 108.05C110.915 110.802 112.517 111.288 112.517 111.288Z" fill="#FFDAA1"/>
<path d="M113.077 102.44L114.832 97.9493C114.832 97.9493 117.848 99.7749 121.892 97.4895C125.936 95.2041 126.876 94.0981 126.876 94.0981L127.757 95.6506C127.757 95.6506 134.497 88.8077 130.847 82.6179C127.197 76.428 118.022 81.9183 118.022 81.9183C118.022 81.9183 114.685 78.4269 111.236 81.4052C107.786 84.3835 102.234 90.7333 103.629 98.4223C104.963 105.978 111.209 112.348 113.117 112.668L112.503 111.288C112.503 111.288 106.545 107.957 108.006 103.086C109.027 99.4351 113.077 102.44 113.077 102.44Z" fill="url(#paint12_linear)"/>
<path d="M123.606 112.595L127.469 111.729C127.469 111.729 125.828 106.299 126.102 104.173C124.714 108.258 123.606 112.595 123.606 112.595Z" fill="url(#paint13_linear)"/>
<path d="M29.4935 120.81C30.9215 122.809 36.9403 122.409 39.9164 122.902C43.6464 123.515 47.4966 124.335 52.1408 122.07C60.4817 118.005 62.1499 111.049 59.6944 106.079C57.2388 101.108 49.1514 102.021 40.1833 104.439C28.6861 107.531 25.6233 115.393 29.4935 120.81Z" fill="#ECF3FF"/>
<path d="M38.7619 125.854C38.3148 125.188 36.3464 125.274 35.3788 125.095C34.1644 124.868 32.9166 124.568 31.3752 125.274C28.6193 126.541 28.0388 128.793 28.7861 130.432C29.5335 132.071 32.1959 131.838 35.1386 131.098C38.9221 130.192 39.983 127.653 38.7619 125.854Z" fill="#ECF3FF"/>
<path d="M229.576 145.59C229.442 144.89 227.814 144.257 227.094 143.784C226.193 143.178 225.285 142.498 223.797 142.531C221.128 142.591 219.847 144.211 219.88 145.81C219.914 147.409 222.156 148.142 224.791 148.588C228.181 149.161 229.936 147.476 229.576 145.59Z" fill="#ECF3FF"/>
<path d="M47.3965 312.603C47.0028 310.531 42.165 308.685 40.0231 307.239C37.354 305.42 34.6315 303.401 30.2008 303.501C22.2402 303.681 18.4501 308.512 18.5568 313.262C18.6636 318.013 25.323 320.198 33.1768 321.531C43.246 323.243 48.4374 318.213 47.3965 312.603Z" fill="#ECF3FF"/>
<path d="M217.258 132.391C212.287 129.459 210.071 124.002 206.949 129.286C205.914 131.031 208.55 135.769 213.528 138.707C218.506 141.646 225.252 139.434 226.279 137.688C229.115 132.93 222.256 135.329 217.258 132.391Z" fill="#ECF3FF"/>
<path d="M188.865 113.681L167.045 121.604L167.072 118.332L194.31 107.831L188.865 113.681Z" fill="#0A3E8C"/>
<defs>
<linearGradient id="paint0_linear" x1="-3.65508e-05" y1="123.922" x2="240.629" y2="305.494" gradientUnits="userSpaceOnUse">
<stop offset="0.01" stop-color="#F3FAFA"/>
<stop offset="1" stop-color="#D2DFF5"/>
</linearGradient>
<linearGradient id="paint1_linear" x1="131.63" y1="168.297" x2="129.857" y2="137.782" gradientUnits="userSpaceOnUse">
<stop stop-color="#4E80FF"/>
<stop offset="1" stop-color="#4C9DFF"/>
</linearGradient>
<linearGradient id="paint2_linear" x1="177.735" y1="125.361" x2="164.029" y2="125.361" gradientUnits="userSpaceOnUse">
<stop stop-color="#FFDAA1"/>
<stop offset="1" stop-color="#EFBB6F"/>
</linearGradient>
<linearGradient id="paint3_linear" x1="125.368" y1="304.855" x2="144.747" y2="303.424" gradientUnits="userSpaceOnUse">
<stop stop-color="#E9CE31"/>
<stop offset="1" stop-color="#EFB52E"/>
</linearGradient>
<linearGradient id="paint4_linear" x1="112.082" y1="252.257" x2="147.96" y2="262.926" gradientUnits="userSpaceOnUse">
<stop offset="0.01" stop-color="#07AB9E"/>
<stop offset="1" stop-color="#079F9E"/>
</linearGradient>
<linearGradient id="paint5_linear" x1="-11551.1" y1="-19369.2" x2="-8987.49" y2="-18870.6" gradientUnits="userSpaceOnUse">
<stop offset="0.01" stop-color="#07AB9E"/>
<stop offset="1" stop-color="#079F9E"/>
</linearGradient>
<linearGradient id="paint6_linear" x1="237.615" y1="53.7857" x2="247.89" y2="40.5754" gradientUnits="userSpaceOnUse">
<stop stop-color="#2961BB"/>
<stop offset="1" stop-color="#0A3E8C"/>
</linearGradient>
<linearGradient id="paint7_linear" x1="170.897" y1="34.0028" x2="176.29" y2="32.7823" gradientUnits="userSpaceOnUse">
<stop stop-color="#2961BB"/>
<stop offset="1" stop-color="#0A3E8C"/>
</linearGradient>
<linearGradient id="paint8_linear" x1="272.569" y1="27.9952" x2="297.378" y2="8.21477" gradientUnits="userSpaceOnUse">
<stop stop-color="#2961BB"/>
<stop offset="1" stop-color="#0A3E8C"/>
</linearGradient>
<linearGradient id="paint9_linear" x1="147.117" y1="31.1871" x2="169.613" y2="7.50689" gradientUnits="userSpaceOnUse">
<stop stop-color="#2961BB"/>
<stop offset="1" stop-color="#0A3E8C"/>
</linearGradient>
<linearGradient id="paint10_linear" x1="3502.33" y1="37568.7" x2="4908.23" y2="34705" gradientUnits="userSpaceOnUse">
<stop stop-color="#4E80FF"/>
<stop offset="1" stop-color="#4C9DFF"/>
</linearGradient>
<linearGradient id="paint11_linear" x1="-3438.84" y1="-5348.53" x2="-3202.75" y2="-5348.53" gradientUnits="userSpaceOnUse">
<stop stop-color="#FFDAA1"/>
<stop offset="1" stop-color="#EFBB6F"/>
</linearGradient>
<linearGradient id="paint12_linear" x1="105.239" y1="103.053" x2="131.672" y2="82.262" gradientUnits="userSpaceOnUse">
<stop stop-color="#2961BB"/>
<stop offset="1" stop-color="#0A3E8C"/>
</linearGradient>
<linearGradient id="paint13_linear" x1="-1450.34" y1="-2662.5" x2="-1427.59" y2="-2666.92" gradientUnits="userSpaceOnUse">
<stop stop-color="#FFDAA1"/>
<stop offset="1" stop-color="#EFBB6F"/>
</linearGradient>
</defs>
</svg>
