<svg width="70" height="70" viewBox="0 0 70 70" fill="none" xmlns="http://www.w3.org/2000/svg">
<path d="M70 42.6866C70 43.5648 69.7069 44.2898 69.1208 44.8753C68.5347 45.3074 67.9486 45.6002 67.0833 45.6002H2.91667C2.19099 45.6002 1.46531 45.3074 0.879187 44.8753C0.293062 44.2898 0 43.5648 0 42.6866V0H70V42.6866Z" transform="translate(0 24.3998)" fill="#0098FF"/>
<path d="M68.2416 29.2756C67.6555 29.7077 67.0694 30.0005 66.2041 30.0005H2.03748C1.3118 30.0005 0.586124 29.7077 2.66177e-08 29.2756L34.1208 -1.70175e-06L68.2416 29.2756Z" transform="translate(0.879187 39.9856)" fill="#007AFF"/>
<path d="M70 24.3998L60.0778 31.5375L36.8979 48.1409C35.7257 49.0192 34.1208 49.0192 32.9625 48.1409L9.92225 31.5375L0 24.3998L9.92225 17.2621L31.4972 1.82972L33.1021 0.6587C34.2743 -0.219567 35.8792 -0.219567 37.0375 0.6587L38.6423 1.82972L48.9972 9.26014L54.1049 12.8987L60.0778 17.2621L70 24.3998Z" fill="#0066FF"/>
<path d="M50.1555 9.01967V29.7077L26.9757 46.3112C25.8034 47.1894 24.1986 47.1894 23.0403 46.3112L-2.12942e-07 29.7077V2.91362C-2.12942e-07 1.31043 1.3118 5.31797e-08 2.91667 5.31797e-08H40.9729L50.1555 9.01967Z" transform="translate(9.92225 1.82971)" fill="#F2F2F2"/>
<path d="M1.70353e-06 6.7055C1.70353e-06 8.01593 1.01874 9.03361 2.33054 9.03361H9.04306L1.70353e-06 0V6.7055Z" transform="translate(51.0347 1.8158)" fill="#CDD6E0"/>
<path d="M20.5724 0H0V7.00225H20.5724V0Z" transform="translate(47.2446 19.8591) scale(1.00051 0.999468) rotate(132.457)" fill="#004BFF"/>
<path d="M14.3253 0H0V7.0016H14.3253V0Z" transform="translate(27.495 20.2033) scale(1.00051 0.999468) rotate(42.4575)" fill="#58EDFF"/>
<path d="M7.01619 0H0V7.0016H7.01619V0Z" transform="translate(32.8835 25.134) scale(1.00051 0.999468) rotate(42.4575)" fill="#00BBFF"/>
<path d="M7.00225 0H0V0.697371H7.00225V0Z" transform="translate(33.3711 24.6094) scale(1.00051 0.999468) rotate(42.4575)" fill="#0042E4"/>
</svg>
