<svg width="9" height="19" viewBox="0 0 9 19" fill="none" xmlns="http://www.w3.org/2000/svg">
<path fill-rule="evenodd" clip-rule="evenodd" d="M8.98088 0.00557999C8.98088 1.10045 8.98088 3.06378 8.98088 3.06378C8.98088 3.06378 6.7039 2.83736 6.13381 3.70157C5.82234 4.17459 6.00787 5.55647 5.97976 6.54823C6.97376 6.54823 8.006 6.54823 9 6.54823C8.74363 7.71007 8.56147 8.49668 8.37369 9.5012C7.51349 9.5012 5.96289 9.5012 5.96289 9.5012V19C5.96289 19 3.11806 19 1.77998 19C1.78111 16.0715 1.77998 12.6551 1.77998 9.5384C1.13006 9.5384 0.649925 9.5384 0 9.5384C0 8.44353 0 7.64523 0 6.54823C0.63081 6.54823 1.13006 6.54823 1.76087 6.54823C1.85083 4.3638 1.88456 2.19851 2.98088 1.0962C4.21327 -0.143237 5.38943 0.00557999 8.98088 0.00557999Z" fill="white"/>
</svg>
