<svg width="165" height="170" viewBox="0 0 165 170" fill="none" xmlns="http://www.w3.org/2000/svg">
<g clip-path="url(#clip0)">
<path d="M91.7662 169.926C73.8298 170.668 56.6376 164.138 43.2412 152.34C15.0341 126.517 -12.2054 85.8533 5.73101 47.4901C18.8298 18.5508 51.8745 4.22956 82.7608 5.86203C115.582 8.31075 156.59 20.3317 164.182 56.543C170.582 88.3762 138.431 107.743 125.778 132.75C114.317 152.488 103.897 168.961 91.7662 169.926Z" fill="url(#paint0_linear)"/>
<path d="M63.4844 1.48413H36.3193V4.15429H63.4844V1.48413Z" fill="#E3EFF1"/>
<path d="M74.3502 7.86572H47.1851V10.5359H74.3502V7.86572Z" fill="#E3EFF1"/>
<path d="M42.9432 7.86572H36.3193V10.5359H42.9432V7.86572Z" fill="#E3EFF1"/>
<path d="M51.4276 14.2471H36.3193V16.9172H51.4276V14.2471Z" fill="#E3EFF1"/>
<path d="M45.3992 20.6287H36.3193V23.2988H45.3992V20.6287Z" fill="#E3EFF1"/>
<path d="M58.9446 20.6287H48.4507V23.2988H58.9446V20.6287Z" fill="#E3EFF1"/>
<path d="M67.1313 26.9358H36.3193V29.6059H67.1313V26.9358Z" fill="#E3EFF1"/>
<path d="M59.1678 33.3174H36.3193V35.9875H59.1678V33.3174Z" fill="#E3EFF1"/>
<path d="M42.9432 39.6989H36.3193V42.369H42.9432V39.6989Z" fill="#E3EFF1"/>
<path d="M69.1409 20.6287H62.5171V23.2988H69.1409V20.6287Z" fill="#E3EFF1"/>
<path d="M60.135 71.5321H53.5112V74.2023H60.135V71.5321Z" fill="#E3EFF1"/>
<path d="M70.4055 71.5321H63.7817V74.2023H70.4055V71.5321Z" fill="#E3EFF1"/>
<path d="M57.456 46.0804H36.3193V48.7506H57.456V46.0804Z" fill="#E3EFF1"/>
<path d="M75.4673 52.4619H67.355V55.1321H75.4673V52.4619Z" fill="#E3EFF1"/>
<path d="M64.3775 52.4619H36.3193V55.1321H64.3775V52.4619Z" fill="#E3EFF1"/>
<path d="M61.9217 39.6989H46.8135V42.369H61.9217V39.6989Z" fill="#E3EFF1"/>
<path d="M51.4276 58.8434H36.3193V61.5135H51.4276V58.8434Z" fill="#E3EFF1"/>
<path d="M42.9432 65.2249H36.3193V67.895H42.9432V65.2249Z" fill="#E3EFF1"/>
<path d="M60.7308 58.8434H54.1069V61.5135H60.7308V58.8434Z" fill="#E3EFF1"/>
<path d="M51.4276 71.5321H36.3193V74.2023H51.4276V71.5321Z" fill="#E3EFF1"/>
<path d="M63.4842 65.2249H48.376V67.895H63.4842V65.2249Z" fill="#E3EFF1"/>
<path d="M67.1313 77.9136H36.3193V80.5837H67.1313V77.9136Z" fill="#E3EFF1"/>
<path d="M44.8038 84.2952H36.3193V86.9653H44.8038V84.2952Z" fill="#E3EFF1"/>
<path d="M74.6483 84.2952H48.4507V86.9653H74.6483V84.2952Z" fill="#E3EFF1"/>
<path d="M62.5915 90.6766H55.8188V93.3468H62.5915V90.6766Z" fill="#E3EFF1"/>
<path d="M52.6928 90.6766H36.3193V93.3468H52.6928V90.6766Z" fill="#E3EFF1"/>
<path d="M59.2422 97.0581H36.3193V99.7283H59.2422V97.0581Z" fill="#E3EFF1"/>
<path d="M119.452 97.0581H103.6V99.7283H119.452V97.0581Z" fill="#E3EFF1"/>
<path d="M119.452 90.6766H112.828V93.3468H119.452V90.6766Z" fill="#E3EFF1"/>
<path d="M119.527 84.2952H104.418V86.9653H119.527V84.2952Z" fill="#E3EFF1"/>
<path d="M119.526 77.9136H110.446V80.5837H119.526V77.9136Z" fill="#E3EFF1"/>
<path d="M119.526 71.5321H101.516V74.2023H119.526V71.5321Z" fill="#E3EFF1"/>
<path d="M119.526 65.2249H96.6035V67.895H119.526V65.2249Z" fill="#E3EFF1"/>
<path d="M119.452 58.8434H112.828V61.5135H119.452V58.8434Z" fill="#E3EFF1"/>
<path d="M119.526 52.4619H107.172V55.1321H119.526V52.4619Z" fill="#E3EFF1"/>
<path d="M119.527 46.0804H104.418V48.7506H119.527V46.0804Z" fill="#E3EFF1"/>
<path d="M119.527 39.6989H104.418V42.369H119.527V39.6989Z" fill="#E3EFF1"/>
<path d="M119.452 33.3174H112.828V35.9875H119.452V33.3174Z" fill="#E3EFF1"/>
<path d="M119.527 26.9358H104.418V29.6059H119.527V26.9358Z" fill="#E3EFF1"/>
<path d="M119.526 20.6287H101.516V23.2988H119.526V20.6287Z" fill="#E3EFF1"/>
<path d="M119.527 14.2471H111.042V16.9172H119.527V14.2471Z" fill="#E3EFF1"/>
<path d="M119.526 7.86572H103.153V10.5359H119.526V7.86572Z" fill="#E3EFF1"/>
<path d="M119.526 1.48413H106.13V4.15429H119.526V1.48413Z" fill="#E3EFF1"/>
<path d="M28.2072 3.26495L26.1233 1.18726L23.0718 4.2296L20.0204 1.18726L17.9365 3.26495L20.9879 6.30729L17.9365 9.27543L20.0204 11.3531L23.0718 8.38499L26.1233 11.3531L28.2072 9.27543L25.1557 6.30729L28.2072 3.26495Z" fill="#E3EFF1"/>
<path d="M139.804 0.03068L133.375 15.1243L135.841 16.1685L142.27 1.0749L139.804 0.03068Z" fill="#E3EFF1"/>
<path d="M131.137 2.89404L126.002 8.08828L131.137 13.2083L133.072 11.3532L129.723 8.08828L133.072 4.82333L131.137 2.89404Z" fill="#E3EFF1"/>
<path d="M144.459 2.89404L142.599 4.82333L145.873 8.08828L142.599 11.3532L144.459 13.2083L149.595 8.08828L144.459 2.89404Z" fill="#E3EFF1"/>
<path d="M72.4904 22.3352L66.3131 29.904L63.1872 36.3596L59.0603 43.7601C59.0603 43.7601 53.8097 48.3806 54.1074 48.4548C54.4051 48.529 54.4051 54.6137 54.9261 55.4299C55.5215 56.2462 62.0709 63.1471 62.0709 63.1471C62.0709 63.1471 67.5039 66.7088 69.6622 67.1541C71.8205 67.5993 82.761 72.3483 82.761 72.3483L89.4592 65.8926L91.7664 62.2566C91.7664 62.2566 95.6365 59.1401 96.4552 58.5465C97.2738 57.9528 98.9856 53.8717 98.9856 53.8717C98.9856 53.8717 100.846 50.4583 100.325 48.6032C99.8043 46.7481 94.4457 37.9921 94.4457 37.9921C94.4457 37.9921 89.9802 31.5364 89.3848 30.4234C88.7894 29.3103 86.3334 25.6744 86.3334 25.6744" fill="url(#paint1_linear)"/>
<path d="M132.551 110.86C130.169 98.9132 114.838 70.9385 102.186 64.8538C89.5333 58.7691 66.9825 61.9599 55.9676 64.7054C43.762 67.7478 23.2951 98.9132 20.2437 111.157C19.8716 112.567 20.1693 113.976 20.9135 115.238L46.218 158.721L54.4791 156.421L36.766 112.047C35.8729 110.266 49.4183 89.3409 49.4183 89.3409C46.1436 102.623 39.8919 127.333 41.0827 137.425L114.987 139.206C114.838 128.743 108.065 101.659 104.79 90.083C104.79 90.083 115.88 111.083 115.21 112.863L104.195 151.746L112.456 154.046L131.955 114.57C132.551 113.457 132.774 112.121 132.551 110.86Z" fill="url(#paint2_linear)"/>
<path fill-rule="evenodd" clip-rule="evenodd" d="M71.0758 79.9913C71.299 66.4121 64.5264 62.9245 64.5264 62.9245L77.6252 59.2144L91.9221 61.8599C86.2025 65.9047 85.3504 77.0215 85.1807 79.2352C85.1605 79.4987 85.15 79.6361 85.1421 79.6203L84.3231 105.818V147.368H71.9686V106.848C71.7211 102.556 70.9505 88.3579 71.0758 79.9913Z" fill="url(#paint3_linear)"/>
<path d="M78.1457 74.2036C78.1457 74.2036 71.8195 71.6807 71.7451 68.4157V50.8295C71.7451 50.3843 72.1172 50.0133 72.5638 50.0133L82.9833 49.9391C83.4298 49.9391 83.8019 50.3101 83.8019 50.7553L84.5462 69.0094C84.2485 71.7549 80.7505 73.0905 78.1457 74.2036Z" fill="url(#paint4_linear)"/>
<path d="M94.2221 41.8506V40.0697C94.2221 30.6459 86.4819 22.8545 76.9556 22.8545C67.5036 22.8545 59.689 30.5716 59.689 40.0697V47.119C59.689 47.5642 59.7634 48.0837 59.8378 48.5289C66.0151 62.1823 64.6754 60.253 77.6254 65.373C92.2871 60.1046 90.0543 60.0304 94.7431 46.2286C94.6687 44.7445 94.5943 43.2604 94.2221 41.8506Z" fill="#FFDAA1"/>
<path d="M64.6751 49.1226C64.6751 51.5713 62.6657 53.5748 60.2096 53.5748C57.7536 53.5748 55.7441 51.5713 55.7441 49.1226C55.7441 46.6739 57.7536 44.6704 60.2096 44.6704C62.6657 44.6704 64.6751 46.6739 64.6751 49.1226Z" fill="#FFDAA1"/>
<path d="M97.8687 48.0096C97.8687 50.3841 95.9337 52.2392 93.6265 52.2392C91.2449 52.2392 89.3843 50.3099 89.3843 48.0096C89.3843 45.6351 91.3193 43.78 93.6265 43.78C95.9337 43.78 97.8687 45.7093 97.8687 48.0096Z" fill="#FFDAA1"/>
<path d="M89.0868 41.3925C89.5333 42.8765 90.2031 44.5832 91.6916 44.9542C92.8824 45.251 94.0732 44.6574 95.1152 43.9896C95.6362 43.6186 96.2316 43.0991 96.3804 42.5055C96.4548 41.9861 96.1571 41.3925 95.9338 40.9472C94.8919 39.0179 93.85 37.0887 92.3615 35.4562C91.0962 34.0463 88.7891 31.6718 87.375 34.1205C86.4819 35.8272 88.5658 39.76 89.0868 41.3925Z" fill="url(#paint5_linear)"/>
<path d="M90.8731 31.3268C87.0774 28.5071 82.5375 23.7581 77.4766 23.7581C72.4157 23.7581 67.5037 28.5071 63.708 31.3268C67.0571 35.1112 71.8948 38.6729 77.3278 38.6729C82.7608 38.5987 87.5984 35.037 90.8731 31.3268Z" fill="url(#paint6_linear)"/>
<path d="M64.9728 41.3925C64.5262 42.8765 63.8564 44.5832 62.3679 44.9542C61.1771 45.251 59.9863 44.6574 58.9444 43.9896C58.4234 43.6186 57.828 43.0991 57.6791 42.5055C57.6047 41.9861 57.9024 41.3925 58.1257 40.9472C59.1676 39.0179 60.2096 37.0887 61.6981 35.4562C62.9633 34.0463 65.2705 31.6718 66.6845 34.1205C67.6521 35.8272 65.5682 39.76 64.9728 41.3925Z" fill="url(#paint7_linear)"/>
<path d="M54.8513 145.958C54.8513 149.743 51.7255 152.859 47.9298 152.859C44.1342 152.859 41.0083 149.743 41.0083 145.958C41.0083 142.174 44.1342 139.057 47.9298 139.057C51.7999 139.131 54.8513 142.174 54.8513 145.958Z" fill="#EEBCC5"/>
<path d="M93.6264 25.2292C91.1704 18.7735 77.4018 16.6216 77.1785 16.6216C77.0296 16.6216 63.1866 18.8477 60.7306 25.2292C58.2746 31.6849 50.8321 49.9389 51.1298 54.8363C51.4275 59.808 59.311 63.9633 59.311 63.9633L64.4394 62.9712C64.4394 62.9712 56.4139 56.3946 55.1487 52.6844C53.8835 48.9743 58.5723 44.9673 59.7631 44.0026C64.9728 35.1724 70.0337 29.7556 73.3084 26.7132C75.4667 24.7098 78.8158 24.7098 80.9742 26.7132C84.2489 29.7556 89.3097 35.1724 94.5195 44.0026C95.7103 44.9673 100.399 48.9743 99.1338 52.6844C97.8686 56.3946 91.865 62.0812 91.865 62.0812L95.8786 62.7487C95.8786 62.7487 102.855 59.7337 103.153 54.8363C103.525 49.9389 96.0824 31.6849 93.6264 25.2292Z" fill="url(#paint8_linear)"/>
<path d="M115.21 147.22C115.433 143.435 112.531 140.17 108.735 139.948C104.939 139.725 101.665 142.619 101.441 146.403C101.218 150.188 104.121 153.453 107.916 153.675C111.712 153.898 114.987 151.004 115.21 147.22Z" fill="#EEBCC5"/>
<path d="M47.1854 161.541H109.926C112.307 161.541 114.391 159.908 114.912 157.608L120.196 134.976C121.015 130.598 117.591 126.591 113.126 126.591L41.2314 127.11C36.766 127.11 33.4168 131.192 34.3099 135.57L42.3478 158.053C43.0921 160.131 45.0271 161.541 47.1854 161.541Z" fill="white"/>
<path d="M85.5885 126.814L41.3057 127.185C36.8402 127.185 33.4911 131.266 34.3841 135.644L42.422 158.127C43.1663 160.131 45.1013 161.541 47.2597 161.541H58.4978L85.5885 126.814Z" fill="url(#paint9_linear)"/>
<path d="M76.5087 152.785C80.0025 152.785 82.8348 150.194 82.8348 146.997C82.8348 143.8 80.0025 141.209 76.5087 141.209C73.0149 141.209 70.1826 143.8 70.1826 146.997C70.1826 150.194 73.0149 152.785 76.5087 152.785Z" fill="#B7C4D9"/>
<path opacity="0.4" d="M65.8816 44.8408L74.1604 45.598C75.2274 45.7193 75.8451 46.7541 75.3922 47.7341C74.7079 49.3042 73.1298 51.2969 69.6611 50.9191C65.7876 50.5875 64.7839 47.928 64.5385 46.1766C64.439 45.5028 65.0788 44.7998 65.8816 44.8408Z" fill="#D7EAEA"/>
<path d="M68.0864 45.0203L69.725 50.9893L71.2706 50.9344L69.6921 45.1023L68.0864 45.0203Z" fill="#E6EFEF"/>
<path d="M65.8273 45.0534L74.7386 45.5085C75.8884 45.5672 76.6237 46.6823 76.2091 47.7388C75.5422 49.5007 73.9189 51.6448 70.1819 51.4539C66.0138 51.2411 64.7882 48.4486 64.4491 46.6353C64.3495 45.7682 64.9649 45.0094 65.8273 45.0534Z" stroke="#EEBB2F" stroke-width="2" stroke-miterlimit="10"/>
<path opacity="0.4" d="M79.0998 45.465L87.4275 44.7765C88.4685 44.6904 89.27 45.6488 89.0307 46.6933C88.6091 48.3912 87.4151 50.5596 83.9678 50.8893C80.1296 51.227 78.6462 48.788 78.0254 47.1112C77.749 46.3371 78.3194 45.5458 79.0998 45.465Z" fill="#D7EAEA"/>
<path d="M81.3116 45.2903L83.966 50.8244L85.5242 50.533L82.8711 45.0638L81.3116 45.2903Z" fill="#E6EFEF"/>
<path d="M79.0998 45.465L87.4275 44.7765C88.4685 44.6904 89.27 45.6488 89.0307 46.6933C88.6091 48.3912 87.4151 50.5596 83.9678 50.8893C80.1296 51.227 78.6462 48.788 78.0254 47.1112C77.749 46.3371 78.3194 45.5458 79.0998 45.465Z" stroke="#EEBB2F" stroke-width="2" stroke-miterlimit="10"/>
</g>
<defs>
<linearGradient id="paint0_linear" x1="9.88598" y1="162.916" x2="136.643" y2="-1.2188" gradientUnits="userSpaceOnUse">
<stop stop-color="#FFB300"/>
<stop offset="0.0001" stop-color="#F7FDFF"/>
<stop offset="1" stop-color="#F1F6F9"/>
</linearGradient>
<linearGradient id="paint1_linear" x1="54.1067" y1="47.3489" x2="100.481" y2="47.3489" gradientUnits="userSpaceOnUse">
<stop stop-color="#3F67FD"/>
<stop offset="1" stop-color="#4197FF"/>
</linearGradient>
<linearGradient id="paint2_linear" x1="20.0223" y1="110.024" x2="132.619" y2="110.024" gradientUnits="userSpaceOnUse">
<stop stop-color="#E9CE31"/>
<stop offset="1" stop-color="#EFB52E"/>
</linearGradient>
<linearGradient id="paint3_linear" x1="72.0143" y1="114.617" x2="84.4536" y2="114.617" gradientUnits="userSpaceOnUse">
<stop stop-color="#3F67FD"/>
<stop offset="1" stop-color="#4197FF"/>
</linearGradient>
<linearGradient id="paint4_linear" x1="71.7943" y1="62.0466" x2="84.56" y2="62.0466" gradientUnits="userSpaceOnUse">
<stop stop-color="#FFDAA1"/>
<stop offset="1" stop-color="#EFBB6F"/>
</linearGradient>
<linearGradient id="paint5_linear" x1="87.1583" y1="39.0667" x2="96.3856" y2="39.0667" gradientUnits="userSpaceOnUse">
<stop stop-color="#2961BB"/>
<stop offset="1" stop-color="#0A3E8C"/>
</linearGradient>
<linearGradient id="paint6_linear" x1="63.7205" y1="31.1506" x2="90.9024" y2="31.1506" gradientUnits="userSpaceOnUse">
<stop stop-color="#2961BB"/>
<stop offset="1" stop-color="#0A3E8C"/>
</linearGradient>
<linearGradient id="paint7_linear" x1="57.7118" y1="39.0667" x2="66.9392" y2="39.0667" gradientUnits="userSpaceOnUse">
<stop stop-color="#2961BB"/>
<stop offset="1" stop-color="#0A3E8C"/>
</linearGradient>
<linearGradient id="paint8_linear" x1="51.199" y1="40.6538" x2="103.219" y2="40.6538" gradientUnits="userSpaceOnUse">
<stop stop-color="#E9CE31"/>
<stop offset="1" stop-color="#EFB52E"/>
</linearGradient>
<linearGradient id="paint9_linear" x1="67.0893" y1="143.923" x2="2.09818" y2="145.463" gradientUnits="userSpaceOnUse">
<stop stop-color="#484EC2" stop-opacity="0"/>
<stop offset="1" stop-color="#444BCC" stop-opacity="0.5"/>
</linearGradient>
<clipPath id="clip0">
<rect width="165" height="170" fill="white"/>
</clipPath>
</defs>
</svg>
