<svg width="402" height="622" viewBox="0 0 402 622" fill="none" xmlns="http://www.w3.org/2000/svg">
<path d="M0 9.99999C0 4.47715 4.47715 0 10 0H402V622H10C4.47716 622 0 617.523 0 612V9.99999Z" fill="url(#paint0_linear)"/>
<mask id="mask0" mask-type="alpha" maskUnits="userSpaceOnUse" x="0" y="0" width="402" height="622">
<path d="M0 9.99999C0 4.47715 4.47715 0 10 0H402V622H10C4.47716 622 0 617.523 0 612V9.99999Z" fill="url(#paint1_linear)"/>
</mask>
<g mask="url(#mask0)">
</g>
<mask id="mask1" mask-type="alpha" maskUnits="userSpaceOnUse" x="0" y="0" width="402" height="622">
<path d="M0 9.99999C0 4.47715 4.47715 0 10 0H402V622H10C4.47716 622 0 617.523 0 612V9.99999Z" fill="url(#paint2_linear)"/>
</mask>
<g mask="url(#mask1)">
<ellipse opacity="0.5" cy="605" rx="310" ry="297" fill="url(#paint3_linear)"/>
</g>
<defs>
<linearGradient id="paint0_linear" x1="201" y1="0" x2="201" y2="622" gradientUnits="userSpaceOnUse">
<stop stop-color="#308EFF"/>
<stop offset="1" stop-color="#4C9DFF"/>
</linearGradient>
<linearGradient id="paint1_linear" x1="0" y1="322.563" x2="402" y2="322.563" gradientUnits="userSpaceOnUse">
<stop stop-color="#308EFF"/>
<stop offset="1" stop-color="#4C9DFF"/>
</linearGradient>
<linearGradient id="paint2_linear" x1="0" y1="322.563" x2="402" y2="322.563" gradientUnits="userSpaceOnUse">
<stop stop-color="#308EFF"/>
<stop offset="1" stop-color="#4C9DFF"/>
</linearGradient>
<linearGradient id="paint3_linear" x1="-310" y1="616.042" x2="310" y2="616.042" gradientUnits="userSpaceOnUse">
<stop stop-color="#0066FF"/>
<stop offset="1" stop-color="#4C9DFF"/>
</linearGradient>
</defs>
</svg>
