<svg width="14" height="14" viewBox="0 0 14 14" fill="none" xmlns="http://www.w3.org/2000/svg">
<path d="M14 8.58339V14H10.9993V8.94616C10.9993 7.6766 10.5653 6.81017 9.4792 6.81017C8.65007 6.81017 8.15666 7.39408 7.93958 7.95891C7.86042 8.16084 7.84005 8.44189 7.84005 8.72455V14H4.83839C4.83839 14 4.87881 5.44046 4.83839 4.55362H7.83976V5.89261C7.83367 5.90262 7.82576 5.91342 7.82003 5.92313H7.83976V5.89261C8.23852 5.24987 8.95066 4.3317 10.5447 4.3317C12.5195 4.33167 14 5.68183 14 8.58339ZM1.69852 0C0.671654 0 0 0.704868 0 1.63179C0 2.53852 0.652223 3.26478 1.65868 3.26478H1.67873C2.72548 3.26478 3.37647 2.53865 3.37647 1.63179C3.35674 0.704868 2.72548 0 1.69852 0ZM0.178272 14H3.1788V4.55362H0.178272V14Z" fill="#127BB7"/>
</svg>
