<svg class="lds-message" width="100%" height="100%" xmlns="http://www.w3.org/2000/svg" xmlns:xlink="http://www.w3.org/1999/xlink" viewBox="0 0 100 100" preserveAspectRatio="xMidYMid" style="background: none;"><g transform="translate(25 50)">
    <circle cx="0" cy="0" r="6" fill="#ffb300" transform="scale(0.966961 0.966961)">
        <animateTransform attributeName="transform" type="scale" begin="-0.3333333333333333s" calcMode="spline" keySplines="0.3 0 0.7 1;0.3 0 0.7 1" values="0;1;0" keyTimes="0;0.5;1" dur="1s" repeatCount="indefinite"></animateTransform>
    </circle>
</g><g transform="translate(50 50)">
    <circle cx="0" cy="0" r="6" fill="#ffb300" transform="scale(0.597389 0.597389)">
        <animateTransform attributeName="transform" type="scale" begin="-0.16666666666666666s" calcMode="spline" keySplines="0.3 0 0.7 1;0.3 0 0.7 1" values="0;1;0" keyTimes="0;0.5;1" dur="1s" repeatCount="indefinite"></animateTransform>
    </circle>
</g><g transform="translate(75 50)">
    <circle cx="0" cy="0" r="6" fill="#ffb300" transform="scale(0.146741 0.146741)">
        <animateTransform attributeName="transform" type="scale" begin="0s" calcMode="spline" keySplines="0.3 0 0.7 1;0.3 0 0.7 1" values="0;1;0" keyTimes="0;0.5;1" dur="1s" repeatCount="indefinite"></animateTransform>
    </circle>
</g></svg>