<svg width="146" height="22" viewBox="0 0 146 22" fill="none" xmlns="http://www.w3.org/2000/svg">
<path d="M11.945 21.9937L27.6312 5.22125L21.7973 3.13305e-05L6.11107 16.7725L11.945 21.9937Z" fill="#004BFF"/>
<path d="M17.2738 16.2927L5.33728 5.60986L-9.16059e-05 11.3169L11.9364 21.9997L17.2738 16.2927Z" fill="#58EDFF"/>
<path d="M17.2699 16.293L11.4185 11.0561L6.08109 16.7631L11.9326 22L17.2699 16.293Z" fill="#00BBFF"/>
<path d="M17.8072 15.7135L11.9674 10.487L11.4331 11.0583L17.2729 16.2847L17.8072 15.7135Z" fill="#0042E4"/>
<path d="M40.58 19.126C39.704 19.126 38.912 18.976 38.204 18.676C37.508 18.376 36.956 17.944 36.548 17.38C36.14 16.816 35.93 16.15 35.918 15.382H38.618C38.654 15.91 38.834 16.33 39.158 16.642C39.494 16.954 39.95 17.11 40.526 17.11C41.114 17.11 41.576 16.966 41.912 16.678C42.248 16.39 42.416 16.006 42.416 15.526C42.416 15.154 42.302 14.848 42.074 14.608C41.846 14.368 41.558 14.182 41.21 14.05C40.874 13.906 40.406 13.75 39.806 13.582C38.99 13.342 38.324 13.108 37.808 12.88C37.304 12.64 36.866 12.286 36.494 11.818C36.134 11.338 35.954 10.702 35.954 9.91C35.954 9.166 36.14 8.518 36.512 7.966C36.884 7.414 37.406 6.994 38.078 6.706C38.75 6.406 39.518 6.256 40.382 6.256C41.678 6.256 42.728 6.574 43.532 7.21C44.348 7.834 44.798 8.71 44.882 9.838H42.11C42.086 9.37 41.9 8.998 41.552 8.722C41.216 8.434 40.766 8.29 40.202 8.29C39.71 8.29 39.314 8.422 39.014 8.686C38.726 8.938 38.582 9.316 38.582 9.82C38.582 10.156 38.69 10.438 38.906 10.666C39.134 10.882 39.41 11.062 39.734 11.206C40.07 11.338 40.538 11.494 41.138 11.674C41.954 11.914 42.62 12.154 43.136 12.394C43.652 12.634 44.096 12.994 44.468 13.474C44.84 13.954 45.026 14.584 45.026 15.364C45.026 16.036 44.852 16.66 44.504 17.236C44.156 17.812 43.646 18.274 42.974 18.622C42.302 18.958 41.504 19.126 40.58 19.126ZM48.6688 7.84C48.2248 7.84 47.8528 7.702 47.5528 7.426C47.2648 7.138 47.1208 6.784 47.1208 6.364C47.1208 5.944 47.2648 5.596 47.5528 5.32C47.8528 5.032 48.2248 4.888 48.6688 4.888C49.1128 4.888 49.4788 5.032 49.7668 5.32C50.0668 5.596 50.2168 5.944 50.2168 6.364C50.2168 6.784 50.0668 7.138 49.7668 7.426C49.4788 7.702 49.1128 7.84 48.6688 7.84ZM49.9108 9.028V19H47.3908V9.028H49.9108ZM55.5145 11.098V15.922C55.5145 16.258 55.5925 16.504 55.7485 16.66C55.9165 16.804 56.1925 16.876 56.5765 16.876H57.7465V19H56.1625C54.0385 19 52.9765 17.968 52.9765 15.904V11.098H51.7885V9.028H52.9765V6.562H55.5145V9.028H57.7465V11.098H55.5145ZM69.009 13.78C69.009 14.116 68.985 14.428 68.937 14.716H61.647C61.695 15.448 61.941 16.024 62.385 16.444C62.829 16.864 63.381 17.074 64.041 17.074C64.977 17.074 65.643 16.672 66.039 15.868H68.757C68.469 16.828 67.917 17.62 67.101 18.244C66.285 18.856 65.283 19.162 64.095 19.162C63.135 19.162 62.271 18.952 61.503 18.532C60.747 18.1 60.153 17.494 59.721 16.714C59.301 15.934 59.091 15.034 59.091 14.014C59.091 12.982 59.301 12.076 59.721 11.296C60.141 10.516 60.729 9.916 61.485 9.496C62.241 9.076 63.111 8.866 64.095 8.866C65.043 8.866 65.889 9.07 66.633 9.478C67.389 9.886 67.971 10.462 68.379 11.206C68.799 11.95 69.009 12.808 69.009 13.78ZM66.399 13.186C66.387 12.49 66.153 11.944 65.697 11.548C65.253 11.14 64.695 10.936 64.023 10.936C63.387 10.936 62.853 11.14 62.421 11.548C61.989 11.944 61.731 12.49 61.647 13.186H66.399ZM70.3804 14.014C70.3804 12.982 70.5904 12.082 71.0104 11.314C71.4304 10.534 72.0124 9.934 72.7564 9.514C73.5004 9.082 74.3524 8.866 75.3124 8.866C76.5484 8.866 77.5684 9.178 78.3724 9.802C79.1884 10.414 79.7344 11.278 80.0104 12.394H77.2924C77.1484 11.962 76.9024 11.626 76.5544 11.386C76.2184 11.134 75.7984 11.008 75.2944 11.008C74.5744 11.008 74.0044 11.272 73.5844 11.8C73.1644 12.316 72.9544 13.054 72.9544 14.014C72.9544 14.962 73.1644 15.7 73.5844 16.228C74.0044 16.744 74.5744 17.002 75.2944 17.002C76.3144 17.002 76.9804 16.546 77.2924 15.634H80.0104C79.7344 16.714 79.1884 17.572 78.3724 18.208C77.5564 18.844 76.5364 19.162 75.3124 19.162C74.3524 19.162 73.5004 18.952 72.7564 18.532C72.0124 18.1 71.4304 17.5 71.0104 16.732C70.5904 15.952 70.3804 15.046 70.3804 14.014ZM87.6525 8.884C88.4085 8.884 89.0805 9.052 89.6685 9.388C90.2565 9.712 90.7125 10.198 91.0365 10.846C91.3725 11.482 91.5405 12.25 91.5405 13.15V19H89.0205V13.492C89.0205 12.7 88.8225 12.094 88.4265 11.674C88.0305 11.242 87.4905 11.026 86.8065 11.026C86.1105 11.026 85.5585 11.242 85.1505 11.674C84.7545 12.094 84.5565 12.7 84.5565 13.492V19H82.0365V5.68H84.5565V10.27C84.8805 9.838 85.3125 9.502 85.8525 9.262C86.3925 9.01 86.9925 8.884 87.6525 8.884ZM103.387 13.78C103.387 14.116 103.363 14.428 103.315 14.716H96.0249C96.0729 15.448 96.3189 16.024 96.7629 16.444C97.2069 16.864 97.7589 17.074 98.4189 17.074C99.3549 17.074 100.021 16.672 100.417 15.868H103.135C102.847 16.828 102.295 17.62 101.479 18.244C100.663 18.856 99.6609 19.162 98.4729 19.162C97.5129 19.162 96.6489 18.952 95.8809 18.532C95.1249 18.1 94.5309 17.494 94.0989 16.714C93.6789 15.934 93.4689 15.034 93.4689 14.014C93.4689 12.982 93.6789 12.076 94.0989 11.296C94.5189 10.516 95.1069 9.916 95.8629 9.496C96.6189 9.076 97.4889 8.866 98.4729 8.866C99.4209 8.866 100.267 9.07 101.011 9.478C101.767 9.886 102.349 10.462 102.757 11.206C103.177 11.95 103.387 12.808 103.387 13.78ZM100.777 13.186C100.765 12.49 100.531 11.944 100.075 11.548C99.6309 11.14 99.0729 10.936 98.4009 10.936C97.7649 10.936 97.2309 11.14 96.7989 11.548C96.3669 11.944 96.1089 12.49 96.0249 13.186H100.777ZM104.758 14.014C104.758 12.982 104.968 12.082 105.388 11.314C105.808 10.534 106.39 9.934 107.134 9.514C107.878 9.082 108.73 8.866 109.69 8.866C110.926 8.866 111.946 9.178 112.75 9.802C113.566 10.414 114.112 11.278 114.388 12.394H111.67C111.526 11.962 111.28 11.626 110.932 11.386C110.596 11.134 110.176 11.008 109.672 11.008C108.952 11.008 108.382 11.272 107.962 11.8C107.542 12.316 107.332 13.054 107.332 14.014C107.332 14.962 107.542 15.7 107.962 16.228C108.382 16.744 108.952 17.002 109.672 17.002C110.692 17.002 111.358 16.546 111.67 15.634H114.388C114.112 16.714 113.566 17.572 112.75 18.208C111.934 18.844 110.914 19.162 109.69 19.162C108.73 19.162 107.878 18.952 107.134 18.532C106.39 18.1 105.808 17.5 105.388 16.732C104.968 15.952 104.758 15.046 104.758 14.014ZM122.318 19L118.934 14.752V19H116.414V5.68H118.934V13.258L122.282 9.028H125.558L121.166 14.032L125.594 19H122.318ZM136.376 13.78C136.376 14.116 136.352 14.428 136.304 14.716H129.014C129.062 15.448 129.308 16.024 129.752 16.444C130.196 16.864 130.748 17.074 131.408 17.074C132.344 17.074 133.01 16.672 133.406 15.868H136.124C135.836 16.828 135.284 17.62 134.468 18.244C133.652 18.856 132.65 19.162 131.462 19.162C130.502 19.162 129.638 18.952 128.87 18.532C128.114 18.1 127.52 17.494 127.088 16.714C126.668 15.934 126.458 15.034 126.458 14.014C126.458 12.982 126.668 12.076 127.088 11.296C127.508 10.516 128.096 9.916 128.852 9.496C129.608 9.076 130.478 8.866 131.462 8.866C132.41 8.866 133.256 9.07 134 9.478C134.756 9.886 135.338 10.462 135.746 11.206C136.166 11.95 136.376 12.808 136.376 13.78ZM133.766 13.186C133.754 12.49 133.52 11.944 133.064 11.548C132.62 11.14 132.062 10.936 131.39 10.936C130.754 10.936 130.22 11.14 129.788 11.548C129.356 11.944 129.098 12.49 129.014 13.186H133.766ZM140.916 10.792C141.24 10.192 141.66 9.724 142.176 9.388C142.704 9.052 143.304 8.884 143.976 8.884V11.53H143.31C142.518 11.53 141.918 11.716 141.51 12.088C141.114 12.46 140.916 13.108 140.916 14.032V19H138.396V9.028H140.916V10.792Z" fill="#001659"/>
</svg>
