<svg width="129" height="99" viewBox="0 0 129 99" fill="none" xmlns="http://www.w3.org/2000/svg">
<path d="M97.0004 45.011C102 43.3668 105.6 38.5369 105.6 32.7821C105.6 25.6913 100 19.9365 93.1004 19.9365C86.2004 19.9365 80.6004 25.6913 80.6004 32.7821C80.6004 38.5369 84.2004 43.3668 89.2004 45.011C80.7004 46.8608 74.4004 54.6709 74.4004 63.8169V89.1997L111.9 73.4768V63.8169C111.9 54.6709 105.5 46.8608 97.0004 45.011Z" fill="#FFDA44" fill-opacity="0.5"/>
<path d="M36.8004 43.5724C41.5004 42.0309 44.9004 37.4065 44.9004 32.0627C44.9004 25.383 39.6004 19.9365 33.1004 19.9365C26.6004 19.9365 21.3004 25.383 21.3004 32.0627C21.3004 37.4065 24.7004 41.9281 29.4004 43.5724C21.5004 45.3194 15.4004 52.6156 15.4004 61.2478V71.8326L50.7004 89.7136V61.2478C50.7004 52.6156 44.7004 45.3194 36.8004 43.5724Z" fill="#FFECA1"/>
<path d="M67.2004 54.0541C72.5004 52.3071 76.3004 47.1689 76.3004 41.2085C76.3004 33.7067 70.4004 27.6436 63.1004 27.6436C55.8004 27.6436 49.9004 33.7067 49.9004 41.2085C49.9004 47.1689 53.7004 52.3071 59.0004 54.0541C50.1004 56.0066 43.4004 64.2278 43.4004 73.8877V87.4526H82.9004V73.8877C82.8004 64.2278 76.1004 56.0066 67.2004 54.0541Z" fill="#FFDA44"/>
<path d="M128.8 0L110.4 35.5565L123.5 34.3233C123.1 35.9676 122.7 37.6118 122.3 39.1533C120.1 46.9634 116.6 54.0541 112.3 60.22L110.6 62.4808L108.8 64.6389L107 66.7969C106.4 67.5163 105.7 68.1329 105.1 68.8522C102.5 71.4213 99.7 73.8877 96.7 75.943C93.7 77.9983 90.6 79.9508 87.3 81.3895C84.1 82.9309 80.7 84.1641 77.2 85.089C73.7 86.1167 70.2 86.6305 66.6 86.9388C63 87.2471 59.4 87.2471 55.8 86.9388C52.2 86.6305 48.6 85.9111 45.1 84.9862C44.2 84.7807 43.3 84.4724 42.5 84.1641C41.6 83.8558 40.8 83.5475 39.9 83.2392L37.3 82.2116L34.7 81.0812C27.9 77.8955 21.5 73.3739 15.9 67.7218C13 64.9472 10.4 61.7615 8 58.3702C7.4 57.5481 6.8 56.6232 6.2 55.8011L4.5 53.1292C4 52.2044 3.4 51.2795 2.8 50.3546C2.3 49.4297 1.8 48.4021 1.2 47.4772L0 47.991C2.1 56.5205 5.8 64.6389 10.9 71.7296C16.1 78.8204 22.6 84.7807 30 89.3024C37.4 93.824 45.7 96.8042 54.2 98.0373C62.7 99.2705 71.5 98.7567 79.9 96.4959C88.2 94.235 96.1 90.2272 103 84.8835C109.9 79.5397 115.6 72.7573 120 65.0499C124.3 57.4454 127.2 48.9159 128.3 40.0782C128.6 38.0229 128.8 33.9123 128.8 33.9123V0Z" fill="url(#paint0_linear)"/>
<defs>
<linearGradient id="paint0_linear" x1="0" y1="0" x2="145.52" y2="50.6759" gradientUnits="userSpaceOnUse">
<stop stop-color="#FF913D"/>
<stop offset="1" stop-color="#FF7A12"/>
</linearGradient>
</defs>
</svg>
