<svg width="74" height="60" viewBox="0 0 74 60" fill="none" xmlns="http://www.w3.org/2000/svg">
<path opacity="0.9" d="M31.7827 59.9847L73.5215 14.2402L57.9982 0.000143124L16.2594 45.7446L31.7827 59.9847Z" fill="#FF7018"/>
<path opacity="0.8" d="M45.9633 44.4352L14.2019 15.2993L-8.87039e-05 30.8643L31.7613 60.0001L45.9633 44.4352Z" fill="#FF6B1B"/>
</svg>
