<svg width="21" height="20" viewBox="0 0 21 20" fill="none" xmlns="http://www.w3.org/2000/svg">
<path d="M10.75 20C11.8824 20 12.8088 19.1 12.8088 18H8.69118C8.69118 19.1 9.61765 20 10.75 20ZM17.4412 14V8.5C17.4412 5.4 15.2794 2.9 12.2941 2.2V1.5C12.2941 0.7 11.5735 0 10.75 0C9.92647 0 9.20588 0.7 9.20588 1.5V2.2C6.22059 2.9 4.05882 5.4 4.05882 8.5V14L2 16V17H19.5V16L17.4412 14Z" fill="black"/>
<path fill-rule="evenodd" clip-rule="evenodd" d="M5.6 1.4L4.2 0C1.8 1.8 0.2 4.6 0 7.8H2C2.2 5.1 3.5 2.8 5.6 1.4V1.4Z" fill="black"/>
<path fill-rule="evenodd" clip-rule="evenodd" d="M19 7.8H21C20.8 4.6 19.3 1.8 16.9 0L15.5 1.4C17.5 2.8 18.8 5.1 19 7.8V7.8Z" fill="black"/>
</svg>
