<svg width="9" height="5" viewBox="0 0 9 5" fill="none" xmlns="http://www.w3.org/2000/svg">
<path fill-rule="evenodd" clip-rule="evenodd" d="M4.499 0L9 2.5V4.896L4.499 2.38L0 5V2.5L4.499 0Z" transform="translate(9 5) rotate(-180)" fill="#0066FF"/>
</svg>
