<svg width="280" height="276" viewBox="0 0 280 276" fill="none" xmlns="http://www.w3.org/2000/svg">
<path d="M221.442 5.27954e-05L10.7058 99.2898L221.442 232L221.442 5.27954e-05Z" fill="url(#paint0_linear)"/>
<defs>
<linearGradient id="paint0_linear" x1="63.1032" y1="294.839" x2="67.4728" y2="-2.26465" gradientUnits="userSpaceOnUse">
<stop stop-color="#FFB300"/>
<stop offset="1" stop-color="#FF571F"/>
</linearGradient>
</defs>
</svg>
