<svg width="19" height="22" viewBox="0 0 19 22" fill="none" xmlns="http://www.w3.org/2000/svg">
<path d="M18.9069 13.3631L15.5165 8L18.9391 2.5855C19.0074 2.47735 19.011 2.34155 18.9487 2.23025C18.886 2.11895 18.7678 2.05 18.6389 2.05H2.70804V1.35C2.70804 1.15645 2.54979 1 2.35402 1C2.15825 1 2 1.15645 2 1.35V2.4V12.55V13.6V21.65C2 21.8436 2.15825 22 2.35402 22C2.54979 22 2.70804 21.8436 2.70804 21.65V13.95H18.6389C18.6417 13.9503 18.6446 13.95 18.646 13.95C18.8418 13.95 19 13.7936 19 13.6C19 13.5087 18.9646 13.4257 18.9069 13.3631Z" fill="#0066FF"/>
<rect x="0.692383" y="0.34375" width="2.61539" height="21.6562" rx="1.30769" fill="#0066FF"/>
</svg>
