<svg width="9" height="9" viewBox="0 0 9 9" fill="none" xmlns="http://www.w3.org/2000/svg">
<g clip-path="url(#clip0)">
<path d="M4.93461 0.46673L5.94969 2.52355C6.02028 2.66661 6.15677 2.76573 6.31465 2.78863L8.58455 3.11848C8.98217 3.17631 9.14081 3.66479 8.8532 3.94508L7.21071 5.54608C7.09657 5.65741 7.04438 5.81792 7.07141 5.97505L7.45908 8.23575C7.52704 8.63169 7.1114 8.93357 6.75583 8.74677L4.72567 7.6795C4.58449 7.60534 4.41571 7.60534 4.27454 7.6795L2.24438 8.74677C1.88881 8.93375 1.47316 8.63169 1.54112 8.23575L1.92879 5.97505C1.95583 5.81792 1.90364 5.65741 1.78949 5.54608L0.147004 3.94508C-0.140606 3.6646 0.0180302 3.17612 0.415652 3.11848L2.68555 2.78863C2.84344 2.76573 2.97992 2.66661 3.05051 2.52355L4.06559 0.46673C4.24319 0.106467 4.75683 0.106467 4.93461 0.46673Z" fill="#50D166"/>
</g>
<defs>
<clipPath id="clip0">
<rect width="9" height="9" fill="white"/>
</clipPath>
</defs>
</svg>
