<svg width="14" height="12" viewBox="0 0 14 12" fill="none" xmlns="http://www.w3.org/2000/svg">
<path fill-rule="evenodd" clip-rule="evenodd" d="M0 6.69283H14V4.46191H0V6.69283ZM0 11.1547H14V8.92383H0V11.1547ZM0 0V2.23091H14V0H0Z" fill="#999999"/>
</svg>
