<?xml version="1.0" standalone="no"?>
<!DOCTYPE svg PUBLIC "-//W3C//DTD SVG 20010904//EN"
 "http://www.w3.org/TR/2001/REC-SVG-20010904/DTD/svg10.dtd">
<svg version="1.0" xmlns="http://www.w3.org/2000/svg"
 width="512.000000pt" height="512.000000pt" viewBox="0 0 512.000000 512.000000"
 preserveAspectRatio="xMidYMid meet">
<metadata>
Created by potrace 1.11, written by Peter Selinger 2001-2013
</metadata>
<g transform="translate(0.000000,512.000000) scale(0.100000,-0.100000)"
fill="#000000" stroke="none">
<path d="M3988 4547 c-20 -23 -65 -72 -100 -108 -55 -57 -238 -253 -307 -328
-20 -22 -209 -223 -291 -311 -58 -62 -261 -278 -297 -316 -21 -23 -88 -95
-149 -160 -61 -66 -126 -135 -144 -154 -83 -90 -259 -278 -290 -311 -19 -20
-93 -98 -164 -173 -71 -75 -132 -136 -135 -136 -3 0 -28 21 -56 46 -57 52
-166 149 -240 215 -28 24 -67 60 -89 79 -21 19 -48 44 -60 55 -12 11 -58 52
-101 90 -43 39 -86 77 -95 85 -9 8 -79 71 -155 140 -77 69 -145 129 -151 135
-62 57 -159 142 -169 147 -8 5 -35 -16 -76 -61 -35 -37 -111 -119 -169 -181
-58 -62 -123 -132 -145 -155 -22 -22 -88 -93 -146 -156 -59 -63 -122 -130
-140 -150 -19 -20 -88 -94 -154 -165 -66 -70 -130 -139 -142 -151 -26 -27 -32
-18 82 -118 37 -33 75 -67 84 -75 9 -9 56 -52 106 -95 50 -44 92 -82 95 -85 3
-3 48 -43 100 -90 52 -47 97 -87 100 -90 3 -3 43 -39 90 -80 46 -41 94 -84
106 -95 17 -17 62 -57 174 -155 22 -19 174 -157 210 -190 15 -14 54 -48 86
-76 33 -29 73 -65 89 -80 17 -16 48 -44 70 -63 34 -29 144 -127 234 -210 35
-32 159 -142 185 -164 12 -10 37 -33 56 -50 19 -18 78 -70 130 -117 52 -47
113 -102 135 -122 22 -21 44 -38 49 -38 5 0 25 17 44 38 32 34 226 242 282
302 50 53 268 286 300 320 75 81 247 265 275 295 32 34 241 257 295 315 59 64
264 283 295 315 46 49 254 272 321 344 32 35 75 80 94 100 19 21 85 91 146
157 142 151 154 164 300 320 67 71 136 145 154 164 78 84 261 279 322 344 70
73 78 89 54 103 -12 7 -114 97 -186 163 -15 14 -78 70 -140 125 -62 55 -127
114 -145 130 -17 17 -60 55 -96 87 -35 31 -76 67 -90 80 -32 28 -156 140 -185
165 -32 27 -185 166 -200 181 -17 16 -14 18 -56 -31z"/>
</g>
</svg>
