<svg width="91" height="76" viewBox="0 0 91 76" fill="none" xmlns="http://www.w3.org/2000/svg">
<path d="M46.6263 46.2211H41.9752C41.6821 45.3418 41.3225 44.4857 40.8994 43.6602L44.2097 40.3769C44.8515 39.7367 44.8515 38.7025 44.2097 38.0623L38.2511 32.1525C37.6056 31.5159 36.5628 31.5159 35.9173 32.1525L32.6069 35.4357C31.7895 35.0345 30.9429 34.6943 30.0745 34.4179V29.8049C30.0745 28.8984 29.3334 28.1633 28.4193 28.1633H19.9449C19.0308 28.1633 18.2897 28.8984 18.2897 29.8049V34.5985C17.4553 34.88 16.6422 35.22 15.8566 35.6163L12.4138 32.2183C11.7683 31.5818 10.7255 31.5818 10.08 32.2183L4.13794 38.1115C3.49614 38.7517 3.49614 39.786 4.13794 40.4262L7.6138 43.8736C7.22856 44.6324 6.8967 45.4167 6.6207 46.2211H1.65517C0.741104 46.2211 0 46.9561 0 47.8627V56.2185C0 57.1251 0.741104 57.8601 1.65517 57.8601H6.6207C6.88966 58.6752 7.21594 59.4707 7.59725 60.2405L4.13794 63.7207C3.49614 64.3609 3.49614 65.3951 4.13794 66.0354L10.0966 71.9452C10.7421 72.5817 11.7848 72.5817 12.4304 71.9452L15.8566 68.547C16.6424 68.9429 17.4555 69.2831 18.2897 69.5648V74.3583C18.2897 75.2649 19.0308 76 19.9449 76H28.3697C29.2838 76 30.0249 75.2649 30.0249 74.3583V69.6633C30.8932 69.3865 31.7396 69.0465 32.5573 68.6455L35.8676 71.9287C36.5132 72.5653 37.5559 72.5653 38.2014 71.9287L44.1601 66.0189C44.8019 65.3787 44.8019 64.3445 44.1601 63.7043L40.8497 60.421C41.2734 59.5957 41.633 58.7396 41.9256 57.8601H46.5766C47.4907 57.8601 48.2318 57.1251 48.2318 56.2185V47.8627C48.2322 46.975 47.5209 46.2478 46.6263 46.2211ZM44.9711 54.5769H40.7338C39.9596 54.5527 39.2719 55.064 39.0787 55.8081C38.7265 57.2265 38.1689 58.5867 37.4235 59.8465C37.0339 60.4916 37.1363 61.3169 37.6718 61.8492L40.6676 64.8206L37.0428 68.3993L34.0138 65.3951C33.4838 64.8667 32.6614 64.759 32.0111 65.1325C30.7459 65.87 29.3802 66.423 27.9559 66.7741C27.1993 66.9594 26.6752 67.6429 26.698 68.4157V72.7167H21.6V68.35C21.6244 67.5822 21.1089 66.9001 20.3586 66.7084C18.9683 66.3499 17.6363 65.7971 16.4028 65.0668C15.7523 64.6804 14.9202 64.782 14.3835 65.313L11.2386 68.4321L7.63036 64.8862L10.7586 61.7343C11.2914 61.2086 11.4 60.3929 11.0235 59.748C10.291 58.5342 9.73387 57.2246 9.36829 55.8574C9.17505 55.1133 8.48732 54.6019 7.71311 54.6261H3.34345V49.5043H7.86208C8.63629 49.5285 9.32401 49.0172 9.51725 48.2731C9.88387 46.9062 10.4408 45.5967 11.1724 44.3825C11.4954 43.7133 11.3257 42.9126 10.7586 42.429L7.63036 39.2771L11.2552 35.6983L14.4 38.8174C14.9367 39.3485 15.7688 39.45 16.4193 39.0636C17.6537 38.335 18.9855 37.7822 20.3752 37.422C21.1188 37.224 21.6263 36.5436 21.6 35.7804V31.4466H26.7145V35.7476C26.6918 36.5204 27.2158 37.2039 27.9725 37.3892C29.3967 37.7401 30.7625 38.2931 32.0276 39.0308C32.6779 39.4043 33.5003 39.2965 34.0304 38.7682L37.0594 35.7476L40.6842 39.3263L37.6718 42.314C37.1363 42.8463 37.0339 43.6717 37.4235 44.3168C38.1698 45.5761 38.7274 46.9366 39.0787 48.3552C39.2719 49.0992 39.9596 49.6106 40.7338 49.5864H44.9711V54.5769Z" fill="white"/>
<path d="M24.1657 42.9382C19.0467 42.9382 14.8967 47.0542 14.8967 52.1313C14.8967 57.2084 19.0467 61.3243 24.1657 61.3243C29.2847 61.3243 33.4347 57.2084 33.4347 52.1313C33.4256 47.0577 29.281 42.9473 24.1657 42.9382ZM24.1657 57.9916V58.0409C20.8748 58.0409 18.2071 55.395 18.2071 52.1311C18.2071 48.8671 20.8748 46.2213 24.1657 46.2213C27.4566 46.2213 30.1243 48.8671 30.1243 52.1311C30.097 55.3757 27.4374 57.9918 24.1657 57.9916Z" fill="white"/>
<path d="M90.9693 23.3164C90.9642 23.2903 90.9586 23.2644 90.9522 23.2388L89.1646 15.1456C88.9668 14.2625 88.0858 13.7045 87.1949 13.898L82.6597 14.883C82.1671 14.087 81.6139 13.3296 81.0046 12.6176L83.5866 8.71052C84.0788 7.9486 83.8568 6.93552 83.0901 6.44509L75.9728 1.89782C75.2046 1.40964 74.1832 1.62983 73.6887 2.3903L71.1397 6.33018C70.2532 6.1104 69.3513 5.95671 68.4418 5.87052L67.4321 1.27401C67.2273 0.390407 66.3389 -0.161176 65.4482 0.0421793C65.4252 0.0473093 65.4025 0.053055 65.3797 0.0592111L57.1038 1.84857C56.2136 2.04474 55.6508 2.91849 55.8459 3.80209L57.0045 8.46427C56.2467 8.91633 55.5221 9.42092 54.8362 9.97456L50.748 7.3806C49.9798 6.89243 48.9583 7.11261 48.4638 7.87309L43.8624 14.9158C43.3702 15.6777 43.5922 16.6908 44.359 17.1812L48.4969 19.8078C48.2888 20.6391 48.1394 21.4839 48.05 22.3359L43.2335 23.3865C42.343 23.5827 41.7804 24.4565 41.9755 25.3401L43.7797 33.5481C43.9775 34.4313 44.8584 34.9893 45.7493 34.7958L50.5659 33.7615C51.0407 34.4865 51.5662 35.1776 52.1383 35.83L49.49 39.934C48.9978 40.6959 49.2198 41.709 49.9866 42.1994L57.0707 46.7139C57.8389 47.202 58.8604 46.9819 59.3549 46.2214L61.97 42.1666C62.8237 42.3868 63.6921 42.5458 64.5687 42.6427L65.5949 47.3213C65.7614 48.0914 66.456 48.6356 67.2501 48.6181H67.5976L75.8735 46.8452C76.7131 46.5774 77.1935 45.7039 76.9659 44.8588L75.9563 40.2623C76.7429 39.8082 77.4952 39.2979 78.2073 38.7356L82.2294 41.2965C82.9976 41.7847 84.019 41.5645 84.5135 40.8041L89.0653 33.7615C89.5738 33.0082 89.3704 31.9886 88.6109 31.4842C88.5917 31.4713 88.572 31.459 88.5522 31.4469L84.6294 28.9516C84.8642 28.0569 85.0301 27.146 85.1259 26.2265L89.6611 25.2416C90.5584 25.0682 91.1442 24.2063 90.9693 23.3164ZM83.239 23.3537C82.5044 23.5093 81.9675 24.1361 81.9315 24.8804C81.8806 26.3503 81.6128 27.8049 81.137 29.1979C80.8961 29.9118 81.1759 30.6969 81.8156 31.1021L85.3908 33.3676L82.6266 37.6357L79.0183 35.3375C78.3826 34.9339 77.5519 35.0081 76.999 35.5181C75.9209 36.501 74.7058 37.3249 73.3908 37.9641C72.7053 38.2949 72.3362 39.0471 72.497 39.7863L73.4239 43.9888L68.4583 45.0723L67.5149 40.8041C67.3581 40.0754 66.726 39.5429 65.9756 39.5072C64.5381 39.4442 63.1171 39.1789 61.7549 38.7192C61.584 38.6634 61.405 38.6357 61.2252 38.6371C60.6625 38.6382 60.1388 38.9226 59.8349 39.3923L57.4349 43.1023L53.1314 40.3608L55.4487 36.5851C55.8556 35.9545 55.7807 35.1306 55.2666 34.5823C54.3027 33.5448 53.4891 32.3791 52.85 31.1185C52.5111 30.4451 51.7539 30.0866 51.0128 30.2485L46.61 31.2006L45.5176 26.2758L49.9204 25.3236C50.6609 25.1665 51.1992 24.531 51.228 23.7805C51.3327 22.3552 51.6391 20.9514 52.1383 19.6108C52.3707 18.9017 52.092 18.1264 51.4597 17.723L47.6859 15.3262L50.45 11.058L54.0914 13.3891C54.7309 13.8014 55.5718 13.7267 56.1273 13.2085C57.1738 12.2275 58.3551 11.3985 59.6363 10.7461C60.3018 10.4065 60.6548 9.66614 60.4969 8.94034L59.5535 4.67215L64.519 3.58868L65.4459 7.79121C65.6125 8.56133 66.307 9.10553 67.1011 9.08809C68.5641 9.12667 70.0136 9.37537 71.4045 9.82681C72.1196 10.0573 72.9012 9.78085 73.308 9.15375L75.6252 5.57503L79.9287 8.31653L77.628 11.8624C77.2167 12.5004 77.2988 13.3345 77.8266 13.8816C78.8146 14.9558 79.6397 16.1669 80.2763 17.4767C80.6152 18.1502 81.3724 18.5089 82.1135 18.3468L86.2515 17.4603L87.3439 22.3852L83.239 23.3537Z" fill="white"/>
<path d="M75.5587 22.3687C74.6438 18.1374 70.8682 15.1183 66.5049 15.1292C61.3859 15.1273 57.2345 19.2416 57.2324 24.3187C57.2304 29.3958 61.3788 33.5132 66.4979 33.5153C71.6169 33.5171 75.7683 29.4028 75.7704 24.3257C75.7706 23.6676 75.6996 23.0116 75.5587 22.3687ZM67.7463 30.1007H67.7629C64.5549 30.7454 61.4107 28.7466 60.6622 25.5863C59.9649 22.396 62 19.2474 65.2139 18.5437C65.6329 18.4555 66.0601 18.4116 66.4884 18.4124C69.7793 18.4077 72.4509 21.0497 72.4557 24.3136C72.4598 27.1031 70.4966 29.5157 67.7463 30.1007Z" fill="white"/>
</svg>
