<svg width="16" height="16" viewBox="0 0 16 16" fill="none" xmlns="http://www.w3.org/2000/svg">
<path fill-rule="evenodd" clip-rule="evenodd" d="M13.9877 8.84422C13.9877 8.60301 14.0693 8.36181 14.0693 8.0402C14.0693 7.71859 14.0693 7.47739 13.9877 7.23618L15.7016 5.86935C15.8648 5.70854 15.8648 5.54774 15.7832 5.38693L14.1509 2.57286C14.0693 2.49246 13.9061 2.41206 13.6613 2.49246L11.6209 3.29648C11.2129 2.97487 10.7232 2.73367 10.2335 2.49246L9.90709 0.40201C9.9887 0.160804 9.74387 0 9.58064 0H6.31616C6.15293 0 5.90809 0.160804 5.90809 0.321608L5.58165 2.49246C5.09197 2.65327 4.68391 2.97487 4.19424 3.29648L2.23555 2.49246C1.99071 2.41206 1.82749 2.49246 1.66426 2.65327L0.0320169 5.46734C-0.0495953 5.54774 0.0320169 5.78894 0.195241 5.94975L1.9091 7.23618C1.9091 7.47739 1.82748 7.71859 1.82748 8.0402C1.82748 8.36181 1.82749 8.60301 1.9091 8.84422L0.195241 10.2111C0.0320169 10.3719 0.0320169 10.5327 0.113629 10.6935L1.74587 13.5075C1.82748 13.5879 1.99071 13.6683 2.23555 13.5879L4.27585 12.7839C4.68391 13.1055 5.17358 13.3467 5.66326 13.5879L5.98971 15.6784C5.98971 15.8392 6.15293 16 6.39777 16H9.66226C9.82548 16 10.0703 15.8392 10.0703 15.6784L10.3968 13.5879C10.8864 13.3467 11.3761 13.1055 11.7842 12.7839L13.8245 13.5879C13.9877 13.6683 14.2325 13.5879 14.3141 13.4271L15.9464 10.6131C16.028 10.4523 16.028 10.2111 15.8648 10.1307L13.9877 8.84422ZM7.94844 10.8541C6.39781 10.8541 5.09201 9.56762 5.09201 8.03998C5.09201 6.51234 6.39781 5.22591 7.94844 5.22591C9.49907 5.22591 10.8049 6.51234 10.8049 8.03998C10.8049 9.56762 9.49907 10.8541 7.94844 10.8541Z" fill="#999999"/>
</svg>
