<svg width="44" height="32" viewBox="0 0 44 32" fill="none" xmlns="http://www.w3.org/2000/svg">
<path fill-rule="evenodd" clip-rule="evenodd" d="M27.644 31.002H36.858L43.002 18.599V0H24.572V18.599H33.786L27.644 31.002ZM3.073 31.002H12.286L18.431 18.599V0H0V18.599H9.214L3.073 31.002Z" fill="#0066FF"/>
</svg>
