<svg xmlns="http://www.w3.org/2000/svg" width="20" height="20" viewBox="0 0 20 20">
    <path fill="#004BFF" fill-rule="nonzero" d="M8.958 13.4h2.084c-.041.954-.183 1.839-.41 2.536-.278.852-.574 1.074-.63 1.083H10c-.06-.01-.355-.23-.633-1.083-.227-.697-.369-1.582-.41-2.536zm3.257-1.172c-.049-1.206-.25-2.406-.616-3.304a4.218 4.218 0 0 1 2.566 3.304h-1.95zM15.845 0H20v4.531h-4.156V0zM0 0h14.672v4.531H0V0zm3.364 2.813V1.655H2.207v1.157h1.157zm2.096 0V1.655H4.304v1.157H5.46zm2.097 0V1.655H6.4v1.157h1.157zM10 8.607c.06.01.355.231.633 1.083.227.697.369 1.582.41 2.537H8.958c.041-.955.183-1.84.41-2.537.278-.852.574-1.074.63-1.083H10zM0 5.703h20V20H0V5.703zm10 12.488a5.384 5.384 0 0 0 5.378-5.377A5.384 5.384 0 0 0 10 7.436a5.384 5.384 0 0 0-5.378 5.378A5.384 5.384 0 0 0 10 18.19zm2.215-4.791h1.95a4.218 4.218 0 0 1-2.566 3.303c.366-.897.567-2.097.616-3.303zm-4.43-1.172h-1.95a4.218 4.218 0 0 1 2.566-3.304c-.366.898-.567 2.098-.616 3.304zm0 1.172c.049 1.206.25 2.406.616 3.303A4.218 4.218 0 0 1 5.835 13.4h1.95z"/>
</svg>
