<svg xmlns="http://www.w3.org/2000/svg" width="165" height="90" viewBox="0 0 165 90">
    <g fill="none" fill-rule="evenodd">
        <path fill="#3D5C6B" d="M0 90h165v-1H0z"/>
        <path fill="#0286BF" d="M124.115 89.108H8.761a3.65 3.65 0 0 1-3.65-3.65V4.75A3.65 3.65 0 0 1 8.76 1.1h115.354a3.65 3.65 0 0 1 3.65 3.65v80.707a3.65 3.65 0 0 1-3.65 3.65z"/>
        <path fill="#FFF" d="M132.115 88.818H16.761a3.65 3.65 0 0 1-3.65-3.65V4.75a3.65 3.65 0 0 1 3.65-3.65h115.354a3.65 3.65 0 0 1 3.65 3.65v80.418a3.65 3.65 0 0 1-3.65 3.65"/>
        <path stroke="#495C6A" d="M132.115 88.818H16.761a3.65 3.65 0 0 1-3.65-3.65V4.75a3.65 3.65 0 0 1 3.65-3.65h115.354a3.65 3.65 0 0 1 3.65 3.65v80.418a3.65 3.65 0 0 1-3.65 3.65z"/>
        <path fill="#D0DDE2" d="M61.11 22.02h30.704V19.1H61.11zM69.11 27.02h14.602V24.1H69.111z"/>
        <path fill="#FFF" d="M26.11 83.056h101.726V8.1H26.111z"/>
        <path fill="#0087C2" d="M26 38.116h101.665V8H26z"/>
        <path stroke="#0087C2" d="M26.11 83.056h101.726V8.1H26.111z"/>
        <path fill="#D0DDE2" d="M34 64.92h23.363V62H34zM60 21h34v-3H60zM66 27h23v-3H66zM34.11 71.02h23.363V68.1H34.111zM34.11 76.02h14.602V73.1H34.111zM64.11 65.02h23.363V62.1H64.111zM64.11 71.02h23.363V68.1H64.111zM64.11 76.02h14.602V73.1H64.111zM96.11 65.02h23.363V62.1H96.111zM96.11 71.02h23.363V68.1H96.111zM96.11 76.02h14.602V73.1H96.111z"/>
        <path fill="#0087C2" d="M44.827 44.1a6.717 6.717 0 1 0 6.717 6.717h-6.717V44.1z"/>
        <path fill="#ECF3FA" d="M52.827 49.817a6.717 6.717 0 0 0-6.716-6.717v6.717h6.716z"/>
        <path fill="#0087C2" d="M75.827 44.1a6.717 6.717 0 1 0 6.717 6.717h-6.717V44.1z"/>
        <path fill="#ECF3FA" d="M82.827 49.817a6.717 6.717 0 0 0-6.716-6.717v6.717h6.716z"/>
        <path fill="#0087C2" d="M106.827 44.1a6.717 6.717 0 1 0 6.717 6.717h-6.717V44.1z"/>
        <path fill="#ECF3FA" d="M114.827 49.817a6.717 6.717 0 0 0-6.716-6.717v6.717h6.716z"/>
        <path fill="#D0DDE2" d="M16.11 45.69a3.59 3.59 0 1 0 7.18 0 3.59 3.59 0 0 0-7.18 0"/>
        <path fill="#0087C2" d="M18.11 45.988a1.888 1.888 0 1 0 3.777 0 1.888 1.888 0 0 0-3.776 0"/>
        <path fill="#0286BF" d="M157.124 89.33H132.3a2.19 2.19 0 0 1-2.19-2.19V35.29c0-1.209.98-2.19 2.19-2.19h24.823c1.21 0 2.19.981 2.19 2.19v51.85c0 1.21-.98 2.19-2.19 2.19"/>
        <path fill="#FFF" d="M159.124 88.587H134.3a2.19 2.19 0 0 1-2.19-2.19V35.29c0-1.21.98-2.19 2.19-2.19h24.823c1.21 0 2.19.98 2.19 2.19v51.106c0 1.21-.98 2.19-2.19 2.19"/>
        <path stroke="#495C6A" d="M159.124 88.587H134.3a2.19 2.19 0 0 1-2.19-2.19V35.29c0-1.21.98-2.19 2.19-2.19h24.823c1.21 0 2.19.98 2.19 2.19v51.106c0 1.21-.98 2.19-2.19 2.19z"/>
        <path fill="#FFF" d="M158.838 79.734h-23.362a.365.365 0 0 1-.365-.365V40.465c0-.201.163-.365.365-.365h23.362c.202 0 .366.164.366.365V79.37a.365.365 0 0 1-.366.365"/>
        <path stroke="#0087C2" stroke-width=".5" d="M158.838 79.734h-23.362a.365.365 0 0 1-.365-.365V40.465c0-.201.163-.365.365-.365h23.362c.202 0 .366.164.366.365V79.37a.365.365 0 0 1-.366.365z"/>
        <path fill="#0087C2" d="M148.864 37.195h-6.206a.547.547 0 1 1 0-1.095h6.206a.548.548 0 0 1 0 1.095M151.11 36.648a.547.547 0 1 0 1.095 0 .547.547 0 0 0-1.094 0M145.11 84.108a2.008 2.008 0 1 0 4.016 0 2.008 2.008 0 0 0-4.015 0"/>
        <path fill="#D0DDE2" d="M138.11 66.02h17.335V63.1h-17.334zM138.11 71.02h17.335V68.1h-17.334zM138.11 76.02h17.335V73.1h-17.334z"/>
        <path fill="#0087C2" d="M145.827 46.1a6.717 6.717 0 1 0 6.717 6.717h-6.717V46.1z"/>
        <path fill="#ECF3FA" d="M153.827 51.817a6.717 6.717 0 0 0-6.716-6.717v6.717h6.716z"/>
    </g>
</svg>
