<svg xmlns="http://www.w3.org/2000/svg" width="10" height="7" viewBox="0 0 10 7">
    <g fill="#495C6A" fill-rule="evenodd">
        <path d="M5.104 7l1.088-1.142L1.296.718.21 1.86z"/>
        <path d="M10 1.857L8.912.715l-4.895 5.14 1.088 1.143z"/>
    </g>
</svg>
