<?xml version="1.0" encoding="iso-8859-1"?>
<!-- Generator: Adobe Illustrator 19.0.0, SVG Export Plug-In . SVG Version: 6.00 Build 0)  -->
<svg version="1.1" id="Capa_1" xmlns="http://www.w3.org/2000/svg" xmlns:xlink="http://www.w3.org/1999/xlink" x="0px" y="0px"
	 viewBox="0 0 512 512" style="enable-background:new 0 0 512 512;" xml:space="preserve">
<path style="fill:#F7A541;" d="M304,0h-96c-57.346,0-104,46.654-104,104v112c0,13.234,10.767,24,24,24s24-10.766,24-24V104
	c0-30.878,25.121-56,56-56h96c30.879,0,56,25.122,56,56v112c0,13.234,10.767,24,24,24s24-10.766,24-24V104
	C408,46.654,361.346,0,304,0z"/>
<g>
	<path style="fill:#F58E11;" d="M104,216c0,13.234,10.767,24,24,24s24-10.766,24-24v-33h-48V216z"/>
	<path style="fill:#F58E11;" d="M360,183v33c0,13.234,10.767,24,24,24s24-10.766,24-24v-33H360z"/>
</g>
<path style="fill:#8ED25E;" d="M448,512H64c-4.418,0-8-3.582-8-8V240c0-17.673,14.327-32,32-32h336c17.673,0,32,14.327,32,32v264
	C456,508.418,452.418,512,448,512z"/>
<g>
	<path style="fill:#71AD31;" d="M112,288H56v32h56c8.837,0,16-7.164,16-16S120.837,288,112,288z"/>
	<path style="fill:#71AD31;" d="M112,368H56v32h56c8.837,0,16-7.164,16-16S120.837,368,112,368z"/>
	<path style="fill:#71AD31;" d="M112,448H56v32h56c8.837,0,16-7.164,16-16S120.837,448,112,448z"/>
	<path style="fill:#71AD31;" d="M400,288h56v32h-56c-8.837,0-16-7.164-16-16S391.163,288,400,288z"/>
	<path style="fill:#71AD31;" d="M400,368h56v32h-56c-8.837,0-16-7.164-16-16S391.163,368,400,368z"/>
	<path style="fill:#71AD31;" d="M400,448h56v32h-56c-8.837,0-16-7.164-16-16S391.163,448,400,448z"/>
</g>
<path style="fill:#FDE8CF;" d="M256,256c-26.467,0-48,21.533-48,48s21.533,48,48,48c26.468,0,48-21.533,48-48S282.468,256,256,256z"
	/>
<path style="fill:#EEEBEA;" d="M296,360h-80c-13.233,0-24,10.767-24,24v88c0,4.418,3.582,8,8,8h112c4.418,0,8-3.582,8-8v-88
	C320,370.767,309.233,360,296,360z"/>
<path style="fill:#626178;" d="M257,256c-27.973,0-43.852,12.509-52.247,23.002c-9.111,11.389-11.5,22.942-11.598,23.429
	c-1.01,5.054,3.017,9.569,8.073,9.569h86.105l0.907,27.53c0,0,16.109-11.905,16.109-33.53C304.349,277.333,286.09,256,257,256z"/>
<polygon style="fill:#FDE8CF;" points="230.841,360 254.841,392 278.841,360 "/>
<g>
	<path style="fill:#D8D7DD;" d="M230.841,360l-6.634,19.902c-0.737,2.21,0.564,4.58,2.825,5.145L254.841,392L230.841,360z"/>
	<path style="fill:#D8D7DD;" d="M278.841,360l6.634,19.902c0.737,2.21-0.564,4.58-2.825,5.145L254.841,392L278.841,360z"/>
</g>
<g>
	<circle style="fill:#89889A;" cx="254.84" cy="408" r="6"/>
	<circle style="fill:#89889A;" cx="254.84" cy="434" r="6"/>
	<circle style="fill:#89889A;" cx="254.84" cy="460" r="6"/>
</g>
<g>
</g>
<g>
</g>
<g>
</g>
<g>
</g>
<g>
</g>
<g>
</g>
<g>
</g>
<g>
</g>
<g>
</g>
<g>
</g>
<g>
</g>
<g>
</g>
<g>
</g>
<g>
</g>
<g>
</g>
</svg>
