<svg xmlns="http://www.w3.org/2000/svg" width="500" height="14" viewBox="0 0 500 14">
    <g fill="none" fill-rule="evenodd">
        <path fill="#495C6A" d="M3 0h494a3 3 0 0 1 3 3v10.808H0V3a3 3 0 0 1 3-3z"/>
        <ellipse cx="8.5" cy="7.397" fill="#D8D8D8" rx="2.5" ry="2.466"/>
        <ellipse cx="16.5" cy="7.397" fill="#D8D8D8" rx="2.5" ry="2.466"/>
        <ellipse cx="24.5" cy="7.397" fill="#D8D8D8" rx="2.5" ry="2.466"/>
    </g>
</svg>
