<svg xmlns="http://www.w3.org/2000/svg" width="69" height="73" viewBox="0 0 69 73">
    <g fill="none" fill-rule="evenodd">
        <path fill="#0078B8" d="M34.211 72.358L68.5 52.188 34.231 31.679 0 52.352s34.257 20.052 34.211 20.006"/>
        <path fill="#019BDE" d="M34.211 55.358L68.5 35.188 34.231 14.679 0 35.352s34.257 20.052 34.211 20.006"/>
        <path fill="#0286BF" d="M68.5 35.19v7.87L34.23 62.623.003 43.248v-7.896l34.152 19.672z"/>
        <path fill="#B4C8E2" d="M34.211 41.358L68.5 21.188 34.231.679 0 21.352s34.257 20.052 34.211 20.006"/>
    </g>
</svg>
