<svg xmlns="http://www.w3.org/2000/svg" width="69" height="41" viewBox="0 0 69 41">
    <path fill="#B4C8E2" fill-rule="evenodd" d="M34.46 41L69 20.67 34.48 0 0 20.836S34.507 41.046 34.46 41"/>
</svg>
