<svg xmlns="http://www.w3.org/2000/svg" width="10" height="7" viewBox="0 0 10 7">
    <g fill="#495C6A" fill-rule="evenodd">
        <path d="M1.28 0L.193 1.142l4.897 5.14L6.176 5.14z"/>
        <path d="M4 5.14L5.088 6.28l4.895-5.14L8.895-.002z"/>
    </g>
</svg>
