<svg xmlns="http://www.w3.org/2000/svg" xmlns:xlink="http://www.w3.org/1999/xlink" width="120" height="101" viewBox="0 0 120 101">
    <defs>
        <path id="a" d="M0 82.078V.298h119.696v81.78z"/>
        <path id="c" d="M119.696 67.489V.299H0v67.19z"/>
        <path id="e" d="M46.848 4h-46V0h46z"/>
    </defs>
    <g fill="none" fill-rule="evenodd">
        <path fill="#898C8E" d="M44.16 97.16h31.375V80.035H44.16z"/>
        <g transform="translate(0 -.298)">
            <mask id="b" fill="#fff">
                <use xlink:href="#a"/>
            </mask>
            <path fill="#EEF3FA" d="M113.697 82.078H6a6 6 0 0 1-6-6V6.298a6 6 0 0 1 6-6h107.697a6 6 0 0 1 6 6v69.78a6 6 0 0 1-6 6" mask="url(#b)"/>
        </g>
        <g transform="translate(0 -.298)">
            <mask id="d" fill="#fff">
                <use xlink:href="#c"/>
            </mask>
            <path fill="#495C6A" d="M119.697 67.489H0V6.299a6 6 0 0 1 6-6h107.697a6 6 0 0 1 6 6v61.19z" mask="url(#d)"/>
        </g>
        <path fill="#0286BF" d="M111.848 59.22h-104V11.97a4 4 0 0 1 4-4h96a4 4 0 0 1 4 4v47.25z"/>
        <path fill="#1EA0F2" d="M7.848 59.22V11.97a4 4 0 0 1 4-4h96c1.105 0 2.105.448 2.829 1.172L7.848 59.22z"/>
        <path fill="#EDF0F3" d="M47.504 22.276l-2.829-2.828-14.142 14.14.002.003-.01.01 14.143 14.143 2.828-2.828L36.18 33.599zM72.192 44.915l2.83 2.828 14.141-14.142-.002-.002.01-.01-14.143-14.142-2.828 2.828 11.316 11.316zM56.845 45.595h-4l10.006-24h4z"/>
        <g transform="translate(36 96.702)">
            <mask id="f" fill="#fff">
                <use xlink:href="#e"/>
            </mask>
            <path fill="#EEF3FA" d="M44.848 4h-42a2 2 0 0 1 0-4h42a2 2 0 0 1 0 4" mask="url(#f)"/>
        </g>
        <path fill="#495C6A" d="M56.824 72.65a3.498 3.498 0 0 0 1.264 4.785 3.498 3.498 0 0 0 4.785-1.264 3.499 3.499 0 1 0-6.05-3.521"/>
    </g>
</svg>
