<svg xmlns="http://www.w3.org/2000/svg" width="143" height="92" viewBox="0 0 143 92">
    <g fill="none" fill-rule="evenodd">
        <path fill="#FFF" d="M18.788 90.9h103.426V.786H18.787z"/>
        <path stroke="#3D5C6B" stroke-width="1.5" d="M18.788 90.9h103.425V.786H18.788z"/>
        <path fill="#0087C2" d="M19.38 90.307H121.62v-4.699H19.38zM18.788 10.94h103.426V.756H18.787z"/>
        <path stroke="#3D5C6B" d="M18.788 10.939h103.425V.755H18.788z"/>
        <path fill="#E8F1F9" d="M20.655 5.847c0 .65.528 1.175 1.18 1.175.652 0 1.18-.526 1.18-1.175 0-.648-.528-1.175-1.18-1.175-.652 0-1.18.527-1.18 1.175M25.09 5.847c0 .65.527 1.175 1.18 1.175.651 0 1.18-.526 1.18-1.175 0-.648-.529-1.175-1.18-1.175-.653 0-1.18.527-1.18 1.175M29.522 5.847c0 .65.528 1.175 1.18 1.175.653 0 1.18-.526 1.18-1.175 0-.648-.527-1.175-1.18-1.175-.652 0-1.18.527-1.18 1.175"/>
        <path fill="#FFF" d="M58.707 60.699a21.248 21.248 0 0 0 18.232 10.293c11.731 0 21.241-9.47 21.241-21.151 0-11.682-9.51-21.152-21.241-21.152-5.55 0-10.604 2.12-14.388 5.592"/>
        <path stroke="#0087C2" stroke-linecap="round" stroke-width="3" d="M58.707 60.699a21.248 21.248 0 0 0 18.232 10.293c11.731 0 21.241-9.47 21.241-21.151 0-11.682-9.51-21.152-21.241-21.152-5.55 0-10.604 2.12-14.388 5.592"/>
        <path fill="#D0DDE2" d="M56.03 35.38H45.41a1.175 1.175 0 0 1 0-2.35h10.62a1.175 1.175 0 0 1 0 2.35M53.424 41.1H38.36a1.176 1.176 0 0 1 0-2.35h15.064a1.175 1.175 0 0 1 0 2.35M50.573 46.818h-19.83a1.175 1.175 0 0 1 0-2.35h19.83a1.175 1.175 0 0 1 0 2.35M50.523 52.537H25.99a1.175 1.175 0 0 1 0-2.35h24.533a1.175 1.175 0 0 1 0 2.35M52.883 58.255h-9.34a1.175 1.175 0 1 1 0-2.35h9.34a1.175 1.175 0 0 1 0 2.35M55.883 63.974H36.447a1.175 1.175 0 0 1 0-2.35h19.436a1.175 1.175 0 0 1 0 2.35"/>
        <path fill="#0087C2" d="M88.155 49.986l-9.873-3.865-.3 7.425z"/>
        <path fill="#0087C2" d="M73.006 49.775a3.925 3.925 0 0 0 3.933 3.917c2.172 0 3.934-1.754 3.934-3.917s-1.762-3.916-3.934-3.916a3.925 3.925 0 0 0-3.933 3.916"/>
        <path fill="#FFF" d="M75.272 49.775c0 .918.746 1.66 1.667 1.66.92 0 1.667-.742 1.667-1.66 0-.918-.746-1.661-1.667-1.661-.92 0-1.667.743-1.667 1.661"/>
        <path fill="#0087C2" d="M77.068 37.391a.77.77 0 0 1-.771-.77v-3.064a.77.77 0 1 1 1.541 0v3.063c0 .426-.345.771-.77.771M68.324 40.84l-.177.175a.648.648 0 0 1-.913 0l-2.356-2.345a.643.643 0 0 1 0-.91l.176-.176a.648.648 0 0 1 .913 0l2.357 2.347a.641.641 0 0 1 0 .909M64.502 49.647a.767.767 0 0 1-.768.767h-3.089a.767.767 0 1 1 0-1.534h3.09c.424 0 .767.344.767.767M67.966 58.354l.176.175a.641.641 0 0 1 0 .91l-2.356 2.346a.648.648 0 0 1-.914 0l-.176-.175a.643.643 0 0 1 0-.91l2.356-2.346a.648.648 0 0 1 .914 0M76.81 62.16c.426 0 .772.345.772.77v3.063a.77.77 0 1 1-1.542 0V62.93a.77.77 0 0 1 .77-.77M85.554 58.71l.177-.175a.646.646 0 0 1 .913 0L89 60.881a.643.643 0 0 1 0 .91l-.176.175a.648.648 0 0 1-.914 0l-2.356-2.346a.641.641 0 0 1 0-.91M89.376 49.903c0-.423.344-.767.768-.767h3.089a.767.767 0 1 1 0 1.534h-3.09a.768.768 0 0 1-.767-.767M85.912 41.196l-.175-.175a.64.64 0 0 1 0-.91l2.355-2.346a.648.648 0 0 1 .913 0l.177.175a.643.643 0 0 1 0 .91l-2.356 2.346a.648.648 0 0 1-.914 0"/>
        <path fill="#495C6A" d="M0 91h143v1H0z"/>
    </g>
</svg>
