<svg xmlns="http://www.w3.org/2000/svg" width="15" height="15" viewBox="0 0 15 15">
    <g fill="#495C6A" fill-rule="evenodd">
        <path d="M1.666 0L.002 1.667 13.337 15l1.665-1.666z"/>
        <path d="M13.335 0L0 13.334 1.665 15 15.001 1.667z"/>
    </g>
</svg>
