<?xml version="1.0" encoding="UTF-8" standalone="no"?>
<svg width="10px" height="6px" viewBox="0 0 10 6" version="1.1" xmlns="http://www.w3.org/2000/svg" xmlns:xlink="http://www.w3.org/1999/xlink" xmlns:sketch="http://www.bohemiancoding.com/sketch/ns">
    <!-- Generator: Sketch 3.2.2 (9983) - http://www.bohemiancoding.com/sketch -->
    <title>dropdown-arrow</title>
    <desc>Created with Sketch.</desc>
    <defs></defs>
    <g id="Page-1" stroke="none" stroke-width="1" fill="none" fill-rule="evenodd" sketch:type="MSPage">
        <g id="dropdown-arrow" sketch:type="MSLayerGroup" fill="#263340">
            <g id="Log-Viewer" sketch:type="MSShapeGroup">
                <g id="Log-Viewer-Light">
                    <g id="filters-bar">
                        <g id="drop-down">
                            <path d="M1.4314583,0.2590714 C1.1064583,-0.0863571 0.5797917,-0.0863571 0.255625,0.2590714 C-0.0810417,0.6173571 -0.0810417,1.1770714 0.243125,1.5225 L4.0547917,5.5776429 C4.580625,6.1373571 5.4189583,6.1373571 5.935625,5.5879286 L9.756458,1.5225 C10.080625,1.1770714 10.080625,0.6173571 9.756458,0.2719286 C9.419792,-0.0863571 8.893125,-0.0863571 8.568958,0.2590714 L4.9997917,4.0562143 L1.4314583,0.2590714 L1.4314583,0.2590714 Z" id="arrow-drop-down"></path>
                        </g>
                    </g>
                </g>
            </g>
        </g>
    </g>
</svg>
