<?xml version="1.0" encoding="iso-8859-1"?>
<!-- Generator: Adobe Illustrator 19.0.0, SVG Export Plug-In . SVG Version: 6.00 Build 0)  -->
<svg version="1.1" id="Capa_1" xmlns="http://www.w3.org/2000/svg" xmlns:xlink="http://www.w3.org/1999/xlink" x="0px" y="0px"
	 viewBox="0 0 512 512" style="enable-background:new 0 0 512 512;" xml:space="preserve">
<linearGradient id="SVGID_1_" gradientUnits="userSpaceOnUse" x1="0" y1="257.999" x2="512" y2="257.999" gradientTransform="matrix(1 0 0 -1 0 513.999)">
	<stop  offset="0" style="stop-color:#00F2FE"/>
	<stop  offset="0.021" style="stop-color:#03EFFE"/>
	<stop  offset="0.293" style="stop-color:#24D2FE"/>
	<stop  offset="0.554" style="stop-color:#3CBDFE"/>
	<stop  offset="0.796" style="stop-color:#4AB0FE"/>
	<stop  offset="1" style="stop-color:#4FACFE"/>
</linearGradient>
<path style="fill:url(#SVGID_1_);" d="M135.008,435c-5.539,0-11.052-2.288-15.005-6.768c-7.294-8.267-6.521-20.874,1.718-28.188
	c0.367-0.33,20.011-18.165,39.328-51.93C186.896,302.94,200,252.098,200,197c0-44.112-35.888-80-80-80s-80,35.888-80,80
	c0,43.262,35.176,79.141,78.413,79.979l1.107,0.028c11.042,0.288,19.761,9.472,19.473,20.514
	c-0.287,11.042-9.484,19.806-20.514,19.473l-0.916-0.023c-31.53-0.631-61.072-13.379-83.189-35.9C12.208,258.497,0,228.641,0,197
	C0,130.832,53.832,77,120,77s120,53.832,120,120c0,78.317-24.58,137.122-45.201,172.662c-22.62,38.986-45.6,59.481-46.566,60.335
	C144.43,433.352,139.709,435,135.008,435z M420.232,429.997c0.967-0.854,23.946-21.349,46.566-60.335
	C487.42,334.122,512,275.316,512,197c0-66.168-53.832-120-120-120s-120,53.832-120,120c0,31.641,12.208,61.497,34.374,84.069
	c22.117,22.521,51.659,35.27,83.189,35.9l0.916,0.023c11.054,0.333,20.226-8.431,20.514-19.473s-8.431-20.226-19.473-20.514
	l-1.107-0.028C347.176,276.141,312,240.262,312,197c0-44.112,35.888-80,80-80s80,35.888,80,80
	c0,55.098-13.104,105.94-38.951,151.115c-19.317,33.765-38.961,51.6-39.328,51.93c-8.238,7.313-9.012,19.921-1.718,28.188
	c3.953,4.479,9.466,6.768,15.005,6.768C411.709,435,416.43,433.352,420.232,429.997z"/>
<g>
</g>
<g>
</g>
<g>
</g>
<g>
</g>
<g>
</g>
<g>
</g>
<g>
</g>
<g>
</g>
<g>
</g>
<g>
</g>
<g>
</g>
<g>
</g>
<g>
</g>
<g>
</g>
<g>
</g>
</svg>
