<svg xmlns="http://www.w3.org/2000/svg" width="472" height="265" viewBox="0 0 472 265">
    <defs>
        <linearGradient id="a" x1="50%" x2="50%" y1="0%" y2="100%">
            <stop offset="0%" stop-color="#0286BF"/>
            <stop offset="100%" stop-color="#495C6A"/>
        </linearGradient>
    </defs>
    <g fill="none" fill-rule="evenodd">
        <path fill="#FFF" stroke="#DEDEDE" d="M466.706 223.22H115.63a4.63 4.63 0 0 1-4.63-4.63V5.63A4.63 4.63 0 0 1 115.63 1h351.076a4.63 4.63 0 0 1 4.63 4.63v212.96a4.63 4.63 0 0 1-4.63 4.63z"/>
        <path fill="#EEF3FA" d="M126.42 208.674h328.7V23.36h-328.7z"/>
        <path fill="#495C6A" d="M455.057 35.493h-328.7V18.518a3.088 3.088 0 0 1 3.086-3.086H451.97a3.088 3.088 0 0 1 3.087 3.086v16.975z"/>
        <path fill="#FFF" d="M138.5 28a2.5 2.5 0 1 0 0-5 2.5 2.5 0 1 0 0 5zM146.5 28a2.5 2.5 0 1 0 0-5 2.5 2.5 0 1 0 0 5zM154.5 28a2.5 2.5 0 1 0 0-5 2.5 2.5 0 1 0 0 5zM154.759 197.243h272.023V46.171H154.76z"/>
        <path fill="url(#a)" d="M55.715 159.176a4.63 4.63 0 0 0 4.63-4.63V117.51a4.63 4.63 0 1 0-9.26 0v37.036a4.63 4.63 0 0 0 4.63 4.63zM71.221 159.176a4.63 4.63 0 0 0 4.63-4.63v-52.468a4.63 4.63 0 1 0-9.26 0v52.468a4.63 4.63 0 0 0 4.63 4.63zM86.729 159.176a4.63 4.63 0 0 0 4.63-4.63v-43.21a4.63 4.63 0 1 0-9.26 0v43.21a4.63 4.63 0 0 0 4.63 4.63zM102.236 159.207a4.63 4.63 0 0 0 4.63-4.63v-33.95a4.63 4.63 0 1 0-9.26 0v33.95a4.63 4.63 0 0 0 4.63 4.63zM117.742 159.207a4.63 4.63 0 0 0 4.63-4.63v-49.382a4.63 4.63 0 1 0-9.26 0v49.382a4.63 4.63 0 0 0 4.63 4.63zM148.758 159.24a4.63 4.63 0 0 0 4.63-4.63v-33.95a4.63 4.63 0 1 0-9.26 0v33.95a4.63 4.63 0 0 0 4.63 4.63zM257.306 159.434a4.63 4.63 0 0 0 4.63-4.63v-37.037a4.63 4.63 0 1 0-9.26 0v37.037a4.63 4.63 0 0 0 4.63 4.63zM241.798 159.434a4.63 4.63 0 0 0 4.63-4.63v-52.469a4.63 4.63 0 0 0-9.26 0v52.469a4.63 4.63 0 0 0 4.63 4.63zM272.812 159.434a4.63 4.63 0 0 0 4.63-4.63v-52.469a4.63 4.63 0 0 0-9.26 0v52.469a4.63 4.63 0 0 0 4.63 4.63zM288.32 159.434a4.63 4.63 0 0 0 4.63-4.63v-43.21a4.63 4.63 0 1 0-9.26 0v43.21a4.63 4.63 0 0 0 4.63 4.63zM210.785 159.464a4.63 4.63 0 0 0 4.63-4.63v-33.95a4.63 4.63 0 0 0-9.26 0v33.95a4.63 4.63 0 0 0 4.63 4.63zM303.827 159.464a4.63 4.63 0 0 0 4.63-4.63v-33.95a4.63 4.63 0 1 0-9.26 0v33.95a4.63 4.63 0 0 0 4.63 4.63zM195.277 159.079a4.63 4.63 0 0 0 4.63-4.63v-37.037a4.63 4.63 0 0 0-9.26 0v37.037a4.63 4.63 0 0 0 4.63 4.63zM179.77 159.24a4.63 4.63 0 0 0 4.63-4.63v-49.383a4.63 4.63 0 1 0-9.26 0v49.383a4.63 4.63 0 0 0 4.63 4.63zM164.264 159.174a4.63 4.63 0 0 0 4.63-4.63v-49.381a4.63 4.63 0 1 0-9.26 0v49.382a4.63 4.63 0 0 0 4.63 4.63z" transform="translate(111 1)"/>
        <text fill="#303030" font-family="Roboto-Regular, Roboto" font-size="10" transform="translate(111 1)">
            <tspan x="66.527" y="181.689">March</tspan>
        </text>
        <text fill="#303030" font-family="Roboto-Regular, Roboto" font-size="10" transform="translate(111 1)">
            <tspan x="169" y="182">April</tspan>
        </text>
        <text fill="#303030" font-family="Roboto-Regular, Roboto" font-size="10" transform="translate(111 1)">
            <tspan x="260.877" y="181.689">May</tspan>
        </text>
        <path fill="#EEF3FA" d="M154.032 77.536h273v1h-273z"/>
        <path fill="#EEF3FA" d="M245.032 78.536v-35h1v35zM336.032 78.536v-35h1v35z"/>
        <g fill="#000">
            <text font-family="Roboto-Medium, Roboto" font-size="9" font-weight="400" transform="translate(182.032 51.536)">
                <tspan x="8" y="8">1458</tspan>
            </text>
            <text font-family="Roboto-Medium, Roboto" font-size="9" font-weight="400" transform="translate(182.032 51.536)">
                <tspan x="104" y="8">21</tspan>
            </text>
            <text font-family="Roboto-Medium, Roboto" font-size="9" font-weight="400" transform="translate(182.032 51.536)">
                <tspan x="197" y="8">5</tspan>
            </text>
            <text font-family="Roboto-Regular, Roboto" font-size="6" transform="translate(182.032 51.536)">
                <tspan x="0" y="18">URLs c</tspan> <tspan x="18.533" y="18" letter-spacing="-.116">r</tspan> <tspan x="20.33" y="18">awled</tspan>
            </text>
            <text font-family="Roboto-Regular, Roboto" font-size="6" transform="translate(182.032 51.536)">
                <tspan x="95" y="18">h1 missed</tspan>
            </text>
            <text font-family="Roboto-Regular, Roboto" font-size="6" transform="translate(182.032 51.536)">
                <tspan x="186" y="18">404 errors</tspan>
            </text>
        </g>
        <g>
            <g fill="#EEF3FA">
                <path d="M98.114 149.607h-22.24v22.24h22.24zM22.921 142.489H.681v22.24h22.24zM22.921 117.071H.681v22.24h22.24zM47.28 117.071H25.04v22.24h22.24zM71.638 117.071h-22.24v22.24h22.24zM22.921 92.713H.681v22.24h22.24zM22.921 68.355H.681v22.24h22.24zM22.921 42.938H.681v22.24h22.24zM47.28 34.465H25.04v22.24h22.24zM47.28 92.713H25.04v22.24h22.24zM103.41 87.123H81.17v22.24h22.24zM71.638 62h-22.24v22.24h22.24z"/>
            </g>
            <path fill="#FAFAFA" d="M61.175 198.305V76.062h92.397v122.454s-2.926 10.824-46.198 10.824c-43.274 0-46.199-11.035-46.199-11.035z"/>
            <path fill="#E1E1E1" d="M127.286 208.152V76.062h26.287v122.454s-1.283 3.154-5.648 5.244c-4.366 2.09-20.639 4.392-20.639 4.392M87.49 203.152V71.062H61.202v122.454s1.281 3.154 5.648 5.244c4.365 2.09 20.638 4.392 20.638 4.392"/>
            <path fill="#FFF" d="M61.084 76.066c0 6.313 20.684 11.43 46.199 11.43 25.514 0 46.198-5.117 46.198-11.43 0-6.314-20.684-11.431-46.198-11.431-25.515 0-46.199 5.117-46.199 11.43"/>
            <path stroke="#CACACA" stroke-linecap="round" d="M61.084 101.467c0 6.313 20.684 11.43 46.199 11.43 25.514 0 46.198-5.117 46.198-11.43M61.084 132.372c0 6.312 20.684 11.43 46.199 11.43 25.514 0 46.198-5.118 46.198-11.43M61.084 164.759c0 6.312 20.684 11.43 46.199 11.43 25.514 0 46.198-5.118 46.198-11.43"/>
            <path stroke="#DEDEDE" stroke-linecap="round" d="M61.084 197.992c0 6.313 20.684 11.43 46.199 11.43 25.514 0 46.198-5.117 46.198-11.43M153.481 76.066c0-6.314-20.684-11.431-46.198-11.431-25.515 0-46.199 5.117-46.199 11.43"/>
            <g>
                <path fill="#FAFAFA" d="M106.115 246.438v-80.495h60.843v80.634s-1.927 7.127-30.421 7.127c-28.496 0-30.422-7.266-30.422-7.266z"/>
                <path fill="#E1E1E1" d="M149.648 252.922v-86.98h17.31v80.635s-.845 2.077-3.72 3.453c-2.874 1.377-13.59 2.892-13.59 2.892M123.443 252.922v-86.98h-17.31v80.635s.844 2.077 3.72 3.453c2.874 1.377 13.59 2.892 13.59 2.892"/>
                <path fill="#FFF" d="M106.055 165.945c0 4.157 13.62 7.527 30.421 7.527 16.801 0 30.422-3.37 30.422-7.527s-13.62-7.527-30.422-7.527c-16.8 0-30.42 3.37-30.42 7.527"/>
                <path stroke="#DEDEDE" stroke-linecap="round" d="M166.898 165.945c0-4.157-13.62-7.527-30.422-7.527-16.8 0-30.42 3.37-30.42 7.527"/>
                <path stroke="#CACACA" stroke-linecap="round" d="M106.055 182.671c0 4.158 13.62 7.527 30.421 7.527 16.801 0 30.422-3.37 30.422-7.527M106.055 203.022c0 4.157 13.62 7.527 30.421 7.527 16.801 0 30.422-3.37 30.422-7.527M106.055 224.348c0 4.157 13.62 7.527 30.421 7.527 16.801 0 30.422-3.37 30.422-7.527"/>
                <path stroke="#DEDEDE" stroke-linecap="round" d="M106.055 246.232c0 4.157 13.62 7.527 30.421 7.527 16.801 0 30.422-3.37 30.422-7.527"/>
            </g>
            <g>
                <path fill="#FAFAFA" d="M52.084 258.487v-58.695H96.45v58.796s-1.405 5.197-22.183 5.197c-20.777 0-22.182-5.298-22.182-5.298z"/>
                <path fill="#E1E1E1" d="M83.827 263.215V199.79H96.45v58.797s-.616 1.514-2.712 2.518c-2.096 1.004-9.91 2.109-9.91 2.109M64.719 263.215V199.79H52.097v58.797s.616 1.514 2.712 2.518c2.096 1.004 9.91 2.109 9.91 2.109"/>
                <path fill="#FFF" d="M52.04 199.793c0 3.032 9.932 5.489 22.183 5.489 12.25 0 22.182-2.457 22.182-5.489 0-3.031-9.932-5.488-22.182-5.488-12.251 0-22.183 2.457-22.183 5.488"/>
                <path stroke="#DEDEDE" stroke-linecap="round" d="M96.405 199.793c0-3.031-9.932-5.488-22.182-5.488-12.251 0-22.183 2.457-22.183 5.488"/>
                <path stroke="#CACACA" stroke-linecap="round" d="M52.04 211.99c0 3.031 9.932 5.488 22.183 5.488 12.25 0 22.182-2.457 22.182-5.488M52.04 226.829c0 3.03 9.932 5.488 22.183 5.488 12.25 0 22.182-2.457 22.182-5.488M52.04 242.38c0 3.03 9.932 5.488 22.183 5.488 12.25 0 22.182-2.458 22.182-5.489"/>
                <path stroke="#DEDEDE" stroke-linecap="round" d="M52.04 258.336c0 3.032 9.932 5.489 22.183 5.489 12.25 0 22.182-2.457 22.182-5.489"/>
            </g>
        </g>
    </g>
</svg>
