<svg xmlns="http://www.w3.org/2000/svg" width="474" height="264" viewBox="0 0 474 264">
    <defs>
        <linearGradient id="a" x1="50%" x2="50%" y1="0%" y2="100%">
            <stop offset="0%" stop-color="#0286BF"/>
            <stop offset="100%" stop-color="#495C6A"/>
        </linearGradient>
    </defs>
    <g fill="none" fill-rule="evenodd">
        <g fill="#EEF3FA">
            <path d="M469 141.76h-22.24V164H469zM394 139.76h-22.24V162H394zM394 113.76h-22.24V136H394zM418 113.76h-22.24V136H418zM418 165.76h-22.24V188H418zM443 113.76h-22.24V136H443zM394 89.76h-22.24V112H394zM394 65.76h-22.24V88H394zM394 39.76h-22.24V62H394zM418 31.76h-22.24V54H418zM418 89.76h-22.24V112H418zM474 78.76h-22.24V101H474zM443 58.76h-22.24V81H443z"/>
        </g>
        <path fill="#FFF" d="M356.706 223.22H5.63A4.63 4.63 0 0 1 1 218.59V5.63A4.63 4.63 0 0 1 5.63 1h351.076a4.63 4.63 0 0 1 4.63 4.63v212.96a4.63 4.63 0 0 1-4.63 4.63z"/>
        <path stroke="#DEDEDE" d="M356.309 223.011H5.232a4.63 4.63 0 0 1-4.63-4.63V5.422A4.63 4.63 0 0 1 5.232.79h351.077a4.63 4.63 0 0 1 4.63 4.63v212.96a4.63 4.63 0 0 1-4.63 4.63z"/>
        <path fill="#EEF3FA" d="M16.42 208.674h328.7V23.36H16.42z"/>
        <path fill="#495C6A" d="M345.057 35.493h-328.7V18.518a3.088 3.088 0 0 1 3.086-3.086H341.97a3.088 3.088 0 0 1 3.087 3.086v16.975z"/>
        <path fill="#FFF" d="M28.5 28a2.5 2.5 0 1 0 0-5 2.5 2.5 0 1 0 0 5zM36.5 28a2.5 2.5 0 1 0 0-5 2.5 2.5 0 1 0 0 5zM44.5 28a2.5 2.5 0 1 0 0-5 2.5 2.5 0 1 0 0 5zM44.759 197.243h272.023V46.171H44.76z"/>
        <path fill="url(#a)" d="M56.715 160.176a4.63 4.63 0 0 0 4.63-4.63v-39.015a4.63 4.63 0 1 0-9.26 0v39.015a4.63 4.63 0 0 0 4.63 4.63zM72.221 160.176a4.63 4.63 0 0 0 4.63-4.63v-52.468a4.63 4.63 0 0 0-9.26 0v52.468a4.63 4.63 0 0 0 4.63 4.63zM87.729 160.176a4.63 4.63 0 0 0 4.63-4.63v-43.21a4.63 4.63 0 1 0-9.26 0v43.21a4.63 4.63 0 0 0 4.63 4.63zM103.236 160.207a4.63 4.63 0 0 0 4.63-4.63V118.54a4.63 4.63 0 0 0-9.26 0v37.037a4.63 4.63 0 0 0 4.63 4.63zM118.742 160.207a4.63 4.63 0 0 0 4.63-4.63v-49.382a4.63 4.63 0 1 0-9.26 0v49.382a4.63 4.63 0 0 0 4.63 4.63zM149.758 160.24a4.63 4.63 0 0 0 4.63-4.63v-39.016a4.63 4.63 0 1 0-9.26 0v39.016a4.63 4.63 0 0 0 4.63 4.63zM258.306 160.434a4.63 4.63 0 0 0 4.63-4.63v-39.015a4.63 4.63 0 1 0-9.26 0v39.015a4.63 4.63 0 0 0 4.63 4.63zM242.798 160.434a4.63 4.63 0 0 0 4.63-4.63v-52.469a4.63 4.63 0 1 0-9.26 0v52.469a4.63 4.63 0 0 0 4.63 4.63zM273.812 160.434a4.63 4.63 0 0 0 4.63-4.63v-52.469a4.63 4.63 0 0 0-9.26 0v52.469a4.63 4.63 0 0 0 4.63 4.63zM289.32 160.434a4.63 4.63 0 0 0 4.63-4.63v-43.21a4.63 4.63 0 1 0-9.26 0v43.21a4.63 4.63 0 0 0 4.63 4.63zM211.785 160.464a4.63 4.63 0 0 0 4.63-4.63V114.63a4.63 4.63 0 0 0-9.26 0v41.205a4.63 4.63 0 0 0 4.63 4.63zM304.827 160.464a4.63 4.63 0 0 0 4.63-4.63v-33.95a4.63 4.63 0 1 0-9.26 0v33.95a4.63 4.63 0 0 0 4.63 4.63zM196.277 160.079a4.63 4.63 0 0 0 4.63-4.63v-37.037a4.63 4.63 0 0 0-9.26 0v37.037a4.63 4.63 0 0 0 4.63 4.63zM180.77 160.24a4.63 4.63 0 0 0 4.63-4.63v-49.383a4.63 4.63 0 1 0-9.26 0v49.383a4.63 4.63 0 0 0 4.63 4.63zM165.264 160.174a4.63 4.63 0 0 0 4.63-4.63v-49.381a4.63 4.63 0 1 0-9.26 0v49.382a4.63 4.63 0 0 0 4.63 4.63z"/>
        <text fill="#303030" font-family="Roboto-Regular, Roboto" font-size="10">
            <tspan x="67.527" y="182.689">March</tspan>
        </text>
        <text fill="#303030" font-family="Roboto-Regular, Roboto" font-size="10">
            <tspan x="170" y="183">April</tspan>
        </text>
        <text fill="#303030" font-family="Roboto-Regular, Roboto" font-size="10">
            <tspan x="261.877" y="182.689">May</tspan>
        </text>
        <path fill="#EEF3FA" d="M44.032 77.536h273v1h-273z"/>
        <path fill="#EEF3FA" d="M135.032 78.536v-35h1v35zM226.032 78.536v-35h1v35z"/>
        <text fill="#000" font-family="Roboto-Medium, Roboto" font-size="9" font-weight="400" transform="translate(72.032 51.536)">
            <tspan x="8" y="8">1520</tspan>
        </text>
        <text fill="#51CF66" font-family="Roboto-Medium, Roboto" font-size="9" font-weight="400" transform="translate(72.032 51.536)">
            <tspan x="34" y="8">62</tspan>
        </text>
        <text fill="#51CF66" font-family="Roboto-Medium, Roboto" font-size="9" font-weight="400" transform="translate(72.032 51.536)">
            <tspan x="117" y="8">17</tspan>
        </text>
        <text fill="#51CF66" font-family="Roboto-Medium, Roboto" font-size="9" font-weight="400" transform="translate(72.032 51.536)">
            <tspan x="208" y="8">4</tspan>
        </text>
        <g fill="#51CF66">
            <path d="M120.371 58.524h.536v-4.286h-.536z"/>
            <path d="M120.64 53.536l-1.894 1.895.379.377 1.894-1.893z"/>
            <path d="M120.64 53.536l-.38.379 1.895 1.893.38-.377z"/>
        </g>
        <g fill="#51CF66">
            <path d="M203.371 58.524h.536v-4.286h-.536z"/>
            <path d="M203.64 53.536l-1.894 1.895.379.377 1.894-1.893z"/>
            <path d="M203.64 53.536l-.38.379 1.895 1.893.38-.377z"/>
        </g>
        <g fill="#51CF66">
            <path d="M289.371 58.524h.536v-4.286h-.536z"/>
            <path d="M289.64 53.536l-1.894 1.895.379.377 1.894-1.893z"/>
            <path d="M289.64 53.536l-.38.379 1.895 1.893.38-.377z"/>
        </g>
        <text fill="#000" font-family="Roboto-Medium, Roboto" font-size="9" font-weight="400" transform="translate(72.032 51.536)">
            <tspan x="106" y="8">3</tspan>
        </text>
        <text fill="#000" font-family="Roboto-Medium, Roboto" font-size="9" font-weight="400" transform="translate(72.032 51.536)">
            <tspan x="197" y="8">1</tspan>
        </text>
        <text fill="#000" font-family="Roboto-Regular, Roboto" font-size="6" transform="translate(72.032 51.536)">
            <tspan x="0" y="18">URLs c</tspan> <tspan x="18.533" y="18" letter-spacing="-.116">r</tspan> <tspan x="20.33" y="18">awled</tspan>
        </text>
        <text fill="#000" font-family="Roboto-Regular, Roboto" font-size="6" transform="translate(72.032 51.536)">
            <tspan x="95" y="18">h1 missed</tspan>
        </text>
        <text fill="#000" font-family="Roboto-Regular, Roboto" font-size="6" transform="translate(72.032 51.536)">
            <tspan x="186" y="18">404 errors</tspan>
        </text>
        <g>
            <path fill="#FFF" d="M216.186 212.636h-75.608c-.871 0-1.578-.71-1.578-1.585v-51.466c0-.875.707-1.585 1.578-1.585h75.608c.873 0 1.578.71 1.578 1.585v51.466a1.58 1.58 0 0 1-1.578 1.585"/>
            <path stroke="#DEDEDE" d="M216.186 212.636h-75.608c-.871 0-1.578-.71-1.578-1.585v-51.466c0-.875.707-1.585 1.578-1.585h75.608c.873 0 1.578.71 1.578 1.585v51.466a1.58 1.58 0 0 1-1.578 1.585z"/>
            <path fill="#ECEEF2" d="M143 208.992h71.371V162H143z"/>
            <path fill="#FFF" d="M147 202.413h63.5V167H147z"/>
            <path fill="#37667F" d="M149 193.853h2.16V183H149z"/>
            <path fill="#D8B7FF" d="M152 193.47h2.16V179H152zM156 193.948h2.16V180H156zM160 193.129h2.16V183H160zM163 193.747h2.16V180H163zM167 193.461h2.16V181H167zM170 193.606h2.16V182H170z"/>
            <path fill="#37667F" d="M196 193.518h2.16V176H196zM192 193.47h2.16V179H192zM188 193.3h2.16V181H188zM199 193.365h2.16V180H199zM203 193.103h2.16V178H203z"/>
            <path fill="#EC8FCC" d="M185 193.422h2.16V180H185z"/>
            <path fill="#37667F" d="M207 193.129h2.16V183H207z"/>
            <path fill="#EC8FCC" d="M181 193.853h2.16V183H181zM178 193.263h2.16V175H178z"/>
            <path fill="#D8B7FF" d="M174 193.261h2.16V175H174z"/>
        </g>
        <g>
            <path fill="#E5AA63" d="M224.673 228.394s-2.65-11.843-2.805-13.52c-.152-1.678.715-3.915 1.326-4.83.612-.914 2.091-2.033 2.193-3.811.102-1.779-3.06-7.777-3.774-8.845-.713-1.067-1.12-2.388-1.529-2.388-.408 0-.663.965-.56 1.728.102.763.254 3.1.356 4.372.103 1.27.154 1.474-.153 2.897-.306 1.422-.152 2.948-.816 3.456-.663.507-1.274.609-2.447.151-1.171-.457-1.53-.811-1.53-1.473 0-.66.308-5.082.308-5.591 0-.508-.663-1.12-1.378-.863-.714.253-1.274.863-1.377 1.27-.1.406-.611 2.491-.459 3.507.154 1.018.562 3.304.767 4.421.203 1.119 1.325 4.27 1.63 5.49.306 1.219.714 1.83.714 2.898s-.05 2.897-.205 4.218c-.15 1.321-.203 7.166-.203 7.166l9.942-.253zM179.891 205.638l-.038-4.231-19.067-.407-1.786 6.403s6.475 3.762 10.656 3.508c4.18-.254 10.094-2.54 10.4-3.253.307-.712-.165-2.02-.165-2.02M124.016 178.01l1.035-17.332s.399-1.748-.504-3.998c-.902-2.252-1.302-2.994-.877-3.763.426-.769 2.39-3.39 4.065-4.025 1.673-.638 2.232-.557 2.658-.505.424.054 2.735-6.807 3.081-7.098.346-.293.559-.345.77-.237.214.104.427.686.373.952-.054.264-.213 2.886-.478 3.68-.267.796-.692 3.154-.744 3.71-.053.556-.292 2.305.16 3.18.45.873.876 2.356.611 3.283s-.559 1.908-1.063 2.517c-.505.61-1.648 1.616-1.887 2.119-.238.503-.451 1.748-.372 2.49 0 0 .903 9.643.956 10.86.054 1.22.515 4.186.515 4.186l-8.299-.019z"/>
            <path fill="#454D77" d="M134.195 183c0-.06-3.594.973-5.36.999-1.767.026-5.554-.903-5.542-.95.007-.033.053-2.049.135-6.049 0 0 2.034.306 4.55.255 2.516-.051 5.058-.255 5.058-.255l1.159 6z"/>
            <path fill="#1D2759" d="M134.289 189.236c-.47-1.875-.088-6.236-.088-6.236l-10.92.025s-.413 8.768-.237 10.035c.178 1.266 1.8 8.584 2.612 11.82.811 3.237 4.34 14.777 4.34 14.777s2.47 6.436 2.788 7.14l6.661 10.572c1.148 5.716.383 10.292.383 13.265 0 2.974-.153 8.388-.153 8.388s5.837.757 8.513 1.139c2.678.38 5.958.707 10.318.783 3.49.061 10.574.573 12.639.802 2.065.228 10.427.63 14.863 1.088 4.436.457 7.271.76 9.416.76 2.146 0 2.257-.417 2.408-.76.154-.343-2.484-17.193-2.484-17.193s-.498-1.601.23-1.563c.727.038 3.173 1.181 5.504 2.477 2.334 1.296 11.625 5.909 14.799 6.52 3.174.61 5.161 1.218 6.921.343 1.759-.877 2.906-3.546 3.098-5.223.19-1.678.305-5.453.153-6.825-.153-1.372-.23-4.079-.307-4.65-.076-.571-.152-.723-.152-.723l-12.543.036s.078.573-.267.497c-.342-.076-5.047-5.299-5.047-5.299s-6.08-6.976-7.035-8.12c-.957-1.143-4.246-5.413-4.819-6.098-.573-.687-11.814-5.834-11.814-5.834l-7.074 2.022c-2.41.685-6.655 1.715-8.452 1.448-1.798-.268-8.259-2.402-9.367-3.28-1.11-.875-4.091-3.315-4.091-3.315l-4.819.191-6.564-.254c-.003.04-8.942-16.877-9.413-18.755z"/>
            <path fill="#454D77" d="M213.62 228l12.482.057 1.398 8.09-14.5.057z"/>
            <path fill="#E5AA63" d="M188.411 179s3.516.448 3.412 3.7c-.101 3.254-1.019 4.727-1.528 5.338-.511.61-1.224 2.032-1.633 2.54-.408.509-.662.509-.662.509l.411-12.087zM149.415 179s-3.516.448-3.413 3.7c.102 3.254 1.02 4.727 1.529 5.338.51.61 1.322 1.82 1.73 2.33.407.507 1.007.719 1.007.719L149.415 179z"/>
            <path fill="#873904" d="M170.61 205.965c-1.53.154-4.664-.152-6.652-.838-1.989-.687-4.743-2.592-6.043-3.736-1.3-1.143-6.729-7.929-7.111-8.538-.385-.61-2.141-3.812-2.602-8.158-.458-4.345-.076-8.693.537-10.598.61-1.907.763-4.88 3.593-7.93 2.831-3.048 6.118-4.955 8.794-5.642 2.776-.712 7.114-1.525 10.4-1.525 3.29 0 3.826.61 4.132 1.068.305.457.152 1.601 1.222 2.059 1.071.457 2.755.077 4.053 1.144 1.3 1.066 2.906 2.667 4.36 5.337 1.453 2.667 2.524 3.889 2.982 6.862.46 2.971 1.072 3.047.996 7.242-.078 4.193.304 4.726-.078 7.472-.381 2.745-2.017 6.034-3.287 7.7-.919 1.205-2.678 2.744-4.59 3.964-1.91 1.22-6.806 3.356-7.723 3.584-.917.23-2.984.533-2.984.533"/>
            <path fill="#0E1134" d="M184.998 211.845l-5.2-5.286s-6.832 2.235-11.625 1.727c-4.793-.508-7.409-1.678-9.14-2.286L154 207.983s6.525 9.148 14.48 8.944c7.952-.202 16.518-5.082 16.518-5.082"/>
        </g>
    </g>
</svg>
