<svg xmlns="http://www.w3.org/2000/svg" width="16" height="15" viewBox="0 0 16 15">
    <path fill="#FFF" fill-rule="evenodd" d="M8 12.438L3.056 15 4 9.573 0 5.729l5.528-.791L8 0l2.472 4.938L16 5.729l-4 3.844.944 5.427z"/>
</svg>
