<svg xmlns="http://www.w3.org/2000/svg" width="15" height="15" viewBox="0 0 15 15">
    <path fill="#FFF" fill-rule="evenodd" d="M7.5 5.834L13.336 0 15 1.667 9.167 7.5l5.835 5.834L13.337 15 7.501 9.165 1.665 15 .001 13.334 5.835 7.5.002 1.667 1.666 0 7.5 5.834z"/>
</svg>
