<svg xmlns="http://www.w3.org/2000/svg" width="76" height="79" viewBox="0 0 76 79">
    <g fill="none" fill-rule="evenodd">
        <path fill="#B4C8E2" d="M70.769 62.777H17.64c-1.97 0-3.566-1.574-3.566-3.516V29.372c0-1.941 1.597-3.516 3.566-3.516H70.77c1.97 0 3.566 1.575 3.566 3.516v29.889c0 1.942-1.596 3.516-3.566 3.516z"/>
        <path fill="#FFF" d="M14.074 32.387h60.124v7.033H14.074zM57.893 55.882h12.229v2.009h-12.23z"/>
        <path fill="#0286BF" fill-opacity=".06" d="M59.05 54.237H5.92c-1.97 0-3.566-1.574-3.566-3.516V20.832c0-1.941 1.597-3.516 3.566-3.516H59.05c1.97 0 3.566 1.575 3.566 3.516v29.889c0 1.942-1.596 3.516-3.566 3.516z"/>
        <path fill="#0286BF" d="M57.521 52.73H4.393c-1.97 0-3.567-1.574-3.567-3.516V19.325c0-1.941 1.597-3.516 3.567-3.516H57.52c1.97 0 3.567 1.575 3.567 3.516v29.889c0 1.942-1.597 3.516-3.567 3.516z"/>
        <path fill="#60C9E0" d="M19.679 44.945h10.19v-2.01H19.68zM7.45 44.945h10.19v-2.01H7.45zM31.907 44.945h10.19v-2.01h-10.19zM44.136 44.945h10.19v-2.01h-10.19zM39.14 24.134c0 2.774 2.282 5.024 5.096 5.024 2.813 0 5.095-2.25 5.095-5.024s-2.282-5.023-5.095-5.023c-2.814 0-5.096 2.249-5.096 5.023" opacity=".3"/>
        <path fill="#49BDDE" d="M44.32 24.134c0 2.774 2.282 5.024 5.096 5.024s5.095-2.25 5.095-5.024-2.281-5.023-5.095-5.023c-2.814 0-5.095 2.249-5.095 5.023" opacity=".3"/>
        <path fill="#60C9E0" d="M6.87 27.232h11.295V20.45H6.87z" opacity=".3"/>
        <g fill="#0286BF">
            <path d="M68.112.153h1.02c.69 0 1.327.234 1.835.628a2.996 2.996 0 0 1 1.193 2.394v1.08h-.029v7.618h-4.019V4.255H2.835a2.01 2.01 0 0 1 0-4.021l65.277-.08z"/>
            <path d="M69.326 14.763l-4.097-5.386a1 1 0 0 1 .796-1.606h8.194a1 1 0 0 1 .796 1.606l-4.097 5.386a1 1 0 0 1-1.592 0z"/>
        </g>
        <g fill="#B4C8E2">
            <path d="M7.888 78.915h-1.02a2.987 2.987 0 0 1-1.835-.627 2.996 2.996 0 0 1-1.193-2.395v-1.08h.029v-7.617h4.019v7.617h65.277a2.01 2.01 0 0 1 0 4.022l-65.277.08z"/>
            <path d="M6.674 64.306l4.097 5.386a1 1 0 0 1-.796 1.605H1.781a1 1 0 0 1-.796-1.605l4.097-5.386a1 1 0 0 1 1.592 0z"/>
        </g>
    </g>
</svg>
