<?xml version="1.0" encoding="iso-8859-1"?>
<!-- Generator: Adobe Illustrator 19.0.0, SVG Export Plug-In . SVG Version: 6.00 Build 0)  -->
<svg xmlns="http://www.w3.org/2000/svg" xmlns:xlink="http://www.w3.org/1999/xlink" version="1.1" id="Layer_1" x="0px" y="0px" viewBox="0 0 512 512" style="enable-background:new 0 0 512 512;" xml:space="preserve" width="512px" height="512px">
<g>
	<g>
		<path d="M397.19,0c-50.33,0-91.278,40.947-91.278,91.278c0,50.33,40.947,91.278,91.278,91.278    c50.331,0,91.279-40.947,91.279-91.278C488.468,40.947,447.521,0,397.19,0z M397.19,141.191    c-27.523,0-49.913-22.391-49.913-49.913c0-27.522,22.391-49.913,49.913-49.913c27.523,0,49.914,22.391,49.914,49.913    C447.104,118.8,424.713,141.191,397.19,141.191z" fill="#0286bf"/>
	</g>
</g>
<g>
	<g>
		<path d="M114.809,164.722c-50.33,0-91.278,40.947-91.278,91.278s40.947,91.278,91.278,91.278S206.087,306.33,206.087,256    S165.14,164.722,114.809,164.722z M114.809,305.913c-27.522,0-49.913-22.391-49.913-49.913s22.391-49.913,49.913-49.913    c27.522,0,49.913,22.391,49.913,49.913C164.722,283.523,142.331,305.913,114.809,305.913z" fill="#0286bf"/>
	</g>
</g>
<g>
	<g>
		<path d="M397.19,329.445c-50.33,0-91.278,40.947-91.278,91.278S346.859,512,397.19,512c50.331,0,91.279-40.947,91.279-91.278    C488.468,370.392,447.521,329.445,397.19,329.445z M397.19,470.636c-27.523,0-49.913-22.39-49.913-49.913    c0-27.523,22.391-49.913,49.913-49.913c27.523,0,49.914,22.39,49.914,49.913C447.104,448.245,424.713,470.636,397.19,470.636z" fill="#0286bf"/>
	</g>
</g>
<g>
	<g>
		<path d="M346.891,367.32l-160.722-93.656c-9.869-5.751-22.532-2.412-28.282,7.457c-5.752,9.87-2.413,22.532,7.457,28.283    l160.721,93.656c3.276,1.908,6.857,2.816,10.393,2.816c7.118,0,14.047-3.68,17.89-10.272    C360.099,385.734,356.76,373.072,346.891,367.32z" fill="#0286bf"/>
	</g>
</g>
<g>
	<g>
		<path d="M354.105,116.386c-5.757-9.865-18.422-13.194-28.287-7.438l-160.487,93.656c-9.865,5.758-13.195,18.422-7.438,28.288    c3.845,6.588,10.768,10.261,17.882,10.261c3.539,0,7.128-0.91,10.405-2.823l160.486-93.656    C356.533,138.916,359.863,126.251,354.105,116.386z" fill="#0286bf"/>
	</g>
</g>
<g>
</g>
<g>
</g>
<g>
</g>
<g>
</g>
<g>
</g>
<g>
</g>
<g>
</g>
<g>
</g>
<g>
</g>
<g>
</g>
<g>
</g>
<g>
</g>
<g>
</g>
<g>
</g>
<g>
</g>
</svg>
