<svg xmlns="http://www.w3.org/2000/svg" width="211" height="159" viewBox="0 0 211 159">
    <g fill="none" fill-rule="evenodd">
        <path fill="#EEF3FA" stroke="#495C6A" stroke-linecap="round" d="M196.721 155.888C205.177 140.845 210 123.486 210 105 210 47.562 163.438 1 106 1S2 47.562 2 105c0 18.72 4.946 36.285 13.602 51.459"/>
        <path fill="#EEF3FA" stroke="#0286BF" stroke-linecap="round" stroke-width="4" d="M54.02 14.901C22.925 32.881 2 66.497 2 105c0 18.72 4.946 36.285 13.602 51.459"/>
        <path fill="#495C6A" d="M105.224 13.14h1.163V5h-1.163zM60.517 24.953l-1.007.582-4.07-7.05 1.008-.58zM26.7 58.12l-.581 1.006-7.05-4.07.582-1.006zM25.81 149.62l.582 1.007-7.05 4.07-.58-1.007zM184.294 151.16l.582-1.006 7.05 4.07-.582 1.007zM185.184 59.66l-.581-1.007 7.05-4.07.58 1.008zM152.018 25.843l-1.007-.581 4.07-7.05 1.007.582zM98.22 11.691l-1.159.101-.405-4.633 1.158-.101zM90.109 12.697l-1.145.203-.808-4.581 1.145-.202zM82.117 14.407l-1.124.302-1.203-4.493 1.123-.302zM74.304 16.807l-1.092.398-1.591-4.371 1.093-.398zM66.73 19.878l-1.053.492-1.966-4.215 1.054-.492zM52.528 27.938l-.953.667-2.667-3.81.952-.667zM46.007 32.865l-.89.747-2.99-3.563.89-.747zM39.94 38.342l-.822.822-3.288-3.29.822-.821zM34.374 44.326l-.747.89-3.563-2.989.748-.891zM29.351 50.773l-.667.952-3.81-2.667.667-.953zM21.081 64.854l-.491 1.054-4.216-1.965.492-1.054zM17.898 72.381l-.398 1.093-4.37-1.59.397-1.093zM15.382 80.157l-.3 1.124-4.493-1.204.3-1.123zM13.554 88.123l-.202 1.146-4.58-.808.202-1.145zM12.427 96.218l-.101 1.159-4.634-.406.102-1.158zM12.306 112.548l.101 1.158-4.633.405-.101-1.158zM13.313 120.659l.201 1.144-4.58.808-.202-1.145zM15.022 128.65l.301 1.124-4.493 1.203-.301-1.123zM17.422 136.463l.397 1.093-4.37 1.59-.398-1.092zM20.493 144.037l.491 1.054-4.215 1.965-.491-1.053z"/>
        <path fill="#495C6A" d="M186.473 152.52l.582-1.007 4.028 2.325-.582 1.007zM190.3 145.298l.492-1.053 4.216 1.965-.492 1.054zM193.484 137.771l.398-1.093 4.37 1.59-.397 1.093zM196 129.995l.301-1.124 4.492 1.205-.3 1.122zM197.828 122.03l.202-1.146 4.58.807-.202 1.146zM198.955 113.935l.101-1.16 4.634.406-.102 1.159zM199.076 97.604l-.1-1.158 4.632-.405.101 1.158zM198.07 89.494l-.202-1.145 4.58-.808.202 1.145zM196.36 81.502l-.301-1.123 4.493-1.204.301 1.123zM193.96 73.69l-.397-1.094 4.37-1.59.398 1.093zM190.89 66.116l-.492-1.054 4.215-1.966.491 1.054zM182.83 51.913l-.668-.953 3.81-2.668.667.953zM177.902 45.392l-.747-.89 3.563-2.99.747.89zM172.425 39.326l-.822-.822 3.29-3.29.821.823zM166.441 33.76l-.89-.748 2.99-3.563.89.748zM159.994 28.736l-.952-.666 2.668-3.81.952.666zM145.913 20.467l-1.054-.492 1.966-4.215 1.054.491zM138.386 17.283l-1.093-.398 1.591-4.37 1.092.397zM130.61 14.767l-1.124-.3 1.204-4.493 1.124.3zM122.644 12.94l-1.145-.203.807-4.58 1.146.202zM114.55 11.812l-1.159-.101.405-4.634 1.158.101zM197.787 105.702h8.14v-1.162h-8.14zM6 105.702h8.139v-1.162H6z"/>
        <path stroke="#0087C2" stroke-linecap="round" stroke-width="2" d="M51.504 131.74c-3.826-7.951-5.97-16.864-5.97-26.277 0-33.514 27.169-60.681 60.682-60.681 33.514 0 60.681 27.167 60.681 60.68 0 9.414-2.143 18.327-5.97 26.278"/>
        <path fill="#495C6A" d="M75 50.782a4 4 0 1 0 8 0 4 4 0 0 0-8 0"/>
        <g fill="#495C6A">
            <path d="M38.16 149.104c0-.825-.113-1.427-.339-1.803-.225-.376-.577-.564-1.056-.564-.464 0-.807.18-1.029.537-.22.358-.338.918-.35 1.68v2.422c0 .812.11 1.416.33 1.81.221.395.575.592 1.063.592.483 0 .831-.19 1.046-.569.214-.377.325-.957.335-1.737v-2.368zm1.976 2.015c0 1.376-.286 2.428-.855 3.158-.57.73-1.404 1.094-2.502 1.094-1.085 0-1.914-.358-2.488-1.074-.574-.715-.868-1.74-.882-3.076v-1.832c0-1.389.288-2.445.864-3.165.577-.72 1.408-1.08 2.492-1.08s1.915.356 2.49 1.07c.573.713.867 1.738.881 3.073v1.832zM27.334 110.4h-1.976v-7.615l-2.358.731v-1.606l4.122-1.477h.212zM39.94 67.797h-6.822v-1.354l3.22-3.431c.441-.484.768-.904.98-1.265.212-.36.318-.702.318-1.025 0-.443-.112-.79-.335-1.042-.223-.254-.543-.38-.957-.38-.447 0-.799.153-1.056.462-.257.306-.386.712-.386 1.213H32.92c0-.607.145-1.16.434-1.661.29-.501.698-.895 1.228-1.18.528-.284 1.128-.427 1.797-.427 1.026 0 1.822.246 2.39.738.567.493.851 1.188.851 2.085 0 .493-.128.994-.383 1.504-.256.51-.693 1.106-1.313 1.784l-2.262 2.386h4.28v1.593zM66.557 33.75h1.053c.5 0 .872-.125 1.114-.376.24-.251.362-.583.362-.998 0-.401-.12-.713-.36-.937-.238-.223-.567-.335-.986-.335-.38 0-.696.104-.951.312a.993.993 0 0 0-.382.81H64.43c0-.52.14-.986.42-1.398.28-.413.673-.735 1.176-.968a3.93 3.93 0 0 1 1.665-.348c1.053 0 1.877.252 2.474.756.597.503.896 1.197.896 2.08 0 .457-.14.876-.417 1.258a2.71 2.71 0 0 1-1.094.882c.56.2.979.5 1.254.903.276.4.414.875.414 1.422 0 .883-.322 1.592-.968 2.125-.644.534-1.498.8-2.56.8-.993 0-1.805-.261-2.437-.786-.631-.524-.946-1.217-.946-2.078h1.976c0 .374.139.679.419.916.28.237.626.356 1.037.356.468 0 .837-.125 1.103-.373.267-.25.4-.578.4-.988 0-.993-.546-1.49-1.64-1.49h-1.046V33.75zM103.282 23.207h2.201v-3.514l-.13.226-2.07 3.288zm4.177 0h1.128V24.8h-1.128v2.153h-1.976V24.8h-4.08l-.09-1.244 4.15-6.556h1.996v6.207zM142.114 34.845l.574-5.059h5.578v1.648h-3.958l-.246 2.14a3.126 3.126 0 0 1 1.497-.376c.948 0 1.691.293 2.23.881.536.588.805 1.411.805 2.468 0 .643-.135 1.218-.407 1.726-.27.51-.659.902-1.165 1.183-.506.28-1.103.42-1.79.42-.602 0-1.16-.122-1.676-.365a2.975 2.975 0 0 1-1.22-1.029 2.81 2.81 0 0 1-.475-1.51h1.955c.041.414.186.736.434.967.25.23.573.344.974.344.447 0 .79-.16 1.033-.48.241-.323.362-.777.362-1.365 0-.566-.14-.998-.417-1.299-.278-.3-.673-.45-1.183-.45-.469 0-.85.122-1.14.368l-.193.178-1.572-.39zM177.663 61.999c-.318 0-.608.083-.868.249-.26.166-.45.386-.574.658v.6c0 .66.13 1.176.39 1.547.26.37.624.555 1.093.555.424 0 .767-.167 1.03-.502.261-.334.392-.766.392-1.3 0-.54-.132-.977-.397-1.31-.263-.331-.619-.497-1.066-.497zm1.928-4.99v1.627h-.192c-.892.013-1.612.246-2.156.697-.545.45-.872 1.078-.98 1.88.528-.538 1.195-.807 2.002-.807.866 0 1.554.31 2.064.93.511.62.766 1.435.766 2.447 0 .648-.14 1.233-.42 1.757a3.023 3.023 0 0 1-1.19 1.224c-.512.292-1.093.437-1.74.437-1.048 0-1.894-.364-2.539-1.094-.646-.73-.968-1.702-.968-2.92v-.71c0-1.08.204-2.034.612-2.86a4.49 4.49 0 0 1 1.757-1.922c.763-.453 1.65-.681 2.656-.686h.328zM193.786 102.11l-3.849 8.851h-2.085l3.856-8.36h-4.949v-1.594h7.027zM176.708 148.264c0-.388-.103-.698-.308-.933-.205-.235-.495-.352-.868-.352-.369 0-.656.114-.861.342-.205.227-.308.542-.308.943 0 .396.103.716.308.957.205.241.494.362.868.362.373 0 .662-.12.864-.362.203-.24.305-.56.305-.957m.205 4.341c0-.433-.126-.779-.376-1.039-.251-.26-.588-.39-1.012-.39-.42 0-.754.13-1.005.386-.25.258-.375.605-.375 1.043 0 .424.123.765.369 1.025.246.26.588.39 1.025.39.428 0 .765-.125 1.008-.376.244-.25.366-.597.366-1.039m1.771-4.437c0 .484-.122.911-.363 1.285a2.614 2.614 0 0 1-.998.896c.483.232.865.553 1.149.961.282.407.424.887.424 1.438 0 .884-.301 1.583-.903 2.095-.601.514-1.42.77-2.454.77-1.035 0-1.855-.258-2.461-.773-.606-.514-.909-1.212-.909-2.092 0-.55.141-1.032.424-1.442.282-.41.663-.729 1.141-.957a2.598 2.598 0 0 1-.995-.896 2.33 2.33 0 0 1-.358-1.285c0-.847.282-1.523.848-2.026.564-.504 1.333-.756 2.303-.756.966 0 1.733.25 2.3.748.567.5.852 1.178.852 2.034"/>
        </g>
        <path fill="#495C6A" d="M101.514 88.922h4.511c2.149 0 3.74-.537 4.776-1.611 1.035-1.075 1.553-2.5 1.553-4.278 0-1.719-.513-3.056-1.539-4.013-1.025-.958-2.436-1.436-4.233-1.436-1.621 0-2.978.444-4.072 1.333-1.094.889-1.64 2.046-1.64 3.472h-8.468c0-2.227.6-4.224 1.802-5.992 1.201-1.767 2.881-3.149 5.04-4.145 2.157-.996 4.535-1.494 7.133-1.494 4.512 0 8.047 1.079 10.605 3.237 2.559 2.158 3.838 5.132 3.838 8.921 0 1.953-.595 3.75-1.787 5.39-1.191 1.641-2.754 2.901-4.687 3.78 2.402.86 4.194 2.148 5.376 3.867 1.181 1.719 1.772 3.75 1.772 6.094 0 3.789-1.382 6.826-4.145 9.111-2.764 2.285-6.421 3.428-10.972 3.428-4.258 0-7.74-1.123-10.444-3.37-2.705-2.245-4.058-5.214-4.058-8.905h8.467c0 1.601.6 2.91 1.802 3.925 1.2 1.016 2.68 1.524 4.438 1.524 2.012 0 3.589-.532 4.731-1.597 1.143-1.064 1.714-2.475 1.714-4.233 0-4.258-2.343-6.387-7.03-6.387h-4.483v-6.621z"/>
    </g>
</svg>
