<svg xmlns="http://www.w3.org/2000/svg" width="34" height="34" viewBox="0 0 34 34">
    <g fill="none" fill-rule="evenodd" transform="translate(1 1)">
        <circle cx="16" cy="16" r="16" stroke="#0286BF"/>
        <path fill="#0286BF" fill-rule="nonzero" d="M20.469 8.003L18.358 8c-2.371 0-3.904 1.546-3.904 3.938v1.815h-2.122a.33.33 0 0 0-.332.327v2.63c0 .18.149.326.332.326h2.122v6.638c0 .18.149.326.332.326h2.769a.33.33 0 0 0 .332-.326v-6.638h2.481a.329.329 0 0 0 .332-.326l.001-2.63a.324.324 0 0 0-.097-.231.335.335 0 0 0-.235-.096h-2.482v-1.539c0-.74.18-1.115 1.16-1.115h1.421a.33.33 0 0 0 .332-.327V8.33a.33.33 0 0 0-.331-.327z"/>
    </g>
</svg>
