<svg xmlns="http://www.w3.org/2000/svg" width="34" height="34" viewBox="0 0 34 34">
    <g fill="none" fill-rule="evenodd" transform="translate(1 1)">
        <circle cx="16" cy="16" r="16" stroke="#0286BF"/>
        <g fill="#0286BF" fill-rule="nonzero">
            <path d="M11.724 13.147H8.512a.258.258 0 0 0-.258.258v10.32c0 .142.116.257.258.257h3.212a.258.258 0 0 0 .258-.258V13.405a.258.258 0 0 0-.258-.258zM10.12 8.018A2.12 2.12 0 0 0 8 10.135c0 1.168.95 2.118 2.12 2.118a2.12 2.12 0 0 0 2.117-2.118 2.12 2.12 0 0 0-2.117-2.117zM19.894 12.89c-1.29 0-2.243.555-2.822 1.186v-.67a.258.258 0 0 0-.258-.259h-3.076a.258.258 0 0 0-.258.258v10.32c0 .142.116.257.258.257h3.205a.258.258 0 0 0 .258-.258V18.62c0-1.72.467-2.39 1.667-2.39 1.306 0 1.41 1.074 1.41 2.478v5.017c0 .143.115.258.258.258h3.206a.258.258 0 0 0 .258-.258v-5.66c0-2.558-.488-5.173-4.106-5.173z"/>
        </g>
    </g>
</svg>
