<svg xmlns="http://www.w3.org/2000/svg" width="15" height="16" viewBox="0 0 15 16">
    <g fill="none" fill-rule="evenodd">
        <path fill="#898C8E" d="M15 8.25a7.5 7.5 0 1 1-15-.001 7.5 7.5 0 0 1 15 0"/>
        <path fill="#EEF3FA" d="M7.518 10.407l-1.176 1.176L3.178 8.42l1.176-1.177z"/>
        <path fill="#EEF3FA" d="M6.341 11.57L5.17 10.398l5.48-5.482 1.173 1.173z"/>
    </g>
</svg>
