<svg xmlns="http://www.w3.org/2000/svg" width="116" height="118" viewBox="0 0 116 118">
    <g fill="none" fill-rule="evenodd">
        <path fill="#0286BF" d="M0 69.376c0-26.42 21.48-47.838 47.978-47.838 26.497 0 47.977 21.418 47.977 47.838s-21.48 47.839-47.977 47.839C21.48 117.215 0 95.795 0 69.375z"/>
        <path fill="#1EA0F2" d="M6.781 69.376c0 22.687 18.444 41.077 41.197 41.077 22.752 0 41.195-18.39 41.195-41.077 0-22.686-18.443-41.077-41.195-41.077-22.753 0-41.197 18.391-41.197 41.077"/>
        <path fill="#495C6A" d="M6.781 69.376c0 22.687 18.444 41.077 41.197 41.077 22.752 0 41.195-18.39 41.195-41.077H6.781z"/>
        <path fill="#EEF3FA" d="M13.427 69.376c0 19.026 15.47 34.452 34.55 34.452 19.082 0 34.552-15.426 34.552-34.452 0-19.026-15.47-34.451-34.551-34.451-19.082 0-34.551 15.425-34.551 34.45"/>
        <path fill="#1EA0F2" d="M19.104 69.376c0 15.9 12.928 28.79 28.873 28.79 15.947 0 28.874-12.89 28.874-28.79 0-15.9-12.927-28.79-28.874-28.79-15.945 0-28.873 12.89-28.873 28.79"/>
        <path fill="#0286BF" d="M19.104 69.376c0 15.9 12.928 28.79 28.873 28.79 15.947 0 28.874-12.89 28.874-28.79H19.104z"/>
        <path fill="#E0EEF9" d="M36.718 69.376c0 6.2 5.041 11.227 11.26 11.227 6.219 0 11.26-5.026 11.26-11.227 0-6.2-5.041-11.226-11.26-11.226-6.219 0-11.26 5.025-11.26 11.226"/>
        <path fill="#1EA0F2" d="M35.682 23.438h24.592v-6.49H35.682z"/>
        <path fill="#1EA0F2" d="M59.37 17.489H36.585c-4.843 0-8.77-3.915-8.77-8.744 0-4.83 3.927-8.745 8.77-8.745h22.783c4.845 0 8.77 3.915 8.77 8.745 0 4.83-3.925 8.744-8.77 8.744"/>
        <path fill="#0286BF" d="M68.139 8.744c0 4.83-3.926 8.744-8.77 8.744H36.588c-4.845 0-8.771-3.913-8.771-8.744h40.323z"/>
        <path fill="#495C6A" d="M46.23 71.852a2.758 2.758 0 0 1 0-3.91L80.413 33.86a2.779 2.779 0 0 1 3.92 0 2.758 2.758 0 0 1 0 3.91L50.15 71.852a2.779 2.779 0 0 1-3.92 0"/>
        <path fill="#0286BF" d="M89.416 43.405l-9.511-3.293a2.892 2.892 0 0 1-1.781-1.771l-3.356-9.546a2.879 2.879 0 0 1 .684-2.993L98.191 3.13c1.505-1.503 4.069-.922 4.775 1.084l2.443 6.938c.29.83.947 1.481 1.78 1.77l6.853 2.37c2.017.696 2.608 3.26 1.098 4.765L92.41 42.718a2.9 2.9 0 0 1-2.994.687"/>
        <path fill="#1EA0F2" d="M106.023 12.164c.318.34.716.602 1.167.758l6.851 2.37c2.018.696 2.609 3.26 1.098 4.765L92.411 42.719a2.9 2.9 0 0 1-2.995.686l-9.51-3.293a2.889 2.889 0 0 1-1.138-.726l27.255-27.222z"/>
    </g>
</svg>
