<svg xmlns="http://www.w3.org/2000/svg" xmlns:xlink="http://www.w3.org/1999/xlink" width="120" height="115" viewBox="0 0 120 115">
    <defs>
        <path id="a" d="M0 99.526V.351h119.032v99.175z"/>
        <path id="c" d="M0 .357v17.531h119.032V.357H0z"/>
    </defs>
    <g fill="none" fill-rule="evenodd">
        <g transform="translate(0 -.36)">
            <mask id="b" fill="#fff">
                <use xlink:href="#a"/>
            </mask>
            <path fill="#EEF3FA" d="M115.072 99.526H3.96A3.96 3.96 0 0 1 0 95.566V4.31A3.96 3.96 0 0 1 3.96.351h111.112a3.96 3.96 0 0 1 3.96 3.96v91.255a3.96 3.96 0 0 1-3.96 3.96" mask="url(#b)"/>
        </g>
        <g transform="translate(0 -.36)">
            <mask id="d" fill="#fff">
                <use xlink:href="#c"/>
            </mask>
            <path fill="#1EA0F2" d="M119.032 17.888H0V4.317A3.96 3.96 0 0 1 3.96.357h111.112a3.96 3.96 0 0 1 3.96 3.96v13.571z" mask="url(#d)"/>
        </g>
        <path fill="#0286BF" d="M0 17.528h119.033V8.794H0z"/>
        <path fill="#EEF3FA" d="M8.059 8.788a1.733 1.733 0 1 0 3.466-.002 1.733 1.733 0 0 0-3.466.002M12.97 8.788a1.733 1.733 0 1 0 3.465 0 1.733 1.733 0 0 0-3.465 0M17.881 8.788a1.733 1.733 0 1 0 3.466 0 1.733 1.733 0 0 0-3.466 0M106.986 11.237H39.164a1.98 1.98 0 0 1-1.98-1.98v-.99a1.98 1.98 0 0 1 1.98-1.98h67.822a1.98 1.98 0 0 1 1.98 1.98v.99a1.98 1.98 0 0 1-1.98 1.98"/>
        <path fill="#495C6A" d="M6.85 27.166h16.997v-3.918H6.85zM6.85 35.139h16.997v-3.92H6.85zM6.85 43.11h16.997v-3.918H6.85zM6.85 51.083h16.997v-3.919H6.85zM6.85 59.056h16.997v-3.918H6.85z"/>
        <path fill="#EEF3FA" d="M35.106 87.511c0 14.354 11.635 25.99 25.99 25.99 14.353 0 25.99-11.636 25.99-25.99s-11.637-25.99-25.99-25.99c-14.355 0-25.99 11.636-25.99 25.99"/>
        <path fill="#4B799E" d="M61.096 62.51c-13.785 0-25 11.216-25 25 0 13.786 11.215 25 25 25s25-11.214 25-25c0-13.784-11.215-25-25-25m0 51.98c-14.877 0-26.98-12.102-26.98-26.98 0-14.877 12.103-26.98 26.98-26.98s26.98 12.103 26.98 26.98c0 14.878-12.103 26.98-26.98 26.98"/>
        <path fill="#495C6A" d="M50.194 97.647a15.004 15.004 0 0 1-4.156-10.388c0-4.12 1.653-7.852 4.333-10.57A15.012 15.012 0 0 1 61.096 72.2c4.035 0 7.699 1.587 10.402 4.171a15.013 15.013 0 0 1 4.656 10.888c0 4.079-1.622 7.78-4.257 10.49l6.993 7.057a24.91 24.91 0 0 0 7.197-17.547 24.916 24.916 0 0 0-7.502-17.852 24.907 24.907 0 0 0-17.49-7.14c-7.05 0-13.419 2.92-17.962 7.616a24.91 24.91 0 0 0-7.03 17.376c0 6.9 2.691 13.294 7.214 17.815l6.877-7.427z"/>
        <path fill="#1EA0F2" d="M71.485 76.379a15.016 15.016 0 0 1 4.656 10.887c0 4.08-1.622 7.78-4.257 10.492l6.994 7.3c4.449-4.512 7.196-10.953 7.196-17.792a24.941 24.941 0 0 0-7.493-17.864l-7.096 6.977z"/>
        <path fill="#0286BF" d="M50.36 76.688A15.012 15.012 0 0 1 61.085 72.2c4.034 0 7.699 1.587 10.403 4.171l7.095-6.967a24.926 24.926 0 0 0-17.498-7.136c-7.05 0-13.42 2.918-17.964 7.615l7.239 6.805zM59.262 88.673a2.46 2.46 0 1 1 4.324-2.345 2.46 2.46 0 0 1-4.324 2.345m6.63 2.862c.026-.012.053-.022.073-.049l.103-.13c.054-.067.105-.134.156-.202l9.63-10.754a.678.678 0 0 0-.591-1.09l-14.209 2.174a6.12 6.12 0 0 0-.38.033l-.084.007c-.017.002-.027.013-.042.018a6.01 6.01 0 0 0-2.005.646 6.045 6.045 0 0 0 5.763 10.625 5.964 5.964 0 0 0 1.586-1.278"/>
        <path fill="#898C8E" d="M34.115 27.208h76.372v-3.96H34.115zM34.115 35.239h71.877v-3.96H34.115zM34.115 43.27h74.441v-3.96H34.115zM34.115 51.302h52.47v-3.96h-52.47z"/>
    </g>
</svg>
