<svg width="346" height="255" viewBox="0 0 346 255" fill="none" xmlns="http://www.w3.org/2000/svg">
<path d="M177 3.00024C437.58 -24.7292 345.433 195.483 236.444 236.987C169.113 262.627 99.6635 266.165 59.1343 208.965C6.63862 134.876 -83.5797 30.7297 177 3.00024Z" fill="url(#paint0_linear)"/>
<path d="M177 3.00024C437.58 -24.7292 345.433 195.483 236.444 236.987C169.113 262.627 99.6635 266.165 59.1343 208.965C6.63862 134.876 -83.5797 30.7297 177 3.00024Z" fill="url(#paint1_linear)"/>
<defs>
<linearGradient id="paint0_linear" x1="224.869" y1="241.311" x2="142.264" y2="-0.519552" gradientUnits="userSpaceOnUse">
<stop stop-color="#E9CE31"/>
<stop offset="1" stop-color="#EFB52E"/>
</linearGradient>
<linearGradient id="paint1_linear" x1="224.869" y1="241.311" x2="142.264" y2="-0.519552" gradientUnits="userSpaceOnUse">
<stop stop-color="#E9CE31"/>
<stop offset="1" stop-color="#EFB52E"/>
</linearGradient>
</defs>
</svg>
