<svg width="885" height="325" viewBox="0 0 885 325" fill="none" xmlns="http://www.w3.org/2000/svg">
<path fill-rule="evenodd" clip-rule="evenodd" d="M0 6C0 2.68629 2.68629 0 6 0H879C882.314 0 885 2.68629 885 6V319C885 322.314 882.314 325 879 325H6.00001C2.6863 325 0 322.314 0 319V6Z" fill="url(#paint0_linear)"/>
<mask id="mask0" mask-type="alpha" maskUnits="userSpaceOnUse" x="0" y="0" width="885" height="325">
<rect width="885" height="325" fill="url(#paint1_linear)"/>
</mask>
<g mask="url(#mask0)">
<path d="M892.298 581.491C805.635 607.078 688.396 577.29 581.097 534.209C470.785 489.918 382.839 418.525 365.749 365.658C344.386 299.575 467.472 196.839 580.487 171.23C693.502 145.621 1058.24 181.841 999.75 280.464C941.261 379.086 978.961 555.905 892.298 581.491Z" fill="url(#paint2_linear)" fill-opacity="0.2"/>
<path d="M-162.277 27.3676C-151.662 -22.4036 -62.5719 -6.57625 2.52638 -26.3828C61.0239 -44.181 107.36 -155.76 153.761 -69.4835C188.297 -5.26786 185.334 44.166 123.642 88.1839C60.5319 133.213 -34.1724 147.864 -103.639 107.843C-142.318 85.5585 -169.741 62.3615 -162.277 27.3676Z" fill="url(#paint3_linear)" fill-opacity="0.2"/>
</g>
<defs>
<linearGradient id="paint0_linear" x1="442.5" y1="0" x2="442.5" y2="325" gradientUnits="userSpaceOnUse">
<stop stop-color="#2DD4AB"/>
<stop offset="1" stop-color="#11C2C2"/>
</linearGradient>
<linearGradient id="paint1_linear" x1="-0.150811" y1="162.575" x2="885.05" y2="162.575" gradientUnits="userSpaceOnUse">
<stop offset="0.00628811" stop-color="#07AB8D"/>
<stop offset="1" stop-color="#079F7B"/>
</linearGradient>
<linearGradient id="paint2_linear" x1="363.719" y1="591.349" x2="456.533" y2="65.9524" gradientUnits="userSpaceOnUse">
<stop stop-color="#40E8BF"/>
<stop offset="1" stop-color="#1FE1E1"/>
</linearGradient>
<linearGradient id="paint3_linear" x1="-0.396484" y1="-158" x2="174.349" y2="87.7345" gradientUnits="userSpaceOnUse">
<stop stop-color="#40E8BF"/>
<stop offset="1" stop-color="#1FE1E1"/>
</linearGradient>
</defs>
</svg>
