<svg width="684" height="534" viewBox="0 0 684 534" fill="none" xmlns="http://www.w3.org/2000/svg">
<path d="M88.2715 83.3887V491.473C88.2715 516.372 109.282 535.774 134.171 533.834L633.574 495.353C655.878 493.737 672.686 475.305 672.686 452.993V138.037C672.686 116.372 656.201 98.2634 634.867 95.6765L135.141 41.0281C110.252 38.4412 88.2715 58.1664 88.2715 83.3887Z" fill="#A9F6FF"/>
<path opacity="0.4" d="M45.2807 437.472L268.315 428.742C291.265 427.771 309.043 409.016 309.043 386.381V69.485C309.043 47.8197 292.881 29.7113 271.547 27.1244L48.5131 0.285268C23.3005 -2.625 0.99707 17.1002 0.99707 42.6458V395.112C0.99707 419.364 21.0378 438.442 45.2807 437.472Z" fill="white"/>
<path opacity="0.2" d="M154.536 521.547L644.565 485.978C666.868 484.361 684 465.929 684 443.617V170.052C684 148.063 667.191 129.631 645.534 127.691L155.505 81.4502C130.616 79.1867 108.959 98.5884 108.959 123.811V479.187C108.959 503.762 129.969 523.488 154.536 521.547Z" fill="white"/>
<path opacity="0.1" d="M376.276 477.892L627.756 462.694V142.565L376.276 120.576V477.892Z" fill="#21CDC2"/>
<path d="M414.742 203.033L633.574 214.674C636.16 214.674 638.423 212.087 638.423 208.853V165.523C638.423 161.966 636.16 159.055 633.574 159.055L414.742 141.594C411.51 141.271 408.924 144.181 408.924 148.061V196.242C408.924 199.799 411.51 203.033 414.742 203.033Z" stroke="#11BDCB" stroke-width="2" stroke-miterlimit="10"/>
<path d="M414.742 284.521L633.574 288.725C636.16 288.725 638.423 286.138 638.423 282.581V239.25C638.423 235.693 636.16 232.783 633.574 232.783L414.742 222.759C411.51 222.759 408.924 225.669 408.924 229.549V277.731C408.924 281.287 411.51 284.521 414.742 284.521Z" stroke="#11BDCB" stroke-width="2" stroke-miterlimit="10"/>
<path d="M406.985 293.576L627.11 297.133C629.696 297.133 631.959 294.546 631.959 290.989V247.012C631.959 243.455 629.696 240.544 627.11 240.544L406.985 231.49C403.753 231.49 401.167 234.4 401.167 238.281V286.462C401.167 290.342 403.753 293.253 406.985 293.576Z" fill="white"/>
<path d="M414.742 365.685L633.574 362.451C636.16 362.451 638.423 359.541 638.423 355.984V312.977C638.423 309.42 636.16 306.833 633.574 306.833L414.742 304.246C411.51 304.246 408.924 307.156 408.924 311.037V358.894C408.924 362.775 411.51 366.008 414.742 365.685Z" stroke="#11BDCB" stroke-width="2" stroke-miterlimit="10"/>
<path d="M414.742 447.175L633.574 436.504C636.16 436.504 638.423 433.594 638.423 430.037V386.706C638.423 383.149 636.16 380.562 633.574 380.562L414.742 385.736C411.51 385.736 408.924 388.97 408.924 392.85V440.708C408.924 444.265 411.51 447.175 414.742 447.175Z" stroke="#11BDCB" stroke-width="2" stroke-miterlimit="10"/>
<path d="M178.518 264.099C141.669 278.973 96.7385 269.596 65.0611 236.289C49.5457 219.798 39.5253 199.749 35 179.054L88.6575 170C93.8293 195.546 115.486 215.271 140.699 216.241C147.487 216.564 153.952 215.594 159.77 213.331L178.518 264.099Z" fill="#FFC550"/>
<path d="M212.426 241.191C211.779 241.838 210.81 242.808 210.163 243.455L176.223 203.034C185.92 193.657 192.062 180.076 192.062 164.554C192.062 134.805 169.435 108.936 140.99 106.349C120.303 104.732 102.201 115.726 93.474 133.511L44.665 105.055C49.8369 94.7077 56.9481 85.0068 65.6755 76.9227C108.02 37.7957 173.637 44.9097 212.426 90.5039C250.245 135.128 250.245 201.417 212.426 241.191Z" fill="#298DFF"/>
<path d="M87.9768 157.763C87.9768 161.967 88.3001 165.847 89.2698 169.727L35.6122 178.781C30.1172 153.559 33.0263 127.367 44.6629 105.055L93.4719 133.511C89.9162 140.625 87.9768 149.032 87.9768 157.763Z" fill="#0ED7A6"/>
<path d="M210.162 243.455C201.112 252.509 190.445 259.299 179.132 263.826L160.384 213.058C166.525 210.795 171.697 207.238 176.222 203.034L210.162 243.455Z" fill="#FF5741"/>
<path d="M533.372 253.479L621.616 256.389V249.922L533.372 246.688V253.479Z" fill="#13BFC9"/>
<path d="M533.371 265.121L621.615 267.708V261.24L533.371 258.653V265.121Z" fill="#13BFC9"/>
<path opacity="0.6" d="M583.474 278.054L621.616 279.024V272.557L583.474 271.587V278.054Z" fill="#7BCAFF"/>
<path d="M470.34 380.561L496.845 380.884V349.518L470.34 348.548V380.561Z" fill="#13BFC9"/>
<path d="M424.439 308.452L451.591 309.098V277.085L424.439 276.115V308.452Z" fill="#13BFC9"/>
<path d="M159.384 298.426V497.617L163.909 497.294V298.426H159.384Z" fill="#4BE9C9"/>
<path d="M349.448 423.245V485.654L353.65 485.331V423.245H349.448Z" fill="#EDF4FC"/>
<path d="M257.972 355.984V491.474L262.497 491.15V355.984H257.972Z" fill="#0ED7A6"/>
<path d="M54.0088 452.993C108.959 450.406 108.959 325.265 161.647 325.265C212.396 325.265 212.396 445.879 261.205 443.616C308.074 441.675 308.074 325.588 353.327 325.911" stroke="#FFC550" stroke-width="2" stroke-miterlimit="10"/>
<path d="M231.467 293.253V282.905L212.396 282.582V292.93L231.467 293.253Z" fill="#0ED7A6"/>
<path d="M264.436 293.575V283.551L245.688 283.228V293.575H264.436Z" fill="#0ED7A6"/>
<path d="M296.437 294.223V284.198L278.336 283.875V293.899L296.437 294.223Z" fill="#0ED7A6"/>
<path d="M526.907 331.411L616.444 331.087V322.68L526.907 322.356V331.411Z" fill="#13BFC9"/>
<path d="M556.967 346.931L616.443 346.608V337.877L556.967 338.2V346.931Z" fill="#13BFC9"/>
<path d="M534.341 347.253L549.856 346.93V338.199H534.341V347.253Z" fill="#13BFC9"/>
<path d="M526.907 178.134L616.444 184.278V175.547L526.907 169.08V178.134Z" fill="#13BFC9"/>
<path d="M564.078 196.243L616.443 199.477V190.746L564.078 187.513V196.243Z" fill="#13BFC9"/>
<path d="M498.461 192.364L556.967 195.921V187.19L498.461 183.31V192.364Z" fill="#13BFC9"/>
<path d="M581.532 406.754L616.442 405.784V397.053L581.532 398.023V406.754Z" fill="#13BFC9"/>
<path d="M538.866 408.37L575.069 407.077V398.346L538.866 399.316V408.37Z" fill="#13BFC9"/>
<path d="M556.967 423.569L616.443 420.982V412.251L556.967 414.515V423.569Z" fill="#13BFC9"/>
<path d="M487.794 426.478L549.856 423.891V414.837L487.794 417.1V426.478Z" fill="#13BFC9"/>
<path d="M283.83 107.641C278.012 104.408 270.9 105.378 266.052 110.228C263.789 112.492 262.173 115.725 261.526 118.959L269.607 121.546C270.577 117.342 273.809 114.755 277.688 115.079C278.658 115.079 279.951 115.402 280.597 116.049L283.83 107.641Z" fill="#298DFF"/>
<path d="M289.325 112.167L289.002 111.844L283.507 117.988C285.123 119.928 286.092 122.191 286.092 124.778C286.092 129.952 282.537 133.509 278.012 133.186C274.779 132.862 271.87 130.599 270.577 127.365L263.143 130.922C263.789 132.862 265.082 134.479 266.375 136.096C272.84 143.857 283.183 144.503 289.648 138.036C295.79 131.246 295.79 119.604 289.325 112.167Z" fill="#0ED7A6"/>
<path d="M269.609 123.162C269.609 122.515 269.609 121.868 269.932 121.222L261.851 118.635C261.205 122.515 261.528 126.719 263.144 130.599L270.579 127.042C269.932 126.072 269.609 124.779 269.609 123.162Z" fill="#FFC550"/>
<path d="M289.081 112.204C287.465 110.587 285.849 108.97 283.909 108L281 116.084C281.97 116.731 282.939 117.378 283.586 118.024L289.081 112.204Z" fill="#FF5741"/>
<path d="M262.819 240.868C265.405 247.335 271.224 252.185 278.012 252.509C281.244 252.509 284.153 251.539 286.739 249.922L282.214 241.838C278.981 244.101 274.779 243.454 271.87 240.221C271.224 239.251 270.577 238.281 270.254 237.311L262.819 240.868Z" fill="#0ED7A6"/>
<path d="M261.526 233.431C261.526 233.755 261.526 233.755 261.526 234.078H269.607C269.607 231.491 270.254 229.228 271.87 227.288C275.102 223.731 280.274 224.054 283.507 227.611C285.769 230.198 286.416 233.755 285.446 236.988L293.204 240.222C293.85 238.282 294.173 236.342 294.173 234.402C294.173 224.377 287.062 215.97 278.012 215.646C268.961 215.646 261.526 223.407 261.526 233.431Z" fill="#FF5741"/>
<path d="M283.83 240.868C283.507 241.192 282.86 241.838 282.537 242.162L287.062 249.923C289.972 247.982 292.558 244.749 293.527 240.868L285.769 237.635C285.446 238.605 284.8 239.898 283.83 240.868Z" fill="#298DFF"/>
<path d="M261.525 234.078C261.525 236.342 262.172 238.605 262.818 240.869L270.253 237.635C269.93 236.665 269.606 235.372 269.606 234.401L261.525 234.078Z" fill="#FFC550"/>
<path d="M284.475 196.242C290.293 193.655 294.172 187.511 294.172 180.074C294.172 176.517 293.202 172.96 291.586 170.05L284.798 174.577C286.737 178.134 286.414 182.984 283.828 185.895C283.182 186.541 282.212 187.188 281.242 187.835L284.475 196.242Z" fill="#FF5741"/>
<path d="M278.012 197.213C278.335 197.213 278.335 197.213 278.658 197.213L278.335 188.159C276.072 188.159 273.809 187.189 272.193 185.249C268.961 181.369 268.961 175.548 272.193 172.314C274.456 170.051 277.688 169.404 280.597 170.698L283.183 162.29C281.567 161.643 279.628 160.997 278.012 160.997C268.961 160.35 261.526 168.111 261.526 178.135C261.526 188.159 268.961 196.89 278.012 197.213Z" fill="#0ED7A6"/>
<path d="M283.83 172.96C284.153 173.607 284.477 173.93 284.8 174.577L291.588 170.05C289.648 166.493 286.739 163.583 283.184 161.966L280.598 170.373C281.567 171.02 282.86 171.99 283.83 172.96Z" fill="#FFC550"/>
<path d="M278.334 197.214C280.273 197.214 282.536 196.89 284.152 195.92L280.92 187.513C279.95 187.836 278.98 188.159 278.011 188.159L278.334 197.214Z" fill="#298DFF"/>
</svg>
