<svg width="283" height="227" viewBox="0 0 283 227" fill="none" xmlns="http://www.w3.org/2000/svg">
<path d="M271 138.5C215.742 315.096 4.85584 186.042 1.00022 105.5C-1.38173 55.7423 43.7757 12.3203 102.015 8.12393C174.815 2.8785 326.258 -38.0961 271 138.5Z" fill="url(#paint0_linear)"/>
<defs>
<linearGradient id="paint0_linear" x1="0.910156" y1="0.337402" x2="322.645" y2="107.163" gradientUnits="userSpaceOnUse">
<stop stop-color="#B61CD0"/>
<stop offset="1" stop-color="#7B13A4"/>
</linearGradient>
</defs>
</svg>
