<svg width="247" height="238" viewBox="0 0 247 238" fill="none" xmlns="http://www.w3.org/2000/svg">
<g filter="url(#filter0_d)">
<rect x="15.4219" y="209.664" width="215.888" height="10.2804" fill="#C4C4C4"/>
</g>
<path d="M233.484 165.577H13.2509C13.1294 165.577 13.0078 165.456 13.0078 165.334V40.2098C13.0078 34.9862 17.2618 30.7344 22.4881 30.7344H224.126C229.352 30.7344 233.606 34.9862 233.606 40.2098V165.334C233.728 165.456 233.606 165.577 233.484 165.577Z" fill="#EFEFEF"/>
<path d="M223.393 156.832H23.4569C23.3354 156.832 23.2139 156.711 23.2139 156.589V44.0986H223.515V156.589C223.515 156.711 223.393 156.832 223.393 156.832Z" fill="url(#paint0_linear)"/>
<path d="M246.73 212.468H0L13.005 165.333H233.725L246.73 212.468Z" fill="#E5E8EA"/>
<path d="M227.163 195.826H19.6914L25.2823 171.651H221.451L227.163 195.826Z" fill="#B6C1C6"/>
<path d="M164.568 208.703H83.0135C81.3119 208.703 80.0965 207.245 80.3396 205.545L80.9473 200.564C81.1904 199.106 82.2842 198.134 83.6212 198.134H163.96C165.297 198.134 166.513 199.228 166.634 200.564L167.242 205.545C167.485 207.124 166.27 208.703 164.568 208.703Z" fill="#B6C1C6"/>
<path opacity="0.1" d="M237.251 177.846H9.60352L13.0067 165.334H233.726L237.251 177.846Z" fill="#45415A"/>
<path d="M239.194 220H7.53558C3.40317 220 0 216.599 0 212.468H246.73C246.73 216.599 243.326 220 239.194 220Z" fill="#F7F8F9"/>
<path d="M139.533 215.992H107.202C105.258 215.992 103.678 214.412 103.678 212.469H142.936C142.936 214.412 141.477 215.992 139.533 215.992Z" fill="#B6C1C6"/>
<path d="M69.1557 51.7505C82.8899 44.8262 91.5193 38.8736 96.8672 30.613C101.121 24.296 104.16 17.1287 105.618 9.71841C105.618 9.59693 105.618 9.59693 105.618 9.47545C105.618 9.35397 105.618 9.23249 105.74 9.11101C105.74 4.13033 85.1992 0 60.0401 0C34.8809 0 14.4619 4.13033 14.4619 9.11101C14.4619 9.23249 14.4619 9.35397 14.5835 9.47545C14.5835 9.59693 14.5835 9.59693 14.5835 9.71841C16.4066 18.7079 20.2959 27.0901 25.8868 34.3789C31.3562 41.5462 39.378 45.9195 51.046 51.7505H69.1557Z" fill="#E6ECF3"/>
<path d="M105.743 9.11101C105.743 9.23249 105.743 9.35397 105.622 9.47545C105.622 9.59693 105.622 9.59693 105.622 9.71841C104.163 14.5776 84.3518 18.3435 60.0434 18.3435C35.7351 18.3435 15.9238 14.4561 14.4653 9.71841C14.4653 9.59693 14.4653 9.59693 14.4653 9.47545C14.4653 9.35397 14.4653 9.23249 14.3438 9.11101C14.4653 4.13033 34.8843 0 60.0434 0C85.2026 0 105.743 4.13033 105.743 9.11101Z" fill="#B6C1C6"/>
<path d="M96.8695 30.6132C89.9416 41.0605 80.3398 49.3211 69.158 54.7877V86.8585C63.2024 88.8022 56.8822 88.8022 50.9267 86.8585V54.7877C41.0818 50.05 32.4524 43.0042 25.7676 34.3791C38.1648 38.9953 52.6283 42.5182 65.5117 38.1449C75.4781 34.7435 85.6876 30.4917 96.5048 30.4917L96.8695 30.6132Z" fill="white"/>
<path d="M60.0396 134.477C64.8055 134.477 68.6691 130.616 68.6691 125.852C68.6691 121.089 64.8055 117.227 60.0396 117.227C55.2737 117.227 51.4102 121.089 51.4102 125.852C51.4102 130.616 55.2737 134.477 60.0396 134.477Z" fill="#5CE4CC"/>
<path d="M197.623 77.5025H182.43C180.364 77.5025 178.662 75.8018 178.662 73.7366C178.662 71.6714 180.364 69.9707 182.43 69.9707H197.623C199.689 69.9707 201.39 71.6714 201.39 73.7366C201.39 75.8018 199.81 77.5025 197.623 77.5025Z" fill="#E6E7E8"/>
<path d="M178.664 92.6895H163.471C161.405 92.6895 159.703 90.9888 159.703 88.9236C159.703 86.8584 161.405 85.1577 163.471 85.1577H178.664C180.73 85.1577 182.431 86.8584 182.431 88.9236C182.431 90.9888 180.73 92.6895 178.664 92.6895Z" fill="#E6E7E8"/>
<path d="M167.358 77.5025H144.63C142.564 77.5025 140.862 75.8018 140.862 73.7366C140.862 71.6714 142.564 69.9707 144.63 69.9707H167.358C169.425 69.9707 171.126 71.6714 171.126 73.7366C171.126 75.8018 169.425 77.5025 167.358 77.5025Z" fill="#E6E7E8"/>
<path d="M197.623 107.873H182.43C180.364 107.873 178.662 106.172 178.662 104.107C178.662 102.042 180.364 100.341 182.43 100.341H197.623C199.689 100.341 201.39 102.042 201.39 104.107C201.39 106.172 199.81 107.873 197.623 107.873Z" fill="#E6E7E8"/>
<path d="M121.783 77.5025H106.59C104.524 77.5025 102.822 75.8018 102.822 73.7366C102.822 71.6714 104.524 69.9707 106.59 69.9707H121.783C123.849 69.9707 125.551 71.6714 125.551 73.7366C125.551 75.8018 123.849 77.5025 121.783 77.5025Z" fill="#E6E7E8"/>
<path d="M121.781 107.873H106.588C104.522 107.873 102.82 106.172 102.82 104.107C102.82 102.042 104.522 100.341 106.588 100.341H121.781C123.847 100.341 125.549 102.042 125.549 104.107C125.549 106.172 123.847 107.873 121.781 107.873Z" fill="#E6E7E8"/>
<path d="M167.358 107.873H144.63C142.564 107.873 140.862 106.172 140.862 104.107C140.862 102.042 142.564 100.341 144.63 100.341H167.358C169.425 100.341 171.126 102.042 171.126 104.107C171.126 106.172 169.425 107.873 167.358 107.873Z" fill="#E6E7E8"/>
<path d="M148.398 92.6895H144.63C142.564 92.6895 140.862 90.9888 140.862 88.9236C140.862 86.8584 142.564 85.1577 144.63 85.1577H148.398C150.464 85.1577 152.166 86.8584 152.166 88.9236C152.166 90.9888 150.464 92.6895 148.398 92.6895Z" fill="#E6E7E8"/>
<path d="M129.559 92.6895H106.588C104.522 92.6895 102.82 90.9888 102.82 88.9236C102.82 86.8584 104.522 85.1577 106.588 85.1577H129.559C131.626 85.1577 133.327 86.8584 133.327 88.9236C133.327 90.9888 131.747 92.6895 129.559 92.6895Z" fill="#E6E7E8"/>
<path d="M110.356 119.294H136.852C140.984 119.294 144.388 122.695 144.388 126.826C144.388 130.956 140.984 134.357 136.852 134.357H110.356C106.223 134.357 102.82 130.956 102.82 126.826C102.82 122.695 106.223 119.294 110.356 119.294Z" fill="#FFB300"/>
<path d="M167.357 119.294H193.853C197.986 119.294 201.389 122.695 201.389 126.826C201.389 130.956 197.986 134.357 193.853 134.357H167.357C163.225 134.357 159.822 130.956 159.822 126.826C159.7 122.695 163.103 119.294 167.357 119.294Z" fill="#5CE4CC"/>
<defs>
<filter id="filter0_d" x="1.42188" y="199.664" width="243.888" height="38.2804" filterUnits="userSpaceOnUse" color-interpolation-filters="sRGB">
<feFlood flood-opacity="0" result="BackgroundImageFix"/>
<feColorMatrix in="SourceAlpha" type="matrix" values="0 0 0 0 0 0 0 0 0 0 0 0 0 0 0 0 0 0 127 0"/>
<feOffset dy="4"/>
<feGaussianBlur stdDeviation="7"/>
<feColorMatrix type="matrix" values="0 0 0 0 0.192157 0 0 0 0 0.192157 0 0 0 0 0.207843 0 0 0 0.15 0"/>
<feBlend mode="normal" in2="BackgroundImageFix" result="effect1_dropShadow"/>
<feBlend mode="normal" in="SourceGraphic" in2="effect1_dropShadow" result="shape"/>
</filter>
<linearGradient id="paint0_linear" x1="23.2046" y1="100.461" x2="223.534" y2="100.461" gradientUnits="userSpaceOnUse">
<stop stop-color="#3F85FD"/>
<stop offset="1" stop-color="#4197FF"/>
</linearGradient>
</defs>
</svg>
