<svg width="28" height="28" viewBox="0 0 28 28" fill="none" xmlns="http://www.w3.org/2000/svg">
<path d="M13.6104 26.928C20.575 26.928 26.2209 21.1238 26.2209 13.964C26.2209 6.80417 20.575 1 13.6104 1C6.64588 1 1 6.80417 1 13.964C1 21.1238 6.64588 26.928 13.6104 26.928Z" stroke="url(#paint0_linear)" stroke-width="2" stroke-miterlimit="10"/>
<path d="M5.92578 12.1409L12.034 18.4204L20.1126 10.1152" stroke="url(#paint1_linear)" stroke-width="2" stroke-miterlimit="10"/>
<defs>
<linearGradient id="paint0_linear" x1="0.0477152" y1="14.0485" x2="27.2342" y2="14.0485" gradientUnits="userSpaceOnUse">
<stop offset="0.00628811" stop-color="#2CD3AC"/>
<stop offset="1" stop-color="#17C6BD"/>
</linearGradient>
<linearGradient id="paint1_linear" x1="5.39012" y1="14.2949" x2="20.6826" y2="14.2949" gradientUnits="userSpaceOnUse">
<stop offset="0.00628811" stop-color="#2CD3AC"/>
<stop offset="1" stop-color="#17C6BD"/>
</linearGradient>
</defs>
</svg>
