<svg width="298" height="236" viewBox="0 0 298 236" fill="none" xmlns="http://www.w3.org/2000/svg">
<g filter="url(#filter0_d)">
<rect x="15" y="208" width="210" height="10" fill="#C4C4C4"/>
</g>
<path d="M221.027 168.202H12.5416C12.4266 168.202 12.3115 168.086 12.3115 167.971V49.1454C12.3115 44.1847 16.3386 40.147 21.286 40.147H212.167C217.115 40.147 221.142 44.1847 221.142 49.1454V167.971C221.257 168.202 221.142 168.202 221.027 168.202Z" fill="#EFEFEF"/>
<path d="M211.476 160.011H22.2057C22.0906 160.011 21.9756 159.895 21.9756 159.78V52.9526H211.591V159.78C211.591 159.895 211.476 160.011 211.476 160.011Z" fill="url(#paint0_linear)"/>
<path d="M233.568 212.848H0L12.3112 167.971H221.256L233.568 212.848Z" fill="#E5E8EA"/>
<path d="M215.044 197.043H18.6396L23.9323 174.085H209.636L215.044 197.043Z" fill="#B6C1C6"/>
<path d="M155.789 209.272H78.585C76.9742 209.272 75.8236 207.887 76.0537 206.272L76.629 201.542C76.8591 200.158 77.8947 199.235 79.1603 199.235H155.214C156.479 199.235 157.63 200.273 157.745 201.542L158.32 206.272C158.55 207.772 157.4 209.272 155.789 209.272Z" fill="#B6C1C6"/>
<path opacity="0.1" d="M224.593 179.969H9.08984L12.3115 167.971H221.257L224.593 179.969Z" fill="#45415A"/>
<path d="M226.434 220H7.13359C3.22162 220 0 216.77 0 212.848H233.568C233.568 216.77 230.346 220 226.434 220Z" fill="#F7F8F9"/>
<path d="M132.087 216.078H101.481C99.6403 216.078 98.1445 214.578 98.1445 212.732H135.308C135.308 214.694 133.928 216.078 132.087 216.078Z" fill="#B6C1C6"/>
<path d="M293.513 141.668H109.075C106.659 141.668 104.588 139.706 104.588 137.168V4.49921C104.703 2.07656 106.774 0 109.075 0H293.513C295.929 0 298 2.07656 298 4.49921V137.168C298 139.706 295.929 141.668 293.513 141.668Z" fill="#F7F8F9"/>
<path d="M298 8.53697H104.703V4.49921C104.703 2.07656 106.774 0 109.075 0H293.513C295.929 0 298 2.07656 298 4.49921V8.53697Z" fill="#D5E1E3"/>
<path d="M111.031 6.46025C112.182 6.46025 113.102 5.53733 113.102 4.38369C113.102 3.23004 112.182 2.30713 111.031 2.30713C109.88 2.30713 108.96 3.23004 108.96 4.38369C108.96 5.53733 109.88 6.46025 111.031 6.46025Z" fill="#EF2648"/>
<path d="M117.474 6.46025C118.625 6.46025 119.545 5.53733 119.545 4.38369C119.545 3.23004 118.625 2.30713 117.474 2.30713C116.324 2.30713 115.403 3.23004 115.403 4.38369C115.403 5.53733 116.324 6.46025 117.474 6.46025Z" fill="#FFE791"/>
<path d="M123.802 6.46025C124.953 6.46025 125.874 5.53733 125.874 4.38369C125.874 3.23004 124.953 2.30713 123.802 2.30713C122.652 2.30713 121.731 3.23004 121.731 4.38369C121.731 5.53733 122.652 6.46025 123.802 6.46025Z" fill="url(#paint1_linear)"/>
<path d="M131.857 49.0299C136.344 49.0299 139.911 45.4536 139.911 40.9544C139.911 36.4552 136.344 32.8789 131.857 32.8789C127.37 32.8789 123.803 36.4552 123.803 40.9544C123.803 45.4536 127.37 49.0299 131.857 49.0299Z" stroke="url(#paint2_linear)" stroke-miterlimit="10"/>
<path d="M127.024 39.8007L130.936 43.7231L136.114 38.5317" stroke="url(#paint3_linear)" stroke-miterlimit="10"/>
<path d="M274.988 34.0327H152.106V38.3012H274.988V34.0327Z" fill="url(#paint4_linear)"/>
<path d="M264.058 41.1851H152.106V45.4535H264.058V41.1851Z" fill="#DFE9EA"/>
<path d="M274.988 48.3379H152.106V52.6064H274.988V48.3379Z" fill="#DFE9EA"/>
<path d="M131.857 78.5631C136.344 78.5631 139.911 74.9868 139.911 70.4876C139.911 65.9884 136.344 62.4121 131.857 62.4121C127.37 62.4121 123.803 65.9884 123.803 70.4876C123.803 74.9868 127.37 78.5631 131.857 78.5631Z" stroke="#F13A30" stroke-miterlimit="10"/>
<path d="M258.88 63.5659H152.106V67.8344H258.88V63.5659Z" fill="#F13A30"/>
<path d="M264.058 70.4878H152.106V74.7563H264.058V70.4878Z" fill="#DFE9EA"/>
<path d="M264.058 77.6401H152.106V81.9086H264.058V77.6401Z" fill="#DFE9EA"/>
<path d="M131.857 108.096C136.344 108.096 139.911 104.52 139.911 100.021C139.911 95.5216 136.344 91.9453 131.857 91.9453C127.37 91.9453 123.803 95.5216 123.803 100.021C123.803 104.52 127.37 108.096 131.857 108.096Z" stroke="url(#paint5_linear)" stroke-miterlimit="10"/>
<path d="M127.024 98.8675L130.936 102.905L136.114 97.7139" stroke="url(#paint6_linear)" stroke-miterlimit="10"/>
<path d="M269.466 92.8682H152.106V97.1367H269.466V92.8682Z" fill="url(#paint7_linear)"/>
<path d="M274.988 100.021H152.106V104.289H274.988V100.021Z" fill="#DFE9EA"/>
<path d="M274.988 107.173H152.106V111.442H274.988V107.173Z" fill="#DFE9EA"/>
<path fill-rule="evenodd" clip-rule="evenodd" d="M131.011 70.3638L128.323 73.0513L129.03 73.7584L131.718 71.0709L134.37 73.723L135.077 73.0159L132.425 70.3638L135.077 67.7123L134.369 67.0052L131.718 69.6567L129.031 66.9698L128.324 67.6769L131.011 70.3638Z" fill="#F13A30"/>
<defs>
<filter id="filter0_d" x="1" y="198" width="238" height="38" filterUnits="userSpaceOnUse" color-interpolation-filters="sRGB">
<feFlood flood-opacity="0" result="BackgroundImageFix"/>
<feColorMatrix in="SourceAlpha" type="matrix" values="0 0 0 0 0 0 0 0 0 0 0 0 0 0 0 0 0 0 127 0"/>
<feOffset dy="4"/>
<feGaussianBlur stdDeviation="7"/>
<feColorMatrix type="matrix" values="0 0 0 0 0.192157 0 0 0 0 0.192157 0 0 0 0 0.207843 0 0 0 0.15 0"/>
<feBlend mode="normal" in2="BackgroundImageFix" result="effect1_dropShadow"/>
<feBlend mode="normal" in="SourceGraphic" in2="effect1_dropShadow" result="shape"/>
</filter>
<linearGradient id="paint0_linear" x1="21.9668" y1="106.437" x2="211.61" y2="106.437" gradientUnits="userSpaceOnUse">
<stop stop-color="#3F85FD"/>
<stop offset="1" stop-color="#4197FF"/>
</linearGradient>
<linearGradient id="paint1_linear" x1="121.394" y1="3.6652" x2="126.32" y2="4.97704" gradientUnits="userSpaceOnUse">
<stop stop-color="#2DD4AB"/>
<stop offset="1" stop-color="#11C2C2"/>
</linearGradient>
<linearGradient id="paint2_linear" x1="123.417" y1="41.01" x2="140.399" y2="41.01" gradientUnits="userSpaceOnUse">
<stop offset="0.00628811" stop-color="#2CD3AC"/>
<stop offset="1" stop-color="#17C6BD"/>
</linearGradient>
<linearGradient id="paint3_linear" x1="126.767" y1="41.2885" x2="136.279" y2="41.2885" gradientUnits="userSpaceOnUse">
<stop offset="0.00628811" stop-color="#2CD3AC"/>
<stop offset="1" stop-color="#17C6BD"/>
</linearGradient>
<linearGradient id="paint4_linear" x1="212.216" y1="26.071" x2="214.879" y2="46.2543" gradientUnits="userSpaceOnUse">
<stop stop-color="#2DD4AB"/>
<stop offset="1" stop-color="#11C2C2"/>
</linearGradient>
<linearGradient id="paint5_linear" x1="123.417" y1="100.064" x2="140.399" y2="100.064" gradientUnits="userSpaceOnUse">
<stop offset="0.00628811" stop-color="#2CD3AC"/>
<stop offset="1" stop-color="#17C6BD"/>
</linearGradient>
<linearGradient id="paint6_linear" x1="126.769" y1="100.496" x2="136.279" y2="100.496" gradientUnits="userSpaceOnUse">
<stop offset="0.00628811" stop-color="#2CD3AC"/>
<stop offset="1" stop-color="#17C6BD"/>
</linearGradient>
<linearGradient id="paint7_linear" x1="209.404" y1="84.99" x2="212.189" y2="105.145" gradientUnits="userSpaceOnUse">
<stop stop-color="#2DD4AB"/>
<stop offset="1" stop-color="#11C2C2"/>
</linearGradient>
</defs>
</svg>
