<svg width="1510" height="752" viewBox="0 0 1510 752" fill="none" xmlns="http://www.w3.org/2000/svg">
<path d="M0 0H1510V727C1379 807 1287.67 667.155 1142 666C989.006 664.787 907.998 727.433 755 727C604.701 726.574 525.299 665.687 375 666C226.629 666.31 139.296 778.094 0 727V0Z" fill="url(#paint0_linear)"/>
<mask id="mask0" mask-type="alpha" maskUnits="userSpaceOnUse" x="0" y="0" width="1511" height="752">
<path d="M0 0H1510V727C1379 807 1287.67 667.155 1142 666C989.006 664.787 907.998 727.433 755 727C604.701 726.574 525.299 665.687 375 666C226.629 666.31 139.296 778.094 0 727V0Z" fill="url(#paint1_linear)"/>
</mask>
<g mask="url(#mask0)">
<path d="M-153.335 36.6543C-122.964 -18.4136 -41.9443 -36.2331 42.0148 -38.621C128.331 -41.076 517.04 -146.777 524.239 48.7845C529.598 194.342 311.825 215.605 267.409 280.59C222.992 345.575 35.7965 331.9 5.84956 223.139C-24.0974 114.378 -183.707 91.7222 -153.335 36.6543Z" fill="url(#paint2_linear)" fill-opacity="0.2"/>
<path d="M990.775 632.882C1008.89 513.431 1160.89 551.417 1271.97 503.881C1371.77 461.166 1450.83 193.377 1530 400.44C1588.93 554.557 1583.88 673.198 1478.61 778.841C1370.94 886.911 1209.35 922.074 1090.83 826.023C1024.83 772.54 978.041 716.868 990.775 632.882Z" fill="url(#paint3_linear)" fill-opacity="0.2"/>
<path d="M1422.95 528.342C1451.61 645.707 1296.58 668.375 1211.93 754.574C1135.86 832.033 1164.56 1109.77 1012.6 948.363C899.503 828.228 859.065 716.576 916.25 578.844C974.748 437.947 1110.83 343.984 1256.97 387.752C1338.34 412.123 1402.79 445.823 1422.95 528.342Z" fill="url(#paint4_linear)" fill-opacity="0.2"/>
<path d="M192.003 723.565C71.5721 733.201 73.8528 576.537 2.21569 479.25C-62.1577 391.828 -340.923 375.99 -157.402 251.64C-20.807 159.087 95.8554 136.923 222.739 215.287C352.537 295.451 423.66 444.743 357.203 582.065C320.199 658.527 276.678 716.79 192.003 723.565Z" fill="url(#paint5_linear)" fill-opacity="0.2"/>
</g>
<defs>
<linearGradient id="paint0_linear" x1="1.71951e-05" y1="-3.15039e-05" x2="1463.42" y2="811.048" gradientUnits="userSpaceOnUse">
<stop stop-color="#58EDFF"/>
<stop offset="1" stop-color="#004BFF"/>
</linearGradient>
<linearGradient id="paint1_linear" x1="1.71951e-05" y1="-3.15039e-05" x2="1463.42" y2="811.048" gradientUnits="userSpaceOnUse">
<stop stop-color="#58EDFF"/>
<stop offset="1" stop-color="#004BFF"/>
</linearGradient>
<linearGradient id="paint2_linear" x1="302.689" y1="-297.742" x2="530.607" y2="238.144" gradientUnits="userSpaceOnUse">
<stop stop-color="#58EDFF"/>
<stop offset="1" stop-color="#3E97FF"/>
</linearGradient>
<linearGradient id="paint3_linear" x1="1266.98" y1="188" x2="1710.98" y2="631.878" gradientUnits="userSpaceOnUse">
<stop stop-color="#58EDFF"/>
<stop offset="1" stop-color="#3E97FF"/>
</linearGradient>
<linearGradient id="paint4_linear" x1="1336.65" y1="1044.83" x2="757.222" y2="803.123" gradientUnits="userSpaceOnUse">
<stop stop-color="#58EDFF"/>
<stop offset="1" stop-color="#3E97FF"/>
</linearGradient>
<linearGradient id="paint5_linear" x1="-304.186" y1="556.218" x2="26.6096" y2="22.6105" gradientUnits="userSpaceOnUse">
<stop stop-color="#58EDFF"/>
<stop offset="1" stop-color="#3E97FF"/>
</linearGradient>
</defs>
</svg>
