<svg width="26" height="26" viewBox="0 0 26 26" fill="none" xmlns="http://www.w3.org/2000/svg">
<path d="M13.7627 7.6651V12.062H19.2425C19.1864 10.1472 18.9184 8.32845 18.4869 6.7085C17.2045 7.1912 15.6236 7.57986 13.7627 7.6651Z" fill="#2CD3AC"/>
<path d="M12.2366 17.9646V13.5669H6.75684C6.81297 15.482 7.08096 17.3011 7.51241 18.9214C8.79483 18.4386 10.3758 18.0499 12.2366 17.9646Z" fill="#2CD3AC"/>
<path d="M19.2425 13.5669H13.7627V17.9646C15.6236 18.0499 17.2045 18.4386 18.4869 18.9214C18.9184 17.3011 19.1864 15.482 19.2425 13.5669Z" fill="#2CD3AC"/>
<path d="M5.22987 12.062C5.2868 9.94795 5.58316 7.91621 6.09355 6.08508C5.79164 5.93217 5.51512 5.77868 5.26558 5.62988C4.41321 5.12131 3.76773 4.60981 3.32855 4.21777C1.33261 6.39421 0.170395 9.13572 0 12.062H5.22987Z" fill="#2CD3AC"/>
<path d="M17.2783 0.684082C17.7713 1.27983 18.2291 1.98508 18.6433 2.79316C18.9374 3.36721 19.2032 3.98115 19.4395 4.62793C19.5899 4.54738 19.739 4.46408 19.8862 4.37727C20.6303 3.93891 21.1964 3.49743 21.582 3.15937C20.3077 2.05586 18.8494 1.22098 17.2783 0.684082Z" fill="#2CD3AC"/>
<path d="M6.75684 12.062H12.2366V7.6651C10.3758 7.57986 8.79483 7.1912 7.51241 6.7085C7.08096 8.32845 6.81297 10.1472 6.75684 12.062Z" fill="#2CD3AC"/>
<path d="M7.95703 5.27061C9.28885 5.78803 10.7204 6.08565 12.2371 6.16016V0C12.2012 0.00195548 12.1651 0.00410651 12.1292 0.00645307C10.4378 0.51918 8.94032 2.49461 7.95703 5.27061Z" fill="#2CD3AC"/>
<path d="M13.7627 6.16016C15.2794 6.08585 16.711 5.78803 18.0428 5.2708C17.0595 2.49461 15.5621 0.51918 13.8708 0.00645307C13.8347 0.00410651 13.7988 0.00195548 13.7627 0V6.16016Z" fill="#2CD3AC"/>
<path d="M12.2371 19.4692C10.7204 19.5437 9.28885 19.8414 7.95703 20.3588C8.94032 23.1348 10.4378 25.1102 12.1292 25.6229C12.1651 25.6253 12.2012 25.6274 12.2371 25.6294V19.4692Z" fill="#2CD3AC"/>
<path d="M20.7699 13.5669C20.713 15.6811 20.4166 17.713 19.9062 19.5442C20.2084 19.6971 20.4847 19.8506 20.7342 19.9994C21.5866 20.508 22.2321 21.0196 22.6712 21.4116C24.6672 19.2351 25.8294 16.4934 25.9998 13.5669H20.7699Z" fill="#2CD3AC"/>
<path d="M6.11359 4.37727C6.26097 4.46408 6.41014 4.54738 6.5605 4.62793C6.79675 3.98115 7.06256 3.36721 7.35674 2.79316C7.77092 1.98488 8.22894 1.27983 8.72188 0.684082C7.15063 1.22098 5.69226 2.05586 4.41797 3.15957C4.80359 3.49743 5.36972 3.93891 6.11359 4.37727Z" fill="#2CD3AC"/>
<path d="M20.7342 5.62988C20.4847 5.77868 20.2082 5.93217 19.9062 6.08508C20.4166 7.91621 20.713 9.94795 20.7699 12.062H25.9998C25.8294 9.13572 24.6672 6.39421 22.6712 4.21777C22.2321 4.60981 21.5866 5.12131 20.7342 5.62988Z" fill="#2CD3AC"/>
<path d="M19.8864 21.2521C19.739 21.1653 19.5901 21.082 19.4397 21.0015C19.2032 21.6482 18.9374 22.262 18.6433 22.836C18.2291 23.6442 17.7713 24.3491 17.2783 24.9448C18.8494 24.408 20.3077 23.5732 21.5822 22.4696C21.1966 22.1318 20.6305 21.6904 19.8864 21.2521Z" fill="#2CD3AC"/>
<path d="M5.26558 19.9994C5.51512 19.8506 5.79144 19.6971 6.09355 19.5442C5.58316 17.713 5.2868 15.6811 5.22987 13.5669H0C0.170395 16.4934 1.33261 19.2351 3.32855 21.4116C3.76773 21.0196 4.41321 20.508 5.26558 19.9994Z" fill="#2CD3AC"/>
<path d="M18.0428 20.3588C16.711 19.8414 15.2794 19.5437 13.7627 19.4692V25.6294C13.7986 25.6274 13.8347 25.6253 13.8706 25.6229C15.5621 25.1102 17.0595 23.1348 18.0428 20.3588Z" fill="#2CD3AC"/>
<path d="M7.35693 22.8361C7.06276 22.2621 6.79695 21.6482 6.5605 21.0015C6.41014 21.082 6.26117 21.1653 6.11378 21.2521C5.36992 21.6904 4.80379 22.1319 4.41797 22.4699C5.69246 23.5734 7.15083 24.4082 8.72188 24.9453C8.22894 24.3494 7.77112 23.6442 7.35693 22.8361Z" fill="#2CD3AC"/>
</svg>
