<svg width="1510" height="780" viewBox="0 0 1510 780" fill="none" xmlns="http://www.w3.org/2000/svg">
<mask id="mask0" mask-type="alpha" maskUnits="userSpaceOnUse" x="0" y="0" width="1510" height="780">
<rect width="1510" height="780" fill="url(#paint0_linear)"/>
</mask>
<g mask="url(#mask0)">
<path d="M1007.84 577.896C877.001 634.697 699.996 568.551 537.995 472.893C371.446 374.55 238.66 216.034 212.852 98.6569C180.592 -48.0647 366.41 -276.151 537.032 -332.999C707.654 -389.847 1258.32 -309.4 1170.03 -90.442C1081.74 128.516 1138.68 521.096 1007.84 577.896Z" fill="url(#paint1_linear)" fill-opacity="0.2"/>
<path d="M-87.9466 33.8587C-55.8808 -18.8095 23.154 -39.4403 104.246 -45.889C187.614 -52.5187 567.818 -170.265 564.905 10.9757C562.738 145.874 351.643 176.594 305.532 239.18C259.421 301.765 79.5757 298.5 56.1756 199.011C32.7755 99.522 -120.012 86.5268 -87.9466 33.8587Z" fill="url(#paint2_linear)" fill-opacity="0.2"/>
<path d="M987.775 719.882C1005.89 600.431 1157.89 638.417 1268.97 590.881C1368.77 548.166 1447.83 280.377 1527 487.44C1585.93 641.557 1580.88 760.198 1475.61 865.841C1367.94 973.911 1206.35 1009.07 1087.83 913.023C1021.83 859.54 975.041 803.868 987.775 719.882Z" fill="url(#paint3_linear)" fill-opacity="0.2"/>
</g>
<defs>
<linearGradient id="paint0_linear" x1="-0.257316" y1="390.18" x2="1510.08" y2="390.18" gradientUnits="userSpaceOnUse">
<stop offset="0.00628811" stop-color="#07AB8D"/>
<stop offset="1" stop-color="#079F7B"/>
</linearGradient>
<linearGradient id="paint1_linear" x1="209.812" y1="599.738" x2="502.598" y2="-527.066" gradientUnits="userSpaceOnUse">
<stop stop-color="#40E8BF"/>
<stop offset="1" stop-color="#1FE1E1"/>
</linearGradient>
<linearGradient id="paint2_linear" x1="368.703" y1="-299.653" x2="583.774" y2="176.438" gradientUnits="userSpaceOnUse">
<stop stop-color="#40E8BF"/>
<stop offset="1" stop-color="#1FE1E1"/>
</linearGradient>
<linearGradient id="paint3_linear" x1="1263.98" y1="275" x2="1707.98" y2="718.878" gradientUnits="userSpaceOnUse">
<stop stop-color="#40E8BF"/>
<stop offset="1" stop-color="#1FE1E1"/>
</linearGradient>
</defs>
</svg>
