<svg width="42" height="40" viewBox="0 0 42 40" fill="none" xmlns="http://www.w3.org/2000/svg">
<path d="M20.961 0L27.5065 13.2031L42 15.3125L31.4805 25.5469L33.974 40L20.961 33.2031L8.02597 40L10.5195 25.5469L0 15.3125L14.4935 13.2031L20.961 0Z" fill="#FFB300"/>
</svg>
