<svg width="82" height="74" viewBox="0 0 82 74" fill="none" xmlns="http://www.w3.org/2000/svg">
<path d="M69.8172 0.875H12.1828C9.46096 0.875 6.63406 1.62037 4.48532 3.42028C2.3328 5.22337 0.875 8.07299 0.875 12.25V51.1231C0.875 55.3001 2.3328 58.1497 4.48532 59.9528C6.63406 61.7527 9.46096 62.4981 12.1828 62.4981H33.3911V69.4135H29.972C28.9522 69.4135 28.1266 70.2451 28.1266 71.2692C28.1266 72.2934 28.9522 73.125 29.972 73.125H52.6817C53.7016 73.125 54.5272 72.2934 54.5272 71.2692C54.5272 70.2451 53.7016 69.4135 52.6817 69.4135H48.6089V62.4981H69.8172C73.97 62.4981 76.8029 61.0312 78.5952 58.8658C80.3842 56.7043 81.125 53.8608 81.125 51.1231V12.25C81.125 8.07299 79.6672 5.22337 77.5147 3.42028C75.3659 1.62037 72.539 0.875 69.8172 0.875ZM44.918 69.4135H37.082V62.4981H44.918V69.4135ZM77.4341 51.1231C77.4341 52.2819 77.2457 54.2005 76.2023 55.826C75.165 57.442 73.2711 58.7865 69.8172 58.7865H12.1828C11.0312 58.7865 9.12438 58.597 7.50896 57.5476C5.90283 56.5042 4.56586 54.5986 4.56586 51.1231V48.7731H77.4341V51.1231ZM77.4341 45.0788H4.56586V12.3192C4.56586 8.84369 5.90283 6.93812 7.50896 5.89473C9.12438 4.84529 11.0312 4.65577 12.1828 4.65577H69.8172C70.9688 4.65577 72.8756 4.84529 74.491 5.89473C76.0972 6.93812 77.4341 8.84369 77.4341 12.3192V45.0788Z" fill="#2487FF" stroke="#2487FF" stroke-width="0.25"/>
<path d="M66.2779 9.6403L66.3679 9.45957C66.3737 9.4479 66.38 9.43975 66.3823 9.43686L66.3814 9.43812C66.3817 9.43763 66.3821 9.43714 66.3825 9.43665C66.9949 8.61842 68.1512 8.45348 68.9657 9.06922C69.7802 9.68494 69.9442 10.8478 69.3325 11.6669C69.3325 11.6669 69.3324 11.667 69.3324 11.667L55.1391 30.8262L55.1389 30.8266C54.7944 31.2887 54.2555 31.5633 53.6808 31.5691L53.672 31.5692L53.672 31.5689C53.109 31.5349 52.5826 31.2768 52.2093 30.8516L52.2037 30.8453L52.2039 30.8451L46.1541 22.9347L36.2419 34.0886L66.2779 9.6403ZM66.2779 9.6403H66.3175M66.2779 9.6403H66.3175M66.3175 9.6403L53.7299 26.6152L47.8092 18.8721C47.8092 18.8721 47.8092 18.8721 47.8092 18.8721C47.473 18.432 46.9583 18.1662 46.4065 18.1481L46.4059 18.148C45.8564 18.1323 45.3286 18.364 44.9663 18.7792L66.3175 9.6403ZM44.9662 18.7793L35.2742 29.8635L28.1704 17.6563L28.17 17.6557C27.8413 17.0978 27.2466 16.7528 26.6013 16.7461L26.6007 16.7461C25.9528 16.7424 25.3504 17.0805 25.0137 17.6368C25.0136 17.6369 25.0135 17.637 25.0135 17.6371L13.1476 36.9269C12.4991 37.7116 12.6024 38.8768 13.3804 39.5339C14.1612 40.1933 15.3256 40.0908 15.9809 39.3056C16.1106 39.1503 16.2138 38.9748 16.2868 38.7861L26.4938 22.0487L33.2702 33.7912L33.2704 33.7916C33.7849 34.6764 34.9154 34.9743 35.7956 34.4563L35.7957 34.4563C35.9626 34.3579 36.1132 34.2339 36.2418 34.0887L44.9662 18.7793Z" fill="#2487FF" stroke="#2487FF" stroke-width="0.25"/>
</svg>
