<svg width="98" height="57" viewBox="0 0 98 57" fill="none" xmlns="http://www.w3.org/2000/svg">
<path fill-rule="evenodd" clip-rule="evenodd" d="M75.807 50.2129C83.7848 46.1973 90.9089 40.3166 96.4089 33.2072C98.5277 30.4684 98.5277 26.6433 96.4089 23.9041C90.9088 16.7945 83.7848 10.9141 75.807 6.89845C67.6632 2.79927 58.902 0.6726 49.7565 0.560875C49.5046 0.553928 48.4932 0.553928 48.2413 0.560875C39.0956 0.672409 30.3346 2.79927 22.1908 6.89845C14.213 10.9141 7.08904 16.7947 1.58911 23.9041C-0.529704 26.6429 -0.529704 30.4684 1.58911 33.2072C7.08923 40.3168 14.213 46.1973 22.1908 50.2129C30.3346 54.3121 39.0958 56.4387 48.2413 56.5505C48.4932 56.5574 49.5046 56.5574 49.7565 56.5505C58.9022 56.4389 67.6632 54.3121 75.807 50.2129ZM4.73269 26.376C9.86972 19.7359 16.5225 14.2441 23.9718 10.4944C26.0877 9.42938 28.2489 8.50816 30.4494 7.72858C24.7876 12.859 21.2206 20.2949 21.2206 28.5558C21.2206 36.8162 24.7874 44.2516 30.4486 49.3822C28.2481 48.6026 26.0876 47.6818 23.9718 46.617C16.5223 42.8673 9.86952 37.3755 4.73269 30.7353C3.73989 29.4519 3.73989 27.6594 4.73269 26.376ZM25.2071 28.556C25.2071 15.3297 35.88 4.56954 48.9991 4.56954C62.1181 4.56954 72.7911 15.3295 72.7911 28.5558C72.7911 41.782 62.1181 52.5422 48.9991 52.5422C35.88 52.5422 25.2071 41.7822 25.2071 28.556ZM74.0264 10.4946C81.4759 14.2443 88.1286 19.7361 93.2655 26.3762C94.2583 27.6596 94.2583 29.4521 93.2657 30.7357C88.1286 37.3758 81.4759 42.8676 74.0266 46.6174C71.9102 47.6827 69.7487 48.6047 67.5476 49.3845C73.2098 44.2539 76.7776 36.8176 76.7776 28.556C76.7776 20.2988 73.2135 12.8657 67.556 7.73534C69.7539 8.51414 71.9131 9.43093 74.0264 10.4946ZM38.8174 28.5562C38.8174 34.2163 43.3848 38.821 48.999 38.821C54.6134 38.821 59.1808 34.2163 59.1806 28.5562C59.1806 22.8962 54.6132 18.2914 48.999 18.2914C43.3848 18.2914 38.8174 22.8962 38.8174 28.5562ZM42.8037 28.5562C42.8037 25.112 45.583 22.3103 48.999 22.3103C52.4149 22.3103 55.1943 25.112 55.1941 28.5562C55.1941 32.0003 52.4149 34.802 48.999 34.802C45.5827 34.802 42.8037 32.0003 42.8037 28.5562Z" fill="white"/>
</svg>
