<svg width="72" height="70" viewBox="0 0 72 70" fill="none" xmlns="http://www.w3.org/2000/svg">
<path fill-rule="evenodd" clip-rule="evenodd" d="M71.5 20.2182V6.40248C71.5 3.14956 68.867 0.5 65.624 0.5H6.376C3.13304 0.5 0.5 3.14956 0.5 6.40248V20.217C0.5 21.8873 1.20498 23.3802 2.31368 24.4483C1.20502 25.5163 0.5 27.0091 0.5 28.6783V42.4929C0.5 45.7469 3.13297 48.3966 6.376 48.3966H34.3333V57.0001C32.1766 57.5919 30.4775 59.3005 29.8894 61.4655H2.16667C1.24454 61.4655 0.5 62.2154 0.5 63.1379C0.5 64.0604 1.24454 64.8103 2.16667 64.8103H29.8895C30.6222 67.5075 33.0805 69.5 36 69.5C38.9195 69.5 41.3778 67.5075 42.1105 64.8103H69.8333C70.7555 64.8103 71.5 64.0604 71.5 63.1379C71.5 62.2154 70.7555 61.4655 69.8333 61.4655H42.1106C41.5225 59.3005 39.8234 57.5919 37.6667 57.0001V48.3966H65.624C68.867 48.3966 71.5 45.747 71.5 42.4941V28.6783C71.5 27.008 70.795 25.516 69.6863 24.4483C70.795 23.3803 71.5 21.8875 71.5 20.2182ZM39 63.1379C39 64.8033 37.6512 66.1552 36 66.1552C34.3488 66.1552 33 64.8033 33 63.1379C33 61.4726 34.3488 60.1207 36 60.1207C37.6512 60.1207 39 61.4726 39 63.1379ZM68.1667 28.6783V42.4929C68.1667 43.9063 67.0231 45.0517 65.624 45.0517H6.376C4.97679 45.0517 3.83333 43.9062 3.83333 42.4941V28.6783C3.83333 27.2662 4.97679 26.1207 6.376 26.1207H65.6228C67.0233 26.1207 68.1667 27.2664 68.1667 28.6783ZM6.376 22.7759C4.97679 22.7759 3.83333 21.6303 3.83333 20.2182V6.40248C3.83333 4.99037 4.97679 3.84483 6.376 3.84483H65.6228C67.0233 3.84483 68.1667 4.9905 68.1667 6.40248V20.217C68.1667 21.6304 67.0231 22.7759 65.624 22.7759H6.376ZM13.25 7.53442C10.077 7.53442 7.5 10.1277 7.5 13.3103C7.5 16.4929 10.077 19.0861 13.25 19.0861C16.423 19.0861 19 16.4929 19 13.3103C19 10.1277 16.423 7.53442 13.25 7.53442ZM13.25 15.7413C11.9207 15.7413 10.8333 14.6531 10.8333 13.3103C10.8333 11.9675 11.9207 10.8793 13.25 10.8793C14.5793 10.8793 15.6667 11.9675 15.6667 13.3103C15.6667 14.6531 14.5793 15.7413 13.25 15.7413ZM59.3334 13.224C60.2562 13.224 61.0001 12.4729 61.0001 11.5516C61.0001 10.6302 60.2562 9.87915 59.3334 9.87915C58.4106 9.87915 57.6667 10.6302 57.6667 11.5516C57.6667 12.4729 58.4106 13.224 59.3334 13.224ZM54.6667 13.224C55.5895 13.224 56.3333 12.4729 56.3333 11.5516C56.3333 10.6302 55.5895 9.87915 54.6667 9.87915C53.7439 9.87915 53 10.6302 53 11.5516C53 12.4729 53.7439 13.224 54.6667 13.224ZM61.6667 16.7413C62.5895 16.7413 63.3333 15.9902 63.3333 15.0689C63.3333 14.1476 62.5895 13.3965 61.6667 13.3965C60.7439 13.3965 60 14.1476 60 15.0689C60 15.9902 60.7439 16.7413 61.6667 16.7413ZM56.9999 16.7413C57.9227 16.7413 58.6666 15.9902 58.6666 15.0689C58.6666 14.1476 57.9227 13.3965 56.9999 13.3965C56.0771 13.3965 55.3333 14.1476 55.3333 15.0689C55.3333 15.9902 56.0771 16.7413 56.9999 16.7413ZM49.9999 13.224C50.9227 13.224 51.6666 12.4729 51.6666 11.5516C51.6666 10.6302 50.9227 9.87915 49.9999 9.87915C49.0771 9.87915 48.3333 10.6302 48.3333 11.5516C48.3333 12.4729 49.0771 13.224 49.9999 13.224ZM52.3334 16.7413C53.2562 16.7413 54.0001 15.9902 54.0001 15.0689C54.0001 14.1476 53.2562 13.3965 52.3334 13.3965C51.4106 13.3965 50.6667 14.1476 50.6667 15.0689C50.6667 15.9902 51.4106 16.7413 52.3334 16.7413ZM45.3334 13.224C46.2562 13.224 47.0001 12.4729 47.0001 11.5516C47.0001 10.6302 46.2562 9.87915 45.3334 9.87915C44.4106 9.87915 43.6667 10.6302 43.6667 11.5516C43.6667 12.4729 44.4106 13.224 45.3334 13.224ZM47.6667 16.7413C48.5895 16.7413 49.3333 15.9902 49.3333 15.0689C49.3333 14.1476 48.5895 13.3965 47.6667 13.3965C46.7439 13.3965 46 14.1476 46 15.0689C46 15.9902 46.7439 16.7413 47.6667 16.7413ZM40.6667 13.224C41.5895 13.224 42.3333 12.4729 42.3333 11.5516C42.3333 10.6302 41.5895 9.87915 40.6667 9.87915C39.7439 9.87915 39 10.6302 39 11.5516C39 12.4729 39.7439 13.224 40.6667 13.224ZM42.9999 16.7413C43.9227 16.7413 44.6666 15.9902 44.6666 15.0689C44.6666 14.1476 43.9227 13.3965 42.9999 13.3965C42.0771 13.3965 41.3333 14.1476 41.3333 15.0689C41.3333 15.9902 42.0771 16.7413 42.9999 16.7413ZM13.25 41.3623C16.423 41.3623 19 38.769 19 35.5864C19 32.4038 16.423 29.8105 13.25 29.8105C10.077 29.8105 7.5 32.4038 7.5 35.5864C7.5 38.769 10.077 41.3623 13.25 41.3623ZM13.25 33.1554C14.5793 33.1554 15.6667 34.2436 15.6667 35.5864C15.6667 36.9292 14.5793 38.0174 13.25 38.0174C11.9207 38.0174 10.8333 36.9292 10.8333 35.5864C10.8333 34.2436 11.9207 33.1554 13.25 33.1554ZM59.3334 35.5001C60.2562 35.5001 61.0001 34.749 61.0001 33.8277C61.0001 32.9064 60.2562 32.1553 59.3334 32.1553C58.4106 32.1553 57.6667 32.9064 57.6667 33.8277C57.6667 34.749 58.4106 35.5001 59.3334 35.5001ZM54.6667 35.5001C55.5895 35.5001 56.3333 34.749 56.3333 33.8277C56.3333 32.9064 55.5895 32.1553 54.6667 32.1553C53.7439 32.1553 53 32.9064 53 33.8277C53 34.749 53.7439 35.5001 54.6667 35.5001ZM61.6667 39.0172C62.5895 39.0172 63.3333 38.2661 63.3333 37.3448C63.3333 36.4234 62.5895 35.6724 61.6667 35.6724C60.7439 35.6724 60 36.4234 60 37.3448C60 38.2661 60.7439 39.0172 61.6667 39.0172ZM56.9999 39.0172C57.9227 39.0172 58.6666 38.2661 58.6666 37.3448C58.6666 36.4234 57.9227 35.6724 56.9999 35.6724C56.0771 35.6724 55.3333 36.4234 55.3333 37.3448C55.3333 38.2661 56.0771 39.0172 56.9999 39.0172ZM49.9999 35.5001C50.9227 35.5001 51.6666 34.749 51.6666 33.8277C51.6666 32.9064 50.9227 32.1553 49.9999 32.1553C49.0771 32.1553 48.3333 32.9064 48.3333 33.8277C48.3333 34.749 49.0771 35.5001 49.9999 35.5001ZM52.3334 39.0172C53.2562 39.0172 54.0001 38.2661 54.0001 37.3448C54.0001 36.4234 53.2562 35.6724 52.3334 35.6724C51.4106 35.6724 50.6667 36.4234 50.6667 37.3448C50.6667 38.2661 51.4106 39.0172 52.3334 39.0172ZM45.3334 35.5001C46.2562 35.5001 47.0001 34.749 47.0001 33.8277C47.0001 32.9064 46.2562 32.1553 45.3334 32.1553C44.4106 32.1553 43.6667 32.9064 43.6667 33.8277C43.6667 34.749 44.4106 35.5001 45.3334 35.5001ZM47.6667 39.0172C48.5895 39.0172 49.3333 38.2661 49.3333 37.3448C49.3333 36.4234 48.5895 35.6724 47.6667 35.6724C46.7439 35.6724 46 36.4234 46 37.3448C46 38.2661 46.7439 39.0172 47.6667 39.0172ZM40.6667 35.5001C41.5895 35.5001 42.3333 34.749 42.3333 33.8277C42.3333 32.9064 41.5895 32.1553 40.6667 32.1553C39.7439 32.1553 39 32.9064 39 33.8277C39 34.749 39.7439 35.5001 40.6667 35.5001ZM42.9999 39.0172C43.9227 39.0172 44.6666 38.2661 44.6666 37.3448C44.6666 36.4234 43.9227 35.6724 42.9999 35.6724C42.0771 35.6724 41.3333 36.4234 41.3333 37.3448C41.3333 38.2661 42.0771 39.0172 42.9999 39.0172Z" fill="#2487FF"/>
</svg>
