<svg width="1366" height="560" viewBox="0 0 1366 560" fill="none" xmlns="http://www.w3.org/2000/svg">
<mask id="mask0" mask-type="alpha" maskUnits="userSpaceOnUse" x="0" y="0" width="1366" height="560">
<rect width="1366" height="560" fill="url(#paint0_linear)"/>
</mask>
<g mask="url(#mask0)">
<rect width="1366" height="559" fill="#E0E5EC" fill-opacity="0.8"/>
<path d="M-173.322 42.3965C-142.95 -12.6715 -61.9306 -30.491 22.0285 -32.8788C108.345 -35.3338 497.053 -141.035 504.253 54.5267C509.611 200.084 291.839 221.347 247.422 286.332C203.006 351.318 15.8102 337.642 -14.1368 228.881C-44.0837 120.12 -203.693 97.4644 -173.322 42.3965Z" fill="#CED1D1" fill-opacity="0.2"/>
<path d="M1318.48 706.345C1205.2 664.34 1273.28 523.222 1249.3 404.809C1227.76 298.402 981.623 166.578 1200.45 131.135C1363.33 104.754 1478.47 133.81 1560.52 258.341C1644.45 385.733 1646.05 551.093 1527.92 647.628C1462.14 701.379 1398.12 735.88 1318.48 706.345Z" fill="#CED1D1" fill-opacity="0.2"/>
<path d="M842.478 127.345C729.199 85.3396 797.28 -55.7778 773.305 -174.191C751.761 -280.598 505.623 -412.422 724.453 -447.865C887.329 -474.246 1002.47 -445.19 1084.52 -320.659C1168.45 -193.267 1170.05 -27.9069 1051.92 68.6276C986.143 122.379 922.124 156.88 842.478 127.345Z" fill="#CED1D1" fill-opacity="0.2"/>
<path d="M917.747 466.541C967.792 356.577 1103.65 434.631 1223.48 419.236C1331.16 405.401 1480.35 169.383 1499.96 390.195C1514.55 554.547 1477.29 667.298 1347.18 740.178C1214.08 814.734 1049.04 804.432 961.249 679.663C912.368 610.191 882.561 543.856 917.747 466.541Z" fill="#CED1D1" fill-opacity="0.2"/>
<path d="M258.771 667.357C144.104 705.408 108.993 552.711 16.2402 475.294C-67.1078 405.726 -341.62 456.761 -193.01 292.268C-82.3987 169.835 25.6237 120.515 167.523 166.392C312.683 213.324 417.327 341.371 385.501 490.572C367.78 573.648 339.393 640.603 258.771 667.357Z" fill="#CED1D1" fill-opacity="0.2"/>
</g>
<defs>
<linearGradient id="paint0_linear" x1="3.39381e-08" y1="311.491" x2="1366" y2="310.396" gradientUnits="userSpaceOnUse">
<stop stop-color="#599BFF"/>
<stop offset="1" stop-color="#0066FF"/>
</linearGradient>
</defs>
</svg>
