<svg width="15" height="15" viewBox="0 0 15 15" fill="none" xmlns="http://www.w3.org/2000/svg">
<path d="M7.85466 0.24707L9.76265 4.98258L14.6473 5.42262C14.9861 5.4533 15.1239 5.89657 14.8668 6.12992L11.1617 9.49604L12.272 14.5036C12.349 14.8516 11.9894 15.1254 11.6983 14.9405L7.50048 12.2857L3.30261 14.9405C3.01079 15.1245 2.65199 14.8508 2.72899 14.5036L3.83928 9.49604L0.133421 6.12911C-0.123748 5.89576 0.0133064 5.45249 0.352862 5.42181L5.23754 4.98177L7.14552 0.24707C7.27796 -0.0823566 7.72223 -0.0823566 7.85466 0.24707Z" fill="#fec92f"/>
</svg>
