<svg width="10" height="7" viewBox="0 0 10 7" fill="none" xmlns="http://www.w3.org/2000/svg">
<path d="M3.59772 7C3.39482 7 3.19171 6.92471 3.03693 6.77402L0.232346 4.04562C-0.0774488 3.74424 -0.0774488 3.25569 0.232346 2.95431C0.542142 2.65293 1.04433 2.65293 1.35413 2.95431L3.59772 5.13695L8.6459 0.226001C8.95569 -0.0752879 9.458 -0.0753792 9.76758 0.226001C10.0775 0.52738 10.0775 1.01605 9.76758 1.31731L4.15862 6.77402C4.00372 6.92462 3.80071 7 3.59772 7Z" fill="#50D166"/>
</svg>
