<svg width="319" height="352" viewBox="0 0 319 352" fill="none" xmlns="http://www.w3.org/2000/svg">
<path d="M167.583 261.309C167.583 261.309 156.966 316.794 148.232 329.466C139.498 342.139 126.312 342.995 126.569 345.564C127.082 351.9 131.364 354.726 151.486 348.133C165.186 345.992 167.926 343.766 169.21 341.111C170.494 338.457 166.727 334.69 165.871 326.641C165.014 318.592 192.5 275.094 193.528 262.422C194.555 249.749 167.583 261.309 167.583 261.309Z" fill="#FFDAA1"/>
<path d="M173.492 109.666C173.492 109.666 166.813 117.201 157.736 116.259C148.66 115.317 103.279 94.6817 91.1199 75.2447C78.9611 55.8078 67.3161 46.1321 62.0073 45.1902C56.6985 44.2483 71.683 63.3428 71.683 63.3428C71.683 63.3428 60.9798 60.1747 60.8085 61.1165C60.7229 62.0584 62.8636 64.2847 80.4168 75.8441C95.7437 93.6542 114.496 127.819 147.718 133.384C148.831 133.556 149.859 133.727 150.886 133.898C160.819 149.91 160.648 137.922 160.819 135.354C182.397 138.179 187.363 136.552 199.093 142.118C212.879 148.626 250.126 177.738 250.126 177.738L259.545 179.28C259.545 179.28 235.484 142.375 187.62 119.513C173.492 109.666 173.492 109.666 173.492 109.666Z" fill="#FFDAA1"/>
<path d="M229.748 250.092C229.748 250.092 249.698 272.782 293.025 278.605C307.41 279.119 308.009 299.669 314.602 298.384C321.195 297.014 316.829 284.342 315.116 277.577C313.404 270.813 314.945 259.254 307.924 261.394C305.184 261.908 301.074 262.593 296.878 262.936C281.722 264.306 253.723 245.639 249.356 236.82C244.989 228.086 229.748 250.092 229.748 250.092Z" fill="#FFDAA1"/>
<path d="M150.801 259.767C150.801 259.767 183.338 276.978 214.335 261.309C245.331 245.639 249.698 252.832 271.276 232.196C292.853 211.56 291.911 171.83 291.911 171.83C291.911 171.83 219.216 192.295 183.767 116.944C168.354 120.198 163.045 115.746 163.045 115.746L157.651 116.088C157.651 116.088 162.446 133.299 160.048 139.549C157.651 145.8 150.801 133.812 150.801 133.812L144.122 132.528C144.122 132.528 143.865 165.494 155.253 201.028C159.192 217.64 150.801 259.767 150.801 259.767Z" fill="url(#paint0_linear)"/>
<path d="M144.893 57.349C168.868 31.6614 185.222 67.0247 192.757 62.0584C200.292 57.0921 202.433 47.9302 202.433 47.9302C202.433 47.9302 222.983 81.7522 196.182 103.672C155.339 137.152 120.918 80.8104 144.893 57.349Z" fill="url(#paint1_linear)"/>
<path d="M142.238 336.145C134.532 342.653 126.483 343.595 126.655 345.564C127.168 351.9 131.45 354.726 151.571 348.133C165.272 345.992 168.012 343.766 169.296 341.111C170.323 338.885 167.926 335.888 166.556 330.151C166.299 329.124 151.229 338.714 142.238 336.145Z" fill="url(#paint2_linear)"/>
<path d="M305.183 286.568C308.951 292.391 310.749 299.155 314.602 298.384C321.195 297.014 316.828 284.342 315.116 277.577C313.403 270.813 314.944 259.254 307.923 261.394C305.868 261.822 303.043 262.25 300.046 262.593C299.018 262.764 305.098 276.036 305.183 286.568Z" fill="url(#paint3_linear)"/>
<path d="M0 10.9736C0 10.9736 28.6135 33.314 29.4264 50.2534C34.7914 34.6233 35.6043 19.075 35.6043 19.075C35.6043 19.075 52.1871 5.6544 53 0.253418C42.5138 4.75424 0 10.9736 0 10.9736Z" fill="url(#paint4_linear)"/>
<defs>
<linearGradient id="paint0_linear" x1="144.125" y1="191.874" x2="291.936" y2="191.874" gradientUnits="userSpaceOnUse">
<stop offset="0.00628811" stop-color="#07AB9E"/>
<stop offset="1" stop-color="#079F9E"/>
</linearGradient>
<linearGradient id="paint1_linear" x1="136.974" y1="80.9915" x2="209.973" y2="80.9915" gradientUnits="userSpaceOnUse">
<stop stop-color="#E9CE31"/>
<stop offset="1" stop-color="#EFB52E"/>
</linearGradient>
<linearGradient id="paint2_linear" x1="126.57" y1="341.036" x2="169.539" y2="341.036" gradientUnits="userSpaceOnUse">
<stop offset="0.00628811" stop-color="#07AB9E"/>
<stop offset="1" stop-color="#079F9E"/>
</linearGradient>
<linearGradient id="paint3_linear" x1="299.944" y1="279.762" x2="318.097" y2="279.762" gradientUnits="userSpaceOnUse">
<stop offset="0.00628811" stop-color="#07AB9E"/>
<stop offset="1" stop-color="#079F9E"/>
</linearGradient>
<linearGradient id="paint4_linear" x1="0.00718497" y1="25.2511" x2="53.0103" y2="25.2511" gradientUnits="userSpaceOnUse">
<stop stop-color="#3F67FD"/>
<stop offset="1" stop-color="#4197FF"/>
</linearGradient>
</defs>
</svg>
