<svg width="30" height="34" viewBox="0 0 30 34" fill="none" xmlns="http://www.w3.org/2000/svg">
<path d="M8.44541 34C6.14259 29.2849 7.36892 26.5831 9.13882 24.0377C11.077 21.25 11.5765 18.4906 11.5765 18.4906C11.5765 18.4906 13.1002 20.4396 12.4907 23.4879C15.1824 20.5395 15.6904 15.8419 15.2839 14.0428C21.3682 18.2267 23.9685 27.286 20.4642 34C39.1028 23.623 25.1004 8.09587 22.6627 6.34683C23.4753 8.09581 23.6294 11.0567 21.9878 12.4936C19.209 2.12498 12.3383 0 12.3383 0C13.151 5.34716 9.39278 11.1943 5.76877 15.5633C5.64147 13.4311 5.50619 11.9598 4.36674 9.91944C4.11096 13.7928 1.10275 16.9501 0.288128 20.831C-0.815309 26.0865 1.11467 29.9346 8.44541 34Z" fill="#FF8C4C"/>
</svg>
