<svg width="15" height="15" viewBox="0 0 15 15" fill="none" xmlns="http://www.w3.org/2000/svg">
<g clip-path="url(#clip0)">
<path d="M7.49075 0.219971C11.3766 0.219971 14.5134 3.35673 14.5134 7.24258C14.5134 11.1284 11.3765 14.2652 7.49075 14.2652C3.60495 14.2652 0.46814 11.1284 0.46814 7.24258C0.46814 3.35673 3.6049 0.219971 7.49075 0.219971Z" fill="#2394BC"/>
<path d="M8.70801 14.6396C12.2661 14.031 14.9815 10.9879 14.9815 7.24246L14.9347 7.33611C15.0284 6.63383 15.0284 5.9784 14.8879 5.46341C14.8411 5.88475 14.7943 6.11884 14.7006 6.21249C14.7006 6.16569 14.7006 5.74431 14.5602 5.18252C14.5134 4.76118 14.4198 4.33979 14.2793 3.96525C14.3261 4.1525 14.3261 4.293 14.3261 4.43344C13.7643 2.98208 12.4534 1.15623 9.1294 1.20303C9.1294 1.20303 10.2998 1.34348 10.8148 2.13935C10.8148 2.13935 10.253 1.99891 9.83163 2.233C10.3466 2.42025 10.8148 2.65434 11.1893 2.88843H11.2361C11.3298 2.93523 11.4234 3.02888 11.517 3.07568C12.2193 3.59066 12.8747 4.29294 12.8279 5.18247C12.6407 4.90158 12.4534 4.71428 12.1725 4.66748C12.5002 5.93155 12.5002 6.96152 12.2661 7.75745C12.0789 7.19567 11.9384 6.91472 11.7979 6.77428C11.9852 8.45968 11.7511 9.67695 11.002 10.4728C11.1425 10.0046 11.1893 9.5833 11.1893 9.25556C10.2998 10.5664 9.31659 11.2687 8.19297 11.3155C7.77163 11.3155 7.35024 11.2687 6.92891 11.1283C6.36712 10.941 5.85209 10.6133 5.38395 10.1451C6.08623 10.1919 6.78846 10.0983 7.3503 9.77054L8.28662 9.16191C8.42707 9.11511 8.52071 9.11511 8.66116 9.16191C8.89525 9.11511 8.9889 9.02146 8.89525 8.78737C8.80161 8.64692 8.61436 8.50648 8.38027 8.36603C7.91208 8.13194 7.3971 8.17879 6.88211 8.50648C6.36712 8.78737 5.89894 8.78737 5.43075 8.45968C5.14986 8.27244 4.82212 7.99149 4.54122 7.61695L4.44758 7.42971C4.40078 7.85105 4.44758 8.31923 4.63482 8.97466C4.44758 8.36603 4.40073 7.85105 4.44758 7.42971C4.44758 7.10197 4.58802 6.86792 4.86891 6.86792H4.77527H4.91571C5.24345 6.91472 5.57114 6.96157 5.99253 7.10202C6.03933 6.72748 5.99253 6.30614 5.71164 5.88475C6.08618 5.51021 6.41392 5.27612 6.69481 5.13567C6.83526 5.08887 6.88206 4.94843 6.92891 4.80793C7.02255 4.62069 6.97571 4.52704 6.88211 4.43339C6.60122 4.43339 6.36712 4.43339 6.08623 4.38659C5.99258 4.33979 5.85214 4.24615 5.66489 4.1057L5.24356 3.68436L5.10311 3.59071L5.05631 3.54392L5.10311 3.49712C5.14991 3.16938 5.24356 2.88848 5.384 2.65439L5.4308 2.60759C5.57125 2.3735 5.85214 2.13941 6.22668 1.85851C5.4776 1.95216 4.82217 2.27985 4.21353 2.84169C3.74535 2.70124 3.13671 2.74804 2.48128 3.02893L2.38763 3.07573L2.48128 3.02893C2.05994 2.84169 1.779 2.27985 1.63855 1.34353C1.07682 1.85851 0.842727 2.84169 0.842727 4.1994L0.702281 4.43349L0.655483 4.48029C0.561835 4.62074 0.468239 4.80803 0.327742 5.04208C0.140497 5.41661 0.0468496 5.69751 0.0468496 5.9784V6.07205C0.0468496 6.11884 0.0468496 6.21249 0.0468496 6.25929L0.468188 5.93155C0.327742 6.35289 0.187296 6.77428 0.140446 7.19561V7.38286L0 7.24252C0 8.83432 0.514986 10.3325 1.35771 11.5497L1.40451 11.5965L1.45131 11.6433C2.05994 12.486 2.85582 13.1882 3.7922 13.7501C4.44763 14.1246 5.14991 14.4055 5.89899 14.5928L6.03943 14.6396C6.17988 14.6864 6.36718 14.6864 6.50762 14.7333C6.64807 14.7333 6.74171 14.7801 6.88216 14.7801H7.02261H7.2567H7.49079H7.67804H8.00578C8.19302 14.7801 8.38032 14.7333 8.56756 14.7333C8.56756 14.6396 8.70801 14.6396 8.70801 14.6396ZM13.4366 5.51026V5.55706V5.51026Z" fill="#EC8840"/>
</g>
<defs>
<clipPath id="clip0">
<rect width="15" height="15" fill="white"/>
</clipPath>
</defs>
</svg>
