<svg width="10" height="12" viewBox="0 0 10 12" fill="none" xmlns="http://www.w3.org/2000/svg">
<path fill-rule="evenodd" clip-rule="evenodd" d="M8 4H7.42857V2.85714C7.42857 1.25714 6.17143 0 4.57143 0C2.97143 0 1.71429 1.25714 1.71429 2.85714V4H1.14286C0.514286 4 0 4.51429 0 5.14286V10.8571C0 11.4857 0.514286 12 1.14286 12H8C8.62857 12 9.14286 11.4857 9.14286 10.8571V5.14286C9.14286 4.51429 8.62857 4 8 4ZM4.57133 1.08574C5.54276 1.08574 6.34276 1.88574 6.34276 2.85717V4.00003H2.85705V2.85717H2.7999C2.7999 1.88574 3.5999 1.08574 4.57133 1.08574ZM8.00001 10.8571H1.14287V5.14277H8.00001V10.8571ZM4.57147 9.14294C5.20004 9.14294 5.71433 8.62866 5.71433 8.00008C5.71433 7.37151 5.20004 6.85723 4.57147 6.85723C3.9429 6.85723 3.42861 7.37151 3.42861 8.00008C3.42861 8.62866 3.9429 9.14294 4.57147 9.14294Z" fill="#999999"/>
</svg>
