<svg width="17" height="16" viewBox="0 0 17 16" fill="none" xmlns="http://www.w3.org/2000/svg">
<path d="M1.11318 14.5793H6.11605V13.7191H1.11318V14.5793ZM5.09051 14.0293H5.77523V14.2695H5.09051V14.0293ZM3.43972 7.31765C3.43972 7.16405 3.56321 7.03938 3.71483 7.03938C3.86644 7.03938 3.98993 7.16429 3.98993 7.31765C3.98993 7.47085 3.86644 7.59577 3.71483 7.59577C3.56321 7.59577 3.43972 7.47085 3.43972 7.31765ZM5.22522 7.31765C5.22522 7.16405 5.34859 7.03938 5.50017 7.03938C5.65201 7.03938 5.77527 7.16429 5.77527 7.31765C5.77527 7.47085 5.65174 7.59577 5.50017 7.59577C5.34859 7.59577 5.22522 7.47085 5.22522 7.31765ZM1.11318 12.3179H6.11605V11.4574H1.11318V12.3179ZM5.09051 11.7675H5.77523V12.0078H5.09051V11.7675ZM0 16H7.15435V5.84115H0V16ZM5.50017 6.58382C5.9003 6.58382 6.22568 6.91314 6.22568 7.31765C6.22568 7.72204 5.90011 8.05125 5.50017 8.05125C5.10038 8.05125 4.77504 7.72204 4.77504 7.31765C4.775 6.9131 5.10019 6.58382 5.50017 6.58382ZM3.71483 6.58382C4.11493 6.58382 4.44019 6.91314 4.44019 7.31765C4.44019 7.72204 4.11497 8.05125 3.71483 8.05125C3.31469 8.05125 2.98947 7.72204 2.98947 7.31765C2.98947 6.9131 3.31469 6.58382 3.71483 6.58382ZM0.662803 8.70915H6.56643V10.4805H0.662803V8.70915ZM0.662803 11.0022H6.56643V12.7733H0.662803V11.0022ZM0.662803 13.2638H6.56643V15.0348H0.662803V13.2638ZM1.11318 10.0249H6.11605V9.16455H1.11318V10.0249ZM5.09051 9.44291H5.77523V9.68331H5.09051V9.44291ZM17 7.62114C17 8.06651 16.9598 8.50282 16.8868 8.92778L16.7553 9.54845C15.9091 12.8202 12.9621 15.242 9.46597 15.242C9.02191 15.242 8.58718 15.2006 8.16386 15.1256V10.5856C8.36282 10.6695 8.52237 10.8138 8.70163 10.9565C8.96485 11.1667 9.3657 10.9946 9.67326 11.0051C10.4444 11.0311 10.5768 11.8725 10.6302 12.4812C10.6695 12.9281 11.0775 13.2966 10.9651 13.7637C10.9148 13.9729 10.8071 14.1832 10.6341 14.3132C11.8597 14.0945 12.9707 13.5402 13.8717 12.7464C13.5596 11.9566 12.6602 11.4739 12.7393 10.4344C12.9236 8.66377 14.9418 9.4227 16.0786 8.81977C16.1477 8.43028 16.1853 8.0302 16.1853 7.62114C16.1853 5.07651 14.7948 2.85538 12.743 1.69051C12.7764 1.7221 12.811 1.75334 12.8411 1.78406C14.1647 3.12263 13.4518 3.22557 13.6555 4.77059C13.6555 5.28536 14.7076 5.19971 14.6058 6.12673C14.4024 7.05368 14.3683 7.96317 13.4518 7.19062C12.5358 6.41823 11.925 7.03638 11.6195 6.93324C11.2119 6.72735 11.0083 5.8004 10.4991 5.8004C9.07416 5.90339 9.98999 8.78705 8.25927 7.96317C8.22535 7.94531 8.1953 7.92466 8.16346 7.90524V4.85356H7.20103C7.16766 3.68565 7.0771 2.48938 6.07668 1.75546C4.87204 2.47012 3.91142 3.55578 3.33629 4.85356H2.44775C3.54509 2.016 6.27608 0 9.46538 0C13.6202 0.000239686 17 3.4188 17 7.62114Z" fill="#CCCCCC"/>
</svg>
