<svg width="20" height="23" viewBox="0 0 20 23" fill="none" xmlns="http://www.w3.org/2000/svg">
<path d="M9.96031 22.8655C11.2493 22.8655 12.3039 21.8365 12.3039 20.5789H7.61671C7.61671 21.8365 8.67133 22.8655 9.96031 22.8655ZM17.577 16.0058V9.71784C17.577 6.17368 15.1162 3.3155 11.718 2.5152V1.71491C11.718 0.800292 10.8978 0 9.96031 0C9.02287 0 8.20261 0.800292 8.20261 1.71491V2.5152C4.80439 3.3155 2.3436 6.17368 2.3436 9.71784V16.0058L0 18.2924V19.4357H19.9206V18.2924L17.577 16.0058Z" fill="#8e17ab"/>
</svg>
