<svg width="21" height="21" viewBox="0 0 21 21" fill="none" xmlns="http://www.w3.org/2000/svg">
<path d="M9.0922 2.99168L9.09187 8.99098L3.0927 8.99117C2.20021 8.99135 1.47721 9.71435 1.47704 10.6068C1.47704 11.0527 1.65775 11.4565 1.94988 11.7486C2.24249 12.0412 2.64616 12.2222 3.09201 12.2218L9.09217 12.2219L9.09209 18.2218C9.09206 18.6677 9.27281 19.0715 9.56519 19.3639C9.85749 19.6562 10.261 19.8369 10.7072 19.8369C11.5994 19.8369 12.3225 19.1139 12.3228 18.2212L12.3231 12.2221L18.3225 12.2219C19.2148 12.2219 19.9379 11.4988 19.9379 10.6064C19.9377 9.71454 19.215 8.9918 18.3229 8.99138L12.323 8.99114L12.323 2.99149C12.3225 2.09934 11.5997 1.37652 10.7079 1.37635C9.81537 1.37618 9.0922 2.09935 9.0922 2.99168Z" fill="#CCCCCC"/>
</svg>
