<svg width="1510" height="550" viewBox="0 0 1510 550" fill="none" xmlns="http://www.w3.org/2000/svg">
<mask id="mask0" mask-type="alpha" maskUnits="userSpaceOnUse" x="0" y="0" width="1510" height="550">
<rect width="1510" height="550" fill="url(#paint0_linear)"/>
</mask>
<g mask="url(#mask0)">
<path d="M1224.53 271.868L1700.08 340.83L1446.48 -154.323L1224.53 271.868Z" fill="url(#paint1_linear)" fill-opacity="0.3"/>
<path d="M1447.71 497.262L1270.7 348.016L1248.44 615.15L1447.71 497.262Z" fill="url(#paint2_linear)" fill-opacity="0.3"/>
<path d="M284.451 339.903L64.5677 84.1041L-29.5562 463.116L284.451 339.903Z" fill="url(#paint3_linear)" fill-opacity="0.3"/>
<path d="M610.459 -6.80774L347.019 -90.5052L444.558 214.286L610.459 -6.80774Z" fill="url(#paint4_linear)" fill-opacity="0.3"/>
</g>
<defs>
<linearGradient id="paint0_linear" x1="0" y1="0" x2="1244.85" y2="911.942" gradientUnits="userSpaceOnUse">
<stop stop-color="#9C1CB2"/>
<stop offset="1" stop-color="#6722C4"/>
</linearGradient>
<linearGradient id="paint1_linear" x1="1564.73" y1="55.1289" x2="1403.85" y2="364.974" gradientUnits="userSpaceOnUse">
<stop stop-color="#9C1CB2"/>
<stop offset="1" stop-color="#812ED4"/>
</linearGradient>
<linearGradient id="paint2_linear" x1="1253.36" y1="499.358" x2="1398.04" y2="413.529" gradientUnits="userSpaceOnUse">
<stop stop-color="#9C1CB2"/>
<stop offset="1" stop-color="#812ED4"/>
</linearGradient>
<linearGradient id="paint3_linear" x1="13.7419" y1="292.053" x2="224.816" y2="223.809" gradientUnits="userSpaceOnUse">
<stop stop-color="#8516AD"/>
<stop offset="1" stop-color="#6722C4"/>
</linearGradient>
<linearGradient id="paint4_linear" x1="401.104" y1="76.3704" x2="518.898" y2="-62.0828" gradientUnits="userSpaceOnUse">
<stop stop-color="#8516AD"/>
<stop offset="1" stop-color="#6722C4"/>
</linearGradient>
</defs>
</svg>
