<svg width="20" height="20" viewBox="0 0 20 20" fill="none" xmlns="http://www.w3.org/2000/svg">
<path d="M19.5421 17.3326L15.7579 13.5471C15.15 14.4016 14.403 15.1488 13.5483 15.7579L17.3325 19.542C17.9431 20.1526 18.9315 20.1526 19.5421 19.542C20.1525 18.9318 20.1525 17.943 19.5421 17.3326Z" fill="#CCCCCC"/>
<path d="M16.25 8.125C16.25 3.63776 12.6122 0 8.12494 0C3.63775 0 0 3.63776 0 8.125C0 12.6122 3.63775 16.2498 8.12494 16.2498C12.6122 16.2498 16.25 12.6122 16.25 8.125ZM9.07232 12.0167C8.99054 12.4693 9.02228 12.9479 8.84405 13.3813C8.69747 13.6743 8.84706 14.0221 8.73663 14.3128C8.53227 14.3334 8.33438 14.375 8.12498 14.375C4.6789 14.375 1.8751 11.571 1.8751 8.125C1.8751 6.76994 2.31948 5.52377 3.05483 4.49833C3.03348 4.58489 3.01155 4.67157 3.00974 4.76196C2.98826 5.10301 3.04753 5.47237 3.27894 5.73728C3.39666 5.89173 3.6049 5.93868 3.71532 6.10161C3.85683 6.29946 4.14202 6.29996 4.2811 6.50135C4.40682 6.67344 4.54473 6.83712 4.67536 7.00624C4.77057 7.12454 4.79386 7.30335 4.94081 7.37482C5.27477 7.54448 5.68436 7.49687 6.00096 7.70993C6.55153 8.03156 7.08267 8.40084 7.6801 8.63282C7.88583 8.72861 8.19221 8.61934 8.32271 8.84934C8.4211 9.12163 8.10301 9.28333 8.05792 9.52627C8.02321 9.68014 8.08591 9.86188 7.96884 9.98896C8.09205 10.2939 8.29472 10.5591 8.47468 10.8311C8.62435 11.0496 8.88927 11.1486 9.04602 11.3585C9.15282 11.56 9.09305 11.8004 9.07232 12.0167ZM9.53129 14.2014C9.61489 14.0318 9.68397 13.855 9.80351 13.7059C9.86698 13.634 9.84254 13.4923 9.96096 13.4718C10.1331 13.4339 10.3661 13.4521 10.4369 13.2482C10.4113 13.2226 10.388 13.1957 10.365 13.1715C10.4725 13.1688 10.5787 13.1592 10.686 13.1603C10.9292 12.8443 11.2172 12.5598 11.3916 12.1983C11.4928 12.0081 11.7433 12.0057 11.8751 11.8482C11.9861 11.7274 12.1169 11.615 12.1923 11.4659C12.2438 11.2549 12.1667 11.0071 12.3147 10.8238C12.4574 10.6592 12.649 10.5164 12.6869 10.2881C12.7294 10.1488 12.6403 10.011 12.5159 9.95479C12.1046 9.74721 11.604 9.7876 11.2172 9.52022C11.0986 9.4128 11.14 9.22311 11.0375 9.10267C10.9032 8.9251 10.6691 8.89464 10.4712 8.83227C10.3102 8.79023 10.1967 8.66076 10.0488 8.5918C9.68991 8.41312 9.28584 8.32326 8.88543 8.34585C8.72806 8.35269 8.5657 8.41308 8.48384 8.55648C8.44237 8.64189 8.34418 8.58583 8.28194 8.56073C7.96147 8.40269 7.61362 8.23975 7.41762 7.92476C7.37681 7.84731 7.29557 7.8124 7.22121 7.77703C7.25959 7.60437 7.41647 7.47317 7.4006 7.28694C7.19726 7.21856 6.9922 7.32668 6.78722 7.30273C6.66084 7.28385 6.67477 7.12825 6.66199 7.03303C6.63701 6.84442 6.6798 6.63148 6.84752 6.51854C7.05444 6.36838 7.33098 6.20788 7.59037 6.31962C7.80891 6.41294 7.81324 6.70658 8.01888 6.81383C8.14036 6.60827 7.98471 6.38062 7.98282 6.16517C8.10124 5.99061 8.296 5.89663 8.44682 5.7562C8.55725 5.67079 8.39979 5.52793 8.49435 5.43457C8.6793 5.1819 8.87286 4.91641 9.15051 4.75953C9.33538 4.65162 9.55211 4.74675 9.75235 4.73146C9.90866 4.68018 9.99278 4.51848 10.1356 4.4452C10.3455 4.32142 10.5983 4.34334 10.8278 4.38238C10.7509 4.22925 10.6851 3.99064 10.4871 3.97031C10.3295 4.02831 10.2894 4.24504 10.1171 4.29512C9.95486 4.38968 9.79617 4.25724 9.68999 4.14244C9.50071 4.22006 9.30727 4.29326 9.10525 4.33119C9.52029 4.14739 9.97555 4.06495 10.3807 3.85812C10.4405 3.82263 10.548 3.76645 10.4969 3.68298C10.3697 3.4498 10.0941 3.34787 9.96455 3.11527C9.8803 2.99322 9.86933 2.82596 9.7559 2.7265C9.59345 2.65573 9.42511 2.82229 9.26152 2.74797C9.0576 2.64901 8.91544 2.44085 8.68527 2.3939C8.55832 2.36513 8.39179 2.33339 8.29283 2.4397C8.22321 2.66364 8.38681 2.87484 8.39662 3.09578C8.30688 3.2691 8.25746 3.45648 8.19695 3.64077C8.15915 3.77263 8.01513 3.82947 7.88876 3.80025C7.8827 3.67206 7.95714 3.48092 7.79659 3.41992C7.49264 3.29717 7.17591 3.20253 6.87802 3.06651C6.68198 2.99871 6.48376 2.77971 6.62968 2.57329C6.81772 2.32062 7.12043 2.19671 7.35963 2.00447C7.38098 1.98802 7.39924 1.96609 7.4189 1.94647C7.65377 1.91964 7.88327 1.87512 8.1249 1.87512C8.27823 1.87512 8.42155 1.90938 8.57233 1.92034C8.49105 1.96543 8.40939 2.00999 8.33792 2.0698C8.45634 2.12907 8.59117 2.10517 8.71817 2.12474C9.0203 2.14004 9.21139 2.45676 9.51411 2.45973C9.57647 2.30594 9.32734 2.3371 9.29993 2.21139C9.41765 2.19857 9.54836 2.25524 9.65561 2.19366C9.66662 2.13567 9.64226 2.10154 9.60936 2.07277C9.99691 2.16807 10.3703 2.29564 10.7262 2.45973C10.7252 2.48908 10.7281 2.5183 10.7056 2.54959C10.6287 2.69975 10.3514 2.63924 10.3455 2.82843C10.4528 3.10373 10.6654 3.33262 10.8886 3.52243C11.0425 3.63603 11.2852 3.74402 11.4526 3.59753C11.5956 3.45838 11.6467 3.22038 11.7922 3.08852C13.3496 4.2262 14.3749 6.05298 14.3749 8.12508C14.3749 11.0858 12.3 13.5595 9.53129 14.2014Z" fill="#CCCCCC"/>
</svg>
