<svg width="125" height="162" viewBox="0 0 125 162" fill="none" xmlns="http://www.w3.org/2000/svg">
<path d="M5.98152 0.514028L28.348 158.37L123.5 41.0002L5.98152 0.514028Z" fill="url(#paint0_linear)"/>
<defs>
<linearGradient id="paint0_linear" x1="166.802" y1="163.6" x2="-26.5951" y2="100.739" gradientUnits="userSpaceOnUse">
<stop stop-color="#FF9BB3"/>
<stop offset="1" stop-color="#EA1260"/>
</linearGradient>
</defs>
</svg>
