<svg width="36" height="36" viewBox="0 0 36 36" fill="none" xmlns="http://www.w3.org/2000/svg">
<circle cx="18" cy="18" r="18" fill="url(#paint0_linear)"/>
<path fill-rule="evenodd" clip-rule="evenodd" d="M26.6667 8V20.6749L18.3333 28L10 20.6749V8H26.6667ZM25 9.64609H11.6667V20.0165L18.3333 25.8601L25 20.0165V9.64609ZM21.25 13.4321L22.4167 14.5844L17.5 19.4404L15.0834 17.0535L16.25 15.9013L17.5 17.1358L21.25 13.4321Z" fill="white"/>
<defs>
<linearGradient id="paint0_linear" x1="0" y1="0" x2="42.5746" y2="11.3602" gradientUnits="userSpaceOnUse">
<stop stop-color="#FFB300"/>
<stop offset="1" stop-color="#FF571F"/>
</linearGradient>
</defs>
</svg>
