<svg width="36" height="36" viewBox="0 0 36 36" fill="none" xmlns="http://www.w3.org/2000/svg">
<circle cx="18" cy="18" r="18" fill="url(#paint0_linear)"/>
<path fill-rule="evenodd" clip-rule="evenodd" d="M26.4537 27H11V9H26.4537V27ZM12.6683 25.3317H24.7854V10.6683H12.6683V25.3317ZM20.3073 15.8487H15.039C14.6 15.8487 14.2487 15.4975 14.2487 15.0585C14.2487 14.6194 14.6 14.2682 15.039 14.2682H20.3073C20.7463 14.2682 21.0975 14.6194 21.0975 15.0585C21.0975 15.4975 20.8341 15.8487 20.3073 15.8487ZM15.039 19.0976H20.3073C20.8341 19.0976 21.1853 18.7463 21.0975 18.3073C21.0975 17.8683 20.7463 17.5171 20.3073 17.5171H15.039C14.6 17.5171 14.2487 17.8683 14.2487 18.3073C14.2487 18.7463 14.6 19.0976 15.039 19.0976Z" fill="white"/>
<defs>
<linearGradient id="paint0_linear" x1="0" y1="0" x2="42.5746" y2="11.3602" gradientUnits="userSpaceOnUse">
<stop stop-color="#58EDFF"/>
<stop offset="1" stop-color="#004BFF"/>
</linearGradient>
</defs>
</svg>
