<svg width="1510" height="780" viewBox="0 0 1510 780" fill="none" xmlns="http://www.w3.org/2000/svg">
<mask id="mask0" mask-type="alpha" maskUnits="userSpaceOnUse" x="0" y="0" width="1510" height="780">
<rect width="1510" height="780" fill="url(#paint0_linear)"/>
</mask>
<g mask="url(#mask0)">
<path d="M321.079 106.638L59.1503 -209.655L-63.9043 249.591L321.079 106.638Z" fill="url(#paint1_linear)" fill-opacity="0.3"/>
<path d="M1050 771.755L1588.83 971.834L1416.6 329.07L1050 771.755Z" fill="url(#paint2_linear)" fill-opacity="0.3"/>
<path d="M1103.63 500L1027.97 718.828L1285.26 643.596L1103.63 500Z" fill="url(#paint3_linear)" fill-opacity="0.3"/>
<path d="M796.161 55.6981L685.63 375.401L1061.52 265.489L796.161 55.6981Z" fill="url(#paint4_linear)" fill-opacity="0.3"/>
<path d="M333.217 455L66.5188 527.648L313.838 730.736L333.217 455Z" fill="url(#paint5_linear)" fill-opacity="0.3"/>
<path d="M-1.52462 592L-41.3173 1015.24L384.908 769.158L-1.52462 592Z" fill="url(#paint6_linear)" fill-opacity="0.3"/>
</g>
<defs>
<linearGradient id="paint0_linear" x1="-0.257316" y1="390.18" x2="1510.08" y2="390.18" gradientUnits="userSpaceOnUse">
<stop offset="0.00628811" stop-color="#07AB8D"/>
<stop offset="1" stop-color="#079F7B"/>
</linearGradient>
<linearGradient id="paint1_linear" x1="-49" y1="-21.0001" x2="283.56" y2="-85.8289" gradientUnits="userSpaceOnUse">
<stop stop-color="#9C1CB2"/>
<stop offset="1" stop-color="#6722C4"/>
</linearGradient>
<linearGradient id="paint2_linear" x1="1502.29" y1="603.718" x2="1236.33" y2="925.676" gradientUnits="userSpaceOnUse">
<stop stop-color="#9C1CB2"/>
<stop offset="1" stop-color="#812ED4"/>
</linearGradient>
<linearGradient id="paint3_linear" x1="1175.43" y1="680.614" x2="1043.34" y2="576.446" gradientUnits="userSpaceOnUse">
<stop stop-color="#9C1CB2"/>
<stop offset="1" stop-color="#812ED4"/>
</linearGradient>
<linearGradient id="paint4_linear" x1="901.066" y1="319.571" x2="708.084" y2="167.385" gradientUnits="userSpaceOnUse">
<stop stop-color="#9C1CB2"/>
<stop offset="1" stop-color="#812ED4"/>
</linearGradient>
<linearGradient id="paint5_linear" x1="202.501" y1="638.471" x2="226.315" y2="458.255" gradientUnits="userSpaceOnUse">
<stop stop-color="#8516AD"/>
<stop offset="1" stop-color="#6722C4"/>
</linearGradient>
<linearGradient id="paint6_linear" x1="191.822" y1="879.484" x2="-54.7081" y2="747.648" gradientUnits="userSpaceOnUse">
<stop stop-color="#8516AD"/>
<stop offset="1" stop-color="#6722C4"/>
</linearGradient>
</defs>
</svg>
