<svg width="20" height="15" viewBox="0 0 20 15" fill="none" xmlns="http://www.w3.org/2000/svg">
<path d="M19.0027 3.17547L19.4595 3.37867L19.0027 3.17547ZM18.9738 2.01L18.8668 2.25057L19.7805 2.65698L19.8875 2.41641L18.9738 2.01ZM18.6528 2.7317L18.5458 2.97227L19.4595 3.37867L19.5665 3.13811L18.6528 2.7317ZM18.5458 2.97227C18.3571 3.39658 18.1517 3.80904 17.9308 4.20915L18.8062 4.69253C19.041 4.26739 19.2591 3.82924 19.4595 3.37867L18.5458 2.97227ZM16.393 6.49968C15.811 7.22204 15.1709 7.88681 14.4821 8.48932L15.1405 9.24199C15.8725 8.60163 16.553 7.895 17.1717 7.12709L16.393 6.49968ZM12.256 10.1195C11.4683 10.5976 10.6406 11.007 9.78251 11.3427L10.1469 12.2739C11.0586 11.9172 11.938 11.4823 12.7749 10.9743L12.256 10.1195ZM7.13581 12.1223C6.2389 12.304 5.32206 12.4091 4.39472 12.4332L4.42066 13.4329C5.40649 13.4073 6.38107 13.2955 7.33433 13.1024L7.13581 12.1223ZM1.64096 12.265C1.1889 12.1977 0.736457 12.1106 0.284695 12.003L0.0530668 12.9758C0.532785 13.09 1.01339 13.1826 1.49375 13.2541L1.64096 12.265Z" fill="#DD4C3A"/>
</svg>
