<svg xmlns="http://www.w3.org/2000/svg" width="20" height="18" viewBox="0 0 20 18">
    <path fill="#1E201D" fill-rule="evenodd" d="M8.77.26a.928.928 0 0 1 1.29 0 .853.853 0 0 1 0 1.23L3.522 7.788h15.575c.503 0 .903.386.903.87s-.4.882-.903.882H3.522l6.538 6.286a.868.868 0 0 1 0 1.242.928.928 0 0 1-1.29 0L.686 9.279a.834.834 0 0 1 0-1.23L8.77.262z"/>
</svg>
