<svg xmlns="http://www.w3.org/2000/svg" width="22" height="22" viewBox="0 0 22 22">
    <path fill="#199CFF" fill-rule="nonzero" d="M7.466 10.912h2.89v2.417h-2.89v-2.417zm8.357-3.705h2.935v2.416h-2.935V7.207zm0 3.705h2.935v2.417h-2.935v-2.417zm-12.58 0h2.934v2.417H3.242v-2.417zm8.402 0h2.889v2.417h-2.89v-2.417zm0-3.705h2.889v2.416h-2.89V7.207zm0-3.766h2.889v2.477h-2.89V3.44zm-8.403 0h2.935v2.477H3.242V3.44zM3.834 0h14.332v2.152H3.834V0zm3.632 3.441h2.89v2.477h-2.89V3.44zm0 3.766h2.89v2.416h-2.89V7.207zm8.357-3.766h2.935v2.477h-2.935V3.44zM3.243 7.207h2.934v2.416H3.242V7.207zM18.757 20.71H22V22H0v-1.29h3.242v-6.092h15.516v6.093zm-3.955 0v-4.404H7.197v4.404h1.29v-3.115h1.868v3.115h1.29v-3.115h1.869v3.115h1.289z"/>
</svg>
