<svg width="12" height="10" viewBox="0 0 12 10" fill="none" xmlns="http://www.w3.org/2000/svg">
<path fill-rule="evenodd" clip-rule="evenodd" d="M0.693189 10H10.3272C10.5702 10 10.7962 9.878 10.9222 9.676C11.0472 9.475 11.0532 9.226 10.9392 9.02L6.13219 0.353C6.01219 0.136 5.77719 0 5.52119 0C5.26519 0 5.03119 0.136 4.91119 0.352L0.082189 9.018C-0.032811 9.225 -0.026811 9.475 0.098189 9.676C0.223189 9.876 0.449189 10 0.693189 10ZM5.52119 7.333C5.90319 7.333 6.21419 7.632 6.21419 8C6.21419 8.368 5.90319 8.667 5.52119 8.667C5.13919 8.667 4.82819 8.368 4.82819 8C4.82819 7.632 5.13919 7.333 5.52119 7.333ZM4.82819 6.01V3.344C4.82819 2.976 5.13919 2.677 5.52119 2.677C5.90319 2.677 6.21419 2.976 6.21419 3.344V6.01C6.21419 6.379 5.90319 6.677 5.52119 6.677C5.13919 6.677 4.82819 6.379 4.82819 6.01Z" fill="#FF9948"/>
</svg>
